Division,WeightClassKg,Place,Name,Team,BodyweightKg,Best3SquatKg,Best3BenchKg,Best3DeadliftKg,TotalKg,Equipment,Event,Sex
Boys,51.71,1,Josiah Olvera,Riesel,50.89,95.25,45.36,115.67,256.28,Single-ply,SBD,M
Boys,51.71,2,Jay King,Bosqueville,50.53,97.52,58.97,92.99,249.48,Single-ply,SBD,M
Boys,51.71,3,Demitrius Parker,Waco La Vega,44.36,70.31,49.9,102.06,222.26,Single-ply,SBD,M
Boys,55.79,1,Faison Stroup,Waco University,55.79,133.81,74.84,154.22,362.87,Single-ply,SBD,M
Boys,55.79,2,Gilberto Olguin,Waco Connally,55.79,138.35,77.11,138.35,353.8,Single-ply,SBD,M
Boys,55.79,3,Antonio Sanchez,Waco Reicher Catholic,55.79,104.33,61.23,149.69,315.25,Single-ply,SBD,M
Boys,55.79,4,Chris Eckenrode,Riesel,55.61,108.86,63.5,133.81,306.17,Single-ply,SBD,M
Boys,55.79,DQ,Aquarius McPhaul,Waco University,55.61,,,,,Single-ply,SBD,M
Boys,59.87,1,Dion Miclat,Waco Reicher Catholic,59.6,124.74,72.57,192.78,390.09,Single-ply,SBD,M
Boys,59.87,2,Khyran Jones,McGregor,57.15,145.15,74.84,142.88,362.87,Single-ply,SBD,M
Boys,59.87,3,Stetson Thompson,Riesel,57.79,129.27,74.84,149.69,353.8,Single-ply,SBD,M
Boys,59.87,4,Lane Francis,Bosqueville,59.06,136.08,72.57,140.61,349.27,Single-ply,SBD,M
Boys,59.87,5,Jared Rocha,Waco Reicher Catholic,59.78,117.93,70.31,147.42,335.66,Single-ply,SBD,M
Boys,59.87,6,Wyatt Churchman,China Spring,59.24,104.33,77.11,149.69,331.12,Single-ply,SBD,M
Boys,59.87,7,Christian Watkins,Rogers,59.6,113.4,61.23,117.93,292.57,Single-ply,SBD,M
Boys,59.87,8,Marcus Tippie,McGregor,56.61,102.06,61.23,113.4,276.69,Single-ply,SBD,M
Boys,67.13,1,Harris Sherrod,Jewett Leon,62.51,183.7,77.11,197.31,458.13,Single-ply,SBD,M
Boys,67.13,2,Bryan McNeill,Rogers,63.87,170.1,104.33,183.7,458.13,Single-ply,SBD,M
Boys,67.13,3,Devin Jackson,Waco La Vega,67.13,172.37,102.06,163.29,437.72,Single-ply,SBD,M
Boys,67.13,4,Collin Taylor,Thorndale,62.41,163.29,70.31,158.76,392.36,Single-ply,SBD,M
Boys,67.13,5,Ty Torbert,Crawford,63.32,142.88,83.91,138.35,365.14,Single-ply,SBD,M
Boys,67.13,6,Victor Aguillar,China Spring,66.68,147.42,88.45,129.27,365.14,Single-ply,SBD,M
Boys,67.13,7,Kevon Britt,Waco University,64.86,133.81,68.04,142.88,344.73,Single-ply,SBD,M
Boys,67.13,8,Nathan Macik,Waco Reicher Catholic,66.95,124.74,68.04,151.95,344.73,Single-ply,SBD,M
Boys,67.13,9,Dustin Perkins,Franklin,67.13,92.99,68.04,136.08,297.1,Single-ply,SBD,M
Boys,67.13,10,Robert Hodnett,Bosqueville,64.05,95.25,61.23,92.99,249.48,Single-ply,SBD,M
Boys,67.13,11,Gabe Ramthon,Thorndale,66.68,86.18,49.9,83.91,219.99,Single-ply,SBD,M
Boys,67.13,DQ,Elisha Cummings,Waco La Vega,67.13,,,,,Single-ply,SBD,M
Boys,67.13,DQ,Larson Hoffmeyer,Bosqueville,64.32,,,,,Single-ply,SBD,M
Boys,67.13,DQ,Riley Kinsey,Riesel,62.96,,,,,Single-ply,SBD,M
Boys,74.84,1,Zane Taylor,Crawford,74.57,181.44,86.18,190.51,458.13,Single-ply,SBD,M
Boys,74.84,2,Ian Smith,Bosqueville,73.3,151.95,97.52,185.97,435.45,Single-ply,SBD,M
Boys,74.84,3,Sebastion Evans,Waco University,72.94,142.88,106.59,181.44,430.91,Single-ply,SBD,M
Boys,74.84,4,Jason Renevato,Waco La Vega,71.3,161.03,83.91,174.63,419.57,Single-ply,SBD,M
Boys,74.84,5,Zachary Aiken,Liberty Hill,73.66,145.15,77.11,158.76,381.02,Single-ply,SBD,M
Boys,74.84,6,Joe Squiers,Franklin,74.84,140.61,86.18,154.22,381.02,Single-ply,SBD,M
Boys,74.84,7,Justin Paxton,Thorndale,72.85,129.27,83.91,149.69,362.87,Single-ply,SBD,M
Boys,74.84,8,Bryce Tonkin,Waco Reicher Catholic,73.71,120.2,79.38,154.22,353.8,Single-ply,SBD,M
Boys,74.84,9,Davion Carr,Waco La Vega,71.85,115.67,86.18,136.08,337.93,Single-ply,SBD,M
Boys,74.84,DQ,Jeremy Flake,Jewett Leon,72.03,158.76,,,,Single-ply,SBD,M
Boys,82.1,1,Bradley Bass,Waco Reicher Catholic,82.1,181.44,120.2,204.12,505.76,Single-ply,SBD,M
Boys,82.1,2,Emmanuel Abdullah,China Spring,75.75,170.1,120.2,188.24,478.54,Single-ply,SBD,M
Boys,82.1,3,Jordan Morgan,Waco La Vega,80.01,183.7,102.06,188.24,474,Single-ply,SBD,M
Boys,82.1,4,Cordell Grant,Crawford,80.2,183.7,99.79,183.7,467.2,Single-ply,SBD,M
Boys,82.1,5,Noah Jenkins,McGregor,82.01,163.29,90.72,188.24,442.25,Single-ply,SBD,M
Boys,82.1,6,Bryan Garza,China Spring,76.02,158.76,106.59,158.76,424.11,Single-ply,SBD,M
Boys,82.1,7,Terrance Smith,Jewett Leon,79.29,163.29,79.38,181.44,424.11,Single-ply,SBD,M
Boys,82.1,8,Hunter Heath,Bosqueville,81.56,151.95,90.72,181.44,424.11,Single-ply,SBD,M
Boys,82.1,9,Ryan Perez,Waco Reicher Catholic,81.19,165.56,83.91,165.56,415.04,Single-ply,SBD,M
Boys,82.1,10,Cameron Aldridge,Jewett Leon,77.29,145.15,86.18,181.44,412.77,Single-ply,SBD,M
Boys,82.1,11,Ke'Eran Ginn,Waco La Vega,79.65,151.95,102.06,147.42,401.43,Single-ply,SBD,M
Boys,82.1,12,Curtis Stanford,Jewett Leon,77.84,127.01,95.25,147.42,369.68,Single-ply,SBD,M
Boys,82.1,13,Isaac Suarez,Franklin,78.47,129.27,74.84,142.88,347,Single-ply,SBD,M
Boys,82.1,14,Mason McHugh,Waco Reicher Catholic,77.11,106.59,74.84,142.88,324.32,Single-ply,SBD,M
Boys,82.1,15,Willie Burns,Bosqueville,79.65,115.67,81.65,127.01,324.32,Single-ply,SBD,M
Boys,82.1,16,Caleb Humphries,Crawford,82.1,92.99,61.23,102.06,256.28,Single-ply,SBD,M
Boys,82.1,DQ,Carter Hooser,Crawford,79.02,124.74,70.31,,,Single-ply,SBD,M
Boys,82.1,DQ,Landry Bolin,Liberty Hill,76.84,170.1,113.4,,,Single-ply,SBD,M
Boys,89.81,1,Cortney Young,Rogers,88.45,258.55,151.95,215.46,625.96,Single-ply,SBD,M
Boys,89.81,2,Evan Doskocil,Rogers,84.01,226.8,111.13,208.65,546.58,Single-ply,SBD,M
Boys,89.81,3,Cristian Keizer,Liberty Hill,85.37,206.38,122.47,172.37,501.22,Single-ply,SBD,M
Boys,89.81,4,Walter Beltran,Jewett Leon,82.37,190.51,92.99,190.51,474,Single-ply,SBD,M
Boys,89.81,5,Ethan Booker,Thorndale,84.64,188.24,108.86,170.1,467.2,Single-ply,SBD,M
Boys,89.81,6,Dylan Hofferichter,China Spring,89.18,165.56,111.13,183.7,460.4,Single-ply,SBD,M
Boys,89.81,7,Doug Varcasia,China Spring,84.91,163.29,115.67,174.63,453.59,Single-ply,SBD,M
Boys,89.81,8,Kobe LeBreche,Franklin,84.64,163.29,83.91,165.56,412.77,Single-ply,SBD,M
Boys,89.81,9,Joseph Vega,Franklin,83.37,136.08,81.65,149.69,367.41,Single-ply,SBD,M
Boys,89.81,10,Justin Banajak,Riesel,86.18,199.58,,,199.58,Single-ply,S,M
Boys,89.81,DQ,Lakota Lawrence,Liberty Hill,88.18,183.7,131.54,,,Single-ply,SBD,M
Boys,99.79,1,Vincent Wilson,Rogers,96.16,272.16,183.7,276.69,732.55,Single-ply,SBD,M
Boys,99.79,2,Mikey Castillo,McGregor,99.7,254.01,170.1,240.4,664.51,Single-ply,SBD,M
Boys,99.79,3,Matthew Carter,Liberty Hill,94.08,238.14,142.88,240.4,621.42,Single-ply,SBD,M
Boys,99.79,4,James Carpenter,Rogers,92.53,226.8,151.95,222.26,601.01,Single-ply,SBD,M
Boys,99.79,5,Mason Liles,Thorndale,99.79,235.87,124.74,217.72,578.33,Single-ply,SBD,M
Boys,99.79,6,Ethan Duckworth,China Spring,97.16,181.44,131.54,195.04,508.02,Single-ply,SBD,M
Boys,99.79,7,Nick Ucci,Jewett Leon,93.98,181.44,95.25,188.24,464.93,Single-ply,SBD,M
Boys,99.79,8,Johnson Zephanie,Waco University,93.98,167.83,99.79,192.78,460.4,Single-ply,SBD,M
Boys,99.79,9,Brian Williams,Waco Connally,96.8,176.9,117.93,156.49,451.32,Single-ply,SBD,M
Boys,99.79,10,Tyler Huf,Thorndale,90.9,149.69,81.65,185.97,417.3,Single-ply,SBD,M
Boys,99.79,11,Tucker Stephenson,Liberty Hill,93.53,142.88,79.38,158.76,381.02,Single-ply,SBD,M
Boys,99.79,DQ,Blake Barrett,China Spring,90.17,179.17,,,,Single-ply,SBD,M
Boys,99.79,DQ,Elijah Muhammad,Waco University,94.44,167.83,,,,Single-ply,SBD,M
Boys,109.77,1,Zach Solano,Rogers,107.05,283.5,192.78,226.8,703.07,Single-ply,SBD,M
Boys,109.77,2,Justin Montgomery,Liberty Hill,108.68,254.01,154.22,226.8,635.03,Single-ply,SBD,M
Boys,109.77,3,Josh Begesse,China Spring,104.42,226.8,131.54,197.31,555.65,Single-ply,SBD,M
Boys,109.77,4,Lemual Alexander,Waco University,106.96,233.6,129.27,188.24,551.11,Single-ply,SBD,M
Boys,109.77,5,Jacob Pedroza,Thorndale,107.32,226.8,106.59,170.1,503.49,Single-ply,SBD,M
Boys,109.77,6,Drake Truitt,Liberty Hill,102.97,213.19,104.33,165.56,483.08,Single-ply,SBD,M
Boys,109.77,7,Isiah Mason,Liberty Hill,105.78,163.29,124.74,185.97,474,Single-ply,SBD,M
Boys,109.77,8,Louis Alvarado,Waco University,105.6,176.9,92.99,183.7,453.59,Single-ply,SBD,M
Boys,109.77,9,Jonathon Smith,Waco La Vega,107.23,161.03,97.52,170.1,428.64,Single-ply,SBD,M
Boys,109.77,10,Michael Hare,Bosqueville,100.61,122.47,86.18,138.35,347,Single-ply,SBD,M
Boys,109.77,11,Donnie Alexander,Jewett Leon,103.15,174.63,,,174.63,Single-ply,S,M
Boys,124.74,1,Jairo Rodriguez,Waco La Vega,122.11,294.84,151.95,242.67,689.46,Single-ply,SBD,M
Boys,124.74,2,Crispin Salinas,Chilton,113.31,219.99,136.08,235.87,591.94,Single-ply,SBD,M
Boys,124.74,3,James Baggett,Waco La Vega,115.67,215.46,145.15,215.46,576.06,Single-ply,SBD,M
Boys,124.74,4,Connor Arney,Rogers,115.67,226.8,113.4,208.65,548.85,Single-ply,SBD,M
Boys,124.74,5,Johnathan Luman,Thorndale,115.85,206.38,115.67,197.31,519.36,Single-ply,SBD,M
Boys,124.74,6,Chase Sharp,China Spring,114.31,208.65,115.67,181.44,505.76,Single-ply,SBD,M
Boys,124.74,7,Brian Diaz,McGregor,121.38,208.65,102.06,195.04,505.76,Single-ply,SBD,M
Boys,124.74,8,Gabriel Gongora,Waco La Vega,110.22,192.78,99.79,174.63,467.2,Single-ply,SBD,M
Boys,124.74,9,Jackson Bayer,Waco Reicher Catholic,113.4,165.56,86.18,181.44,433.18,Single-ply,SBD,M
Boys,124.74,10,Jake Knuppell,Crawford,121.93,190.51,86.18,154.22,430.91,Single-ply,SBD,M
Boys,124.74,11,Preston Cooper,Riesel,112.04,181.44,74.84,120.2,376.48,Single-ply,SBD,M
Boys,124.74+,1,Seth Kohlscheen,Crawford,136.8,290.3,165.56,254.01,709.87,Single-ply,SBD,M
Boys,124.74+,2,Logan Begesse,China Spring,125.19,274.42,163.29,204.12,641.83,Single-ply,SBD,M
Boys,124.74+,3,Noah Plsek,Waco Reicher Catholic,133.63,235.87,120.2,247.21,603.28,Single-ply,SBD,M
Boys,124.74+,4,Zach Mellinger,Waco Reicher Catholic,135.71,199.58,99.79,190.51,489.88,Single-ply,SBD,M
Boys,124.74+,DQ,Chris Vasquez,Chilton,127.28,204.12,,,,Single-ply,SBD,M
