Place,Sex,Name,Event,Division,WeightClassKg,Equipment,State,BodyweightKg,Squat1Kg,Squat2Kg,Squat3Kg,Best3SquatKg,Bench1Kg,Bench2Kg,Bench3Kg,Best3BenchKg,Deadlift1Kg,Deadlift2Kg,Deadlift3Kg,Best3DeadliftKg,TotalKg,BirthYear
1,M,Jeff Lewis,B,MR-M1b,120+,Raw,MO,237.5,,,,,210,220,,220.0,,,,,220,1970
1,M,Jackson Jennings,SBD,MR-Jr,93,Raw,IL,91.8,205,220,235,235.0,152.5,160,165,165.0,205,217.5,227.5,227.5,627.5,1995
1,M,Steven Fritsch,SBD,MR-Jr,105,Raw,IL,103.2,220,245,250,250.0,157.5,167.5,-172.5,167.5,255,275,287.5,287.5,705,1994
2,M,Daniel Takacs,SBD,MR-Jr,105,Raw,IL,102,195,210,225,225.0,115,125,127.5,127.5,205,220,235,235.0,587.5,1995
3,M,Christopher Rogers,SBD,MR-Jr,105,Raw,IL,99.6,-192.5,192.5,197.5,197.5,130,135,-142.5,135.0,210,220,-240,220.0,552.5,1995
1,M,Kyle Franke,SBD,MR-Jr,120,Raw,IL,109.1,207.5,220,227.5,227.5,135,142.5,-147.5,142.5,225,240,255,255.0,625,1991
1,M,Sherman Voegtle,SBD,MR-M1a,74,Raw,IL,73,100,105,110,110.0,80,85,90,90.0,125,137.5,145,145.0,345,1976
1,M,Kurt Richardson,SBD,MR-M1a,93,Raw,MO,92.9,175,190,200,200.0,115,120,-125,120.0,165,185,200,200.0,520,1972
1,M,Steve Welch,SBD,MR-M1a,105,Raw,MO,105,210,227.5,232.5,232.5,135,140,142.5,142.5,222.5,232.5,240,240.0,615,1974
1,M,Michael Horton,SBD,MR-O,93,Raw,MO,83.3,227.5,240,-250,240.0,150,,,150.0,257.5,-275,-275,257.5,647.5,1989
2,M,Markus Stover,SBD,MR-O,93,Raw,IL,91,215,-225,225,225.0,132.5,140,-145,140.0,245,-262.5,-262.5,245.0,610,1989
3,M,Ben Eyermann,SBD,MR-O,93,Raw,MO,91.7,182.5,192.5,-202.5,192.5,147.5,-155,155,155.0,230,235,-237.5,235.0,582.5,1988
4,M,Tim Wilkinson,SBD,MR-O,93,Raw,MO,90.9,150,155,160,160.0,110,115,-120,115.0,200,210,215,215.0,490,1977
1,M,Matt Swanson,SBD,MR-O,105,Raw,IL,104.3,237.5,255,262.5,262.5,150,155,157.5,157.5,267.5,290,300,300.0,720,1979
2,M,Mark Sharp,SBD,MR-O,105,Raw,MO,103.6,215,-227.5,227.5,227.5,137.5,142.5,147.5,147.5,235,247.5,-260,247.5,622.5,1987
3,M,Bobby Bollinger,SBD,MR-O,105,Raw,MO,98.1,195,210,-220,210.0,132.5,135,137.5,137.5,237.5,245,-252.5,245.0,592.5,1984
DQ,M,Paul Kienker,SBD,MR-O,105,Raw,MO,103.4,200,210,-220,210.0,-127.5,-135,-135,,240,255,260,260.0,,1989
1,M,Mike Zimmerman,SBD,MR-O,120,Raw,MO,113.2,265,277.5,282.5,282.5,182.5,197.5,202.5,202.5,287.5,300,310,310.0,795,1978
1,M,Joe Morrell,SBD,MR-O,120+,Raw,MO,135.2,205,220,227.5,227.5,145,152.5,157.5,157.5,270,282.5,-292.5,282.5,667.5,1983
1,M,Andrew Ickler,SBD,MR-T2,74,Raw,IL,70.8,157.5,165,-172.5,165.0,105,110,-115,110.0,182.5,192.5,-197.5,192.5,467.5,1998
1,M,Kane Garcia,SBD,MR-T3,66,Raw,IL,63.8,190,-195,195,195.0,122.5,130,-135,130.0,220,235,-250,235.0,560,1996
1,M,Bradly Sodam,SBD,MR-T3,83,Raw,IL,82.2,142.5,,,142.5,112.5,120,127.5,127.5,142.5,,,142.5,412.5,1996
1,M,Landon Bale,SBD,MR-T3,93,Raw,IL,84.7,125,-135,-135,125.0,-92.5,92.5,-97.5,92.5,172.5,-182.5,-182.5,172.5,390,1996
1,M,David Schlieker,SBD,MR-T3,120+,Raw,IL,122.8,197.5,,,197.5,140,-145,-145,140.0,257.5,265,-272.5,265.0,602.5,1996
1,F,Lindsey Raker,SBD,FR-Jr,72,Raw,IN,71.8,125,-130,130,130.0,72.5,77.5,-82.5,77.5,165,-177.5,182.5,182.5,390,1995
1,F,Anna Gailius,SBD,FR-Jr,84+,Raw,IL,90,120,125,132.5,132.5,72.5,80,85,85.0,127.5,137.5,152.5,152.5,370,1995
1,F,Marisa Eash,SBD,FR-M1a,52,Raw,MO,51.1,67.5,72.5,-77.5,72.5,42.5,-45,45,45.0,105,115,120,120.0,237.5,1976
1,F,Denise Manker,SBD,FR-M1a,57,Raw,IL,55.4,85,92.5,-102.5,92.5,52.5,55,-62.5,55.0,115,120,127.5,127.5,275,1972
1,F,Jackie Hall,SBD,FR-M1a,72,Raw,MO,69.6,112.5,120,127.5,127.5,65,67.5,-70,67.5,130,135,-140,135.0,330,1975
1,F,Shannon Borgmann,SBD,FR-M1a,84+,Raw,MO,92.9,102.5,-110,-110,102.5,47.5,57.5,-62.5,57.5,125,142.5,-160,142.5,302.5,1972
2,F,Cara Bowen,SBD,FR-M1a,84+,Raw,MO,118.5,-67.5,67.5,72.5,72.5,42.5,47.5,-50,47.5,87.5,97.5,110,110.0,230,1976
1,F,Carmella Mattingly,SBD,FR-M1b,63,Raw,MO,59.1,130,135,140,140.0,70,-72.5,-72.5,70.0,142.5,147.5,-152.5,147.5,357.5,1971
1,F,Cheryl Venorsky,SBD,FR-M1b,84,Raw,IL,73.1,62.5,,,62.5,72.5,82.5,-87.5,82.5,135,150,170,170.0,315,1970
1,F,Rachel Wood,SBD,FR-O,52,Raw,MO,51.7,95,100,-105,100.0,50,55,57.5,57.5,120,130,-137.5,130.0,287.5,1990
1,F,Caresse Hollendoner,SBD,FR-O,57,Raw,IL,56.7,90,97.5,100,100.0,52.5,57.5,-60,57.5,127.5,135,140,140.0,297.5,1987
DQ,F,Erica Leong,SBD,FR-O,57,Raw,MO,56.5,-85,85,-90,85.0,-47.5,-47.5,-47.5,,75,77.5,80,80.0,,1986
1,F,Kassie Kussman,SBD,FR-O,63,Raw,MO,61.4,80,85,-92.5,85.0,50,-52.5,52.5,52.5,117.5,122.5,-127.5,122.5,260,1985
2,F,Megan Williams,SBD,FR-O,63,Raw,MO,63,-80,80,-82.5,80.0,50,55,-57.5,55.0,105,110,115,115.0,250,1991
1,F,Cassandra Garcilaso,SBD,FR-O,72,Raw,MO,72,135,-145,-145,135.0,70,75,-80,75.0,165,175,182.5,182.5,392.5,1991
2,F,Annie Ngo,SBD,FR-O,72,Raw,MO,71.5,117.5,127.5,-135,127.5,77.5,82.5,87.5,87.5,142.5,152.5,162.5,162.5,377.5,1989
3,F,Jamie Simon,SBD,FR-O,72,Raw,MO,67.4,-122.5,-122.5,122.5,122.5,62.5,67.5,-72.5,67.5,147.5,157.5,162.5,162.5,352.5,1983
4,F,Katie Funkhouser,SBD,FR-O,72,Raw,MO,69.9,120,127.5,-137.5,127.5,57.5,60,-62.5,60.0,150,162.5,165,165.0,352.5,1989
5,F,Emily Zwilling,SBD,FR-O,72,Raw,MO,68.2,-107.5,110,117.5,117.5,55,60,-62.5,60.0,127.5,140,150,150.0,327.5,1984
DQ,F,Melissa Johnson,SBD,FR-O,72,Raw,IL,70.4,120,-130,-130,120.0,-60,-65,-65,,115,120,-130,120.0,,1983
1,F,Victoria Young,SBD,FR-O,84+,Raw,MO,90.9,140,150,152.5,152.5,55,60,-62.5,60.0,155,165,-172.5,165.0,377.5,1985
1,F,Capri Vita,SBD,FR-T3,57,Raw,IL,56.9,-72.5,72.5,80,80.0,35,40,-42.5,40.0,100,110,-115,110.0,230,1996
1,F,Teagan Schwab,SBD,FR-T3,84,Raw,IL,74,-110,110,-117.5,110.0,55,60,65,65.0,137.5,150,-162.5,150.0,325,1996
1,F,Lauren Varosi-Garavaglia,SBD,FR-T3,84+,Raw,MI,135,165,-175,182.5,182.5,77.5,85,-90,85.0,165,172.5,185,185.0,452.5,1996
2,F,Meredith O'Brien,SBD,FR-T3,84+,Raw,IL,107,107.5,112.5,122.5,122.5,50,55,-57.5,55.0,130,140,-150,140.0,317.5,1996
