Event,Sex,Name,State,WeightClassKg,Division,Best3SquatKg,Best3BenchKg,Best3DeadliftKg,TotalKg,Equipment,Place
SBD,F,Treena Anthony,AB,90,Open,172.5,92.5,200,465,Single-ply,1
SBD,M,Jason Duclos,AB,82.5,Open,222.5,142.5,250,615,Single-ply,1
SBD,M,Andrew Bryant,BC,82.5,Open,170,100,180,450,Single-ply,2
SBD,F,Kim Dennis,BC,67.5,Open,152.5,87.5,152.5,392.5,Single-ply,1
SBD,F,Karen Scott,BC,67.5,Open,75,45,100,220,Single-ply,3
SBD,M,Justin Gray,BC,67.5,Open,162.5,107.5,210,480,Single-ply,1
SBD,F,Judith Franklin,BC,67.5,Open,112.5,62.5,140,315,Single-ply,2
SBD,M,Flavio Formigoni,BC,67.5,Open,120,95,152.5,367.5,Single-ply,2
SBD,M,Surinder Virk,BC,125,Open,240,160,250,650,Single-ply,1
SBD,M,Joe Oliveira,BC,100,Open,257.5,172.5,252.5,682.5,Single-ply,2
SBD,M,Greg St George,BC,100,Open,272.5,182.5,255,710,Single-ply,1
SBD,M,Robert O. Smith,BC,140+,Masters 3,200,220,200,620,Single-ply,1
SBD,M,Darwin Eckstrom,AB,110,Masters 2,230,187.5,210,627.5,Single-ply,1
SBD,M,Harold Schwenk,BC,90,Masters 1,192.5,107.5,197.5,497.5,Single-ply,2
SBD,M,Harnek Sanghera,BC,90,Masters 1,210,92.5,215,517.5,Single-ply,1
SBD,M,Bruce Ball,BC,82.5,Masters 1,152.5,97.5,160,410,Single-ply,1
SBD,F,Jackie Sandu,BC,56,Masters 1,120,65,145,330,Single-ply,1
SBD,M,Raghvir Sahota,BC,100,Masters 1,200,142.5,195,537.5,Single-ply,1
SBD,F,Katherine Gauthier,AB,90+,Juniors,140,87.5,145,372.5,Single-ply,1
SBD,M,Kellan Eckstrom,AB,90,Juniors,200,110,237.5,547.5,Single-ply,1
SBD,M,Harveer Nijjar,BC,82.5,Juniors,160,85,190,435,Single-ply,2
SBD,M,Aaron Ziffle,SK,82.5,Juniors,157.5,132.5,175,465,Single-ply,1
SBD,M,Simardeep Virk,BC,67.5,Juniors,130,50,140,320,Single-ply,1
SBD,F,Rhaea Stinn,SK,67.5,Juniors,157.5,75,170,402.5,Single-ply,1
SBD,M,Aaron Thomas,SK,60,Juniors,145,105,180,430,Single-ply,1
SBD,M,Tommy Buchmann,BC,110,Juniors,265,155,260,680,Single-ply,1
SBD,M,Nathan Higginson,BC,100,Juniors,162.5,145,235,542.5,Single-ply,1
