Division,WeightClassKg,Place,Name,Team,BodyweightKg,Best3SquatKg,Best3BenchKg,Best3DeadliftKg,TotalKg,Equipment,Event,Sex
Boys,51.71,1,Wyatt Mol,Cleveland Tarkington,51.26,86.18,65.77,104.33,256.28,Single-ply,SBD,M
Boys,51.71,2,Hector Gonzalez,Baytown Goose Creek Memorial,47.63,86.18,56.7,102.06,244.94,Single-ply,SBD,M
Boys,51.71,3,Andrew King,Cleveland Tarkington,44.45,86.18,52.16,97.52,235.87,Single-ply,SBD,M
Boys,55.79,1,Ty Pafford,Dayton,55.61,136.08,68.04,142.88,347,Single-ply,SBD,M
Boys,59.87,1,Adam Blodgett,Cleveland Tarkington,56.25,124.74,70.31,127.01,322.05,Single-ply,SBD,M
Boys,59.87,2,Rob Sanders,Sour Lake Hardin-Jefferson,57.33,106.59,70.31,122.47,299.37,Single-ply,SBD,M
Boys,59.87,3,Caesar Palacios,Winnie East Chambers,57.88,102.06,65.77,122.47,290.3,Single-ply,SBD,M
Boys,59.87,4,Noah Ontiveros,La Porte,58.69,92.99,63.5,108.86,265.35,Single-ply,SBD,M
Boys,59.87,5,Xavier Zendajas,Anahuac,56.61,79.38,68.04,102.06,249.48,Single-ply,SBD,M
Boys,67.13,1,Davian Acevedo,Dayton,67.13,163.29,102.06,201.85,467.2,Single-ply,SBD,M
Boys,67.13,2,Zane Wheat,Winnie East Chambers,66.86,156.49,88.45,170.1,415.04,Single-ply,SBD,M
Boys,67.13,3,Brennan Pott,Cleveland Tarkington,61.51,142.88,83.91,151.95,378.75,Single-ply,SBD,M
Boys,67.13,4,Tony Solano,Warren,64.59,145.15,72.57,154.22,371.95,Single-ply,SBD,M
Boys,67.13,5,Easton Revia,Winnie East Chambers,66.86,129.27,83.91,151.95,365.14,Single-ply,SBD,M
Boys,67.13,6,Joshua Alvarado,La Porte,64.86,115.67,70.31,156.49,342.46,Single-ply,SBD,M
Boys,67.13,7,Deric Lowe,Beaumont Ozen,64.86,111.13,68.04,154.22,333.39,Single-ply,SBD,M
Boys,67.13,8,Payton Orzechowizki,Cleveland Tarkington,61.14,129.27,65.77,129.27,324.32,Single-ply,SBD,M
Boys,67.13,9,Isaac Doty,Cleveland Tarkington,60.6,90.72,68.04,124.74,283.5,Single-ply,SBD,M
Boys,67.13,DQ,Kagan Carrizal,La Porte,61.14,,61.23,142.88,,Single-ply,SBD,M
Boys,74.84,1,Charlie Hayman,Sour Lake Hardin-Jefferson,73.84,172.37,97.52,172.37,442.25,Single-ply,SBD,M
Boys,74.84,2,Anthony Ramirez,Anahuac,70.22,142.88,92.99,188.24,424.11,Single-ply,SBD,M
Boys,74.84,3,Tra Bacon,Liberty,68.4,154.22,104.33,156.49,415.04,Single-ply,SBD,M
Boys,74.84,4,Jacob Galle,Sour Lake Hardin-Jefferson,72.85,142.88,90.72,174.63,408.23,Single-ply,SBD,M
Boys,74.84,5,Bradley Sanders,Cleveland Tarkington,74.57,170.1,90.72,142.88,403.7,Single-ply,SBD,M
Boys,74.84,6,Tanner Fugere,Anahuac,71.4,140.61,92.99,165.56,399.16,Single-ply,SBD,M
Boys,74.84,7,Mark Rodriguez,Winnie East Chambers,74.12,145.15,65.77,181.44,392.36,Single-ply,SBD,M
Boys,74.84,8,Zach Busby,Winnie East Chambers,73.94,140.61,90.72,151.95,383.29,Single-ply,SBD,M
Boys,74.84,9,Elijah Chambers,Liberty,71.85,129.27,83.91,138.35,351.53,Single-ply,SBD,M
Boys,74.84,10,Raphael Martinez,Liberty,71.58,127.01,79.38,138.35,344.73,Single-ply,SBD,M
Boys,74.84,11,Bradley Thomas,Beaumont Ozen,71.58,129.27,63.5,147.42,340.19,Single-ply,SBD,M
Boys,74.84,DQ,Raj Mangat,La Porte,74.66,147.42,113.4,,,Single-ply,SBD,M
Boys,82.1,1,Trevor Howard,Cleveland Tarkington,75.3,192.78,97.52,204.12,494.42,Single-ply,SBD,M
Boys,82.1,2,Logan Hill,Anahuac,81.01,161.03,106.59,226.8,494.42,Single-ply,SBD,M
Boys,82.1,3,Trystain Conner,Sour Lake Hardin-Jefferson,78.2,172.37,95.25,179.17,446.79,Single-ply,SBD,M
Boys,82.1,4,Devon Hadnot,Warren,81.28,154.22,99.79,174.63,428.64,Single-ply,SBD,M
Boys,82.1,5,Isaiah Gladish,La Porte,79.83,156.49,115.67,151.95,424.11,Single-ply,SBD,M
Boys,82.1,6,Ragis Fontenot,Liberty,81.47,136.08,104.33,165.56,405.97,Single-ply,SBD,M
Boys,82.1,7,Chance Soignet,Warren,77.11,142.88,95.25,158.76,396.89,Single-ply,SBD,M
Boys,82.1,8,Logan Dehoyos,Anahuac,81.65,140.61,95.25,149.69,385.55,Single-ply,SBD,M
Boys,82.1,9,Dacota Monteau,Anahuac,81.83,136.08,74.84,158.76,369.68,Single-ply,SBD,M
Boys,82.1,10,Cameron Garcia,Baytown Goose Creek Memorial,82.1,142.88,79.38,145.15,367.41,Single-ply,SBD,M
Boys,82.1,11,Landon Willis,Dayton,77.93,106.59,102.06,136.08,344.73,Single-ply,SBD,M
Boys,82.1,12,Elijah Cruz,Baytown Goose Creek Memorial,76.38,117.93,83.91,136.08,337.93,Single-ply,SBD,M
Boys,82.1,13,Josh Morgan,Liberty,78.38,111.13,61.23,104.33,276.69,Single-ply,SBD,M
Boys,82.1,14,Jason Dearman,Anahuac,78.11,77.11,49.9,97.52,224.53,Single-ply,SBD,M
Boys,82.1,DQ,Dylan Evans,Anahuac,80.2,106.59,,,,Single-ply,SBD,M
Boys,89.81,1,Ty'Rique Smith-Gants,Anahuac,86.18,224.53,129.27,229.06,582.87,Single-ply,SBD,M
Boys,89.81,2,Julian Ybarra,Dayton,88.36,206.38,138.35,226.8,571.53,Single-ply,SBD,M
Boys,89.81,3,Donaciano Gutierrez,La Porte,89.54,181.44,97.52,183.7,462.66,Single-ply,SBD,M
Boys,89.81,4,Ty Louiverre,Sour Lake Hardin-Jefferson,84.91,172.37,86.18,161.03,419.57,Single-ply,SBD,M
Boys,89.81,5,Gabriel Winters,Beaumont Ozen,84.73,147.42,70.31,181.44,399.16,Single-ply,SBD,M
Boys,89.81,6,Gavin Bennett,Dayton,88.63,145.15,102.06,147.42,394.63,Single-ply,SBD,M
Boys,89.81,7,Cade Dye,Anahuac,86.27,136.08,88.45,158.76,383.29,Single-ply,SBD,M
Boys,89.81,8,Lukas Lafargue,Dayton,84.28,131.54,86.18,120.2,337.93,Single-ply,SBD,M
Boys,89.81,9,Ismael Gutierrez,La Porte,87.18,111.13,65.77,136.08,312.98,Single-ply,SBD,M
Boys,89.81,DQ,Vicente Olmos,Baytown Goose Creek Memorial,85.09,,97.52,158.76,,Single-ply,SBD,M
Boys,89.81,DQ,Ladarius Forney,Beaumont Ozen,84.64,136.08,,113.4,,Single-ply,SBD,M
Boys,89.81,DQ,Caleab Richardson,Beaumont Ozen,89.81,,,142.88,,Single-ply,SBD,M
Boys,99.79,1,Brandon Hoskins,Anahuac,98.97,179.17,151.95,197.31,528.44,Single-ply,SBD,M
Boys,99.79,2,Brandon Haltom,Cleveland Tarkington,94.08,201.85,106.59,195.04,503.49,Single-ply,SBD,M
Boys,99.79,3,Eduardo Maury,Beaumont Ozen,96.71,158.76,81.65,208.65,449.06,Single-ply,SBD,M
Boys,99.79,4,Zecheriah Gomez,Baytown Goose Creek Memorial,99.79,158.76,97.52,183.7,439.98,Single-ply,SBD,M
Boys,99.79,5,Jordan LeDay,Liberty,97.07,163.29,90.72,183.7,437.72,Single-ply,SBD,M
Boys,99.79,6,Kolin McCullough,Sour Lake Hardin-Jefferson,99.52,149.69,106.59,172.37,428.64,Single-ply,SBD,M
Boys,99.79,7,Wesley Scott,Liberty,96.25,163.29,92.99,170.1,426.38,Single-ply,SBD,M
Boys,99.79,8,Traitan Crump,Baytown Goose Creek Memorial,90.81,151.95,99.79,161.03,412.77,Single-ply,SBD,M
Boys,99.79,9,Tim Sjolander,Dayton,95.8,147.42,90.72,165.56,403.7,Single-ply,SBD,M
Boys,99.79,10,Chandler Sanders,Liberty,98.97,136.08,95.25,163.29,394.63,Single-ply,SBD,M
Boys,99.79,11,Ricky Owens,Liberty,98.97,136.08,97.52,156.49,390.09,Single-ply,SBD,M
Boys,99.79,12,Justin King,Beaumont Ozen,96.89,122.47,86.18,147.42,356.07,Single-ply,SBD,M
Boys,99.79,DQ,Nathan Greak,Cleveland Tarkington,94.89,,,,,Single-ply,SBD,M
Boys,99.79,DQ,Robbie Robbins,La Porte,93.44,127.01,,151.95,,Single-ply,SBD,M
Boys,99.79,DQ,Thomas Lopez,Sour Lake Hardin-Jefferson,96.34,,,,,Single-ply,SBD,M
Boys,99.79,DQ,Lorenzo Salinas,Baytown Goose Creek Memorial,96.34,,,,,Single-ply,SBD,M
Boys,109.77,1,Kyler Loftin,Warren,106.59,249.48,138.35,217.72,605.55,Single-ply,SBD,M
Boys,109.77,2,Caleb Hayden,Sour Lake Hardin-Jefferson,104.6,217.72,136.08,226.8,580.6,Single-ply,SBD,M
Boys,109.77,3,Tyler Wolfe,La Porte,101.79,215.46,136.08,219.99,571.53,Single-ply,SBD,M
Boys,109.77,4,Jay Gallegos,Dayton,103.96,197.31,111.13,190.51,498.95,Single-ply,SBD,M
Boys,109.77,5,Jerimiah Juarez,Warren,104.33,183.7,97.52,172.37,453.59,Single-ply,SBD,M
Boys,109.77,6,David Hernandez,La Porte,104.6,158.76,99.79,174.63,433.18,Single-ply,SBD,M
Boys,109.77,7,Austin Couhig,Cleveland Tarkington,108.77,167.83,86.18,176.9,430.91,Single-ply,SBD,M
Boys,109.77,8,Jesus Bolanos,Baytown Goose Creek Memorial,105.6,163.29,86.18,165.56,415.04,Single-ply,SBD,M
Boys,109.77,9,Austin Corpus,La Porte,107.41,174.63,70.31,151.95,396.89,Single-ply,SBD,M
Boys,109.77,10,Taylor Young,Beaumont Ozen,106.32,136.08,90.72,151.95,378.75,Single-ply,SBD,M
Boys,109.77,DQ,Terrance Jackson,Beaumont Ozen,107.77,136.08,,170.1,,Single-ply,SBD,M
Boys,109.77,DQ,Albert Hernandez,La Porte,106.05,97.52,,142.88,,Single-ply,SBD,M
Boys,124.74,1,Jamall Edwards,Beaumont Ozen,112.13,249.48,149.69,217.72,616.89,Single-ply,SBD,M
Boys,124.74,2,Ryan Kendzior,La Porte,118.93,238.14,142.88,208.65,589.67,Single-ply,SBD,M
Boys,124.74,3,Peyton McCormick,Cleveland Tarkington,123.01,233.6,129.27,210.92,573.79,Single-ply,SBD,M
Boys,124.74,4,Jacob Jones,Cleveland Tarkington,117.03,215.46,127.01,199.58,542.04,Single-ply,SBD,M
Boys,124.74,5,Albert Regis,La Porte,117.39,197.31,140.61,204.12,542.04,Single-ply,SBD,M
Boys,124.74,6,Dylan Lucier,Warren,111.49,185.97,122.47,192.78,501.22,Single-ply,SBD,M
Boys,124.74,7,Enrique Montes,Sour Lake Hardin-Jefferson,123.38,197.31,97.52,197.31,492.15,Single-ply,SBD,M
Boys,124.74,8,Lucas Tanton,Dayton,122.83,183.7,120.2,179.17,483.08,Single-ply,SBD,M
Boys,124.74,9,Matt Mercado,Cleveland Tarkington,118.12,188.24,88.45,190.51,467.2,Single-ply,SBD,M
Boys,124.74,10,Derius Smith,Beaumont Ozen,119.66,181.44,99.79,140.61,421.84,Single-ply,SBD,M
Boys,124.74,11,Coby Sanderson,La Porte,110.59,179.17,79.38,151.95,410.5,Single-ply,SBD,M
Boys,124.74,12,Tyler Johnson,Liberty,116.3,142.88,79.38,147.42,369.68,Single-ply,SBD,M
Boys,124.74,DQ,Keith Sobnosky,La Porte,121.65,,,,,Single-ply,SBD,M
Boys,124.74+,1,Brycen Boudreaux,La Porte,153.13,260.82,147.42,222.26,630.49,Single-ply,SBD,M
Boys,124.74+,2,Alex Smith,Anahuac,143.7,238.14,149.69,235.87,623.69,Single-ply,SBD,M
Boys,124.74+,3,Jerome Harmon,Beaumont Ozen,131.09,238.14,140.61,226.8,605.55,Single-ply,SBD,M
Boys,124.74+,4,Dillan Ahre,Cleveland Tarkington,171,231.33,122.47,188.24,542.04,Single-ply,SBD,M
Boys,124.74+,5,Raymond Duran,La Porte,131,204.12,136.08,192.78,532.97,Single-ply,SBD,M
Boys,124.74+,6,Dawson Langham,La Porte,131.81,204.12,120.2,204.12,528.44,Single-ply,SBD,M
Boys,124.74+,7,Ulises Ibarra,Baytown Goose Creek Memorial,128,215.46,83.91,183.7,483.08,Single-ply,SBD,M
Boys,124.74+,8,Skylar Shackleford,Sour Lake Hardin-Jefferson,126.37,183.7,113.4,163.29,460.4,Single-ply,SBD,M
Boys,124.74+,9,Micah Hare,Cleveland Tarkington,133.54,183.7,113.4,163.29,460.4,Single-ply,SBD,M
Boys,124.74+,10,Zach Kutack,Liberty,136.71,158.76,115.67,172.37,446.79,Single-ply,SBD,M
Boys,124.74+,11,Darion West,La Porte,134.35,158.76,90.72,183.7,433.18,Single-ply,SBD,M
Boys,124.74+,12,Lane Lindley,Liberty,126.46,145.15,79.38,151.95,376.48,Single-ply,SBD,M
Boys,124.74+,13,Keaton Sanders,Baytown Goose Creek Memorial,132.45,117.93,77.11,142.88,337.93,Single-ply,SBD,M
