WeightClassKg,Division,Name,Age,BodyweightKg,State,Best3BenchKg,TotalKg,Equipment,Event,Sex,Place
110,Submasters,Nick Leihman,37,108.59,GA,138.35,138.35,Raw,B,M,1
90+,Open,Samantha Coleman,36,,TN,142.88,142.88,Raw,B,F,1
100,Open,Ron Carter,45,97.52,GA,219.99,219.99,Raw,B,M,1
100,Masters 45-49,Ron Carter,45,97.52,GA,219.99,219.99,Raw,B,M,1
110,Masters 50-54,Darrin Webb,50,105.51,TN,183.7,183.7,Raw,B,M,1
82.5,Submasters,Nathan Napier,35,81.19,TN,124.74,124.74,Raw,B,M,1
110,Masters 50-54,Darrin Webb,50,105.51,TN,183.7,183.7,Single-ply,B,M,1
