Equipment,Sex,Division,WeightClassKg,Name,Best3SquatKg,Squat4Kg,Best3BenchKg,Bench4Kg,Best3DeadliftKg,TotalKg,BirthDate,Event,Place
Wraps,M,Amateur Teen (14-15),52,Everett Fasnacht,70.31,,58.97,61.23,90.72,219.99,1997-08-02,SBD,1
Wraps,F,Amateur Submasters,52,Nicole Ashley,102.06,,45.36,,99.79,247.21,1972-06-10,SBD,1
Wraps,F,Amateur Masters (40-44),67.5,Michele Knaub,83.91,,38.56,,92.99,215.46,1969-06-20,SBD,1
Multi-ply,M,Amateur Open,100,Jonathan Ross,351.53,,233.6,,292.57,877.7,1983-01-29,SBD,1
Multi-ply,M,Amateur Open,110,Derrick Brown,317.51,,181.44,,283.5,782.45,1971-11-25,SBD,1
Wraps,M,Amateur Open,90,Michael Boyd,192.78,,151.95,,217.72,562.45,1983-03-30,SBD,1
Wraps,M,Amateur Open,90,Brian Williams,172.37,,124.74,,215.46,512.56,1985-05-04,SBD,2
Wraps,M,Amateur Open,100,Bill Huling,213.19,,163.29,167.83,265.35,641.83,1968-07-24,SBD,1
Wraps,M,Amateur Open,100,Bob Hunt,217.72,,147.42,,256.28,621.42,1962-10-15,SBD,2
Wraps,M,Pro Open,110,Darren Hess,226.8,,151.95,,294.84,673.58,1986-07-02,SBD,1
Multi-ply,M,Amateur Masters (40-44),110,Derrick Brown,317.51,,181.44,,283.5,782.45,1971-11-25,SBD,1
Multi-ply,M,Amateur Masters (60-64),110,Fred Fischer,242.67,,138.35,,188.24,569.26,1951-06-05,SBD,1
Wraps,M,Amateur Masters (55-59),75,Doug Kline,161.03,163.29,136.08,,199.58,496.68,1954-06-05,SBD,1
Wraps,M,Amateur Masters (65-69),67.5,Italo Bonacci,145.15,,70.31,,161.03,376.48,1944-06-15,SBD,1
Wraps,M,Amateur Masters (45-49),82.5,Robert Israel,163.29,,92.99,,181.44,437.72,1966-10-12,SBD,1
Wraps,M,Amateur Masters (40-44),100,Bill Huling,213.19,,163.29,167.83,265.35,641.83,1968-07-24,SBD,1
Wraps,M,Amateur Masters (45-49),100,Bob Hunt,217.72,,147.42,,256.28,621.42,1962-10-15,SBD,1
Multi-ply,M,Pro Masters (75-79),75,Fred Glass,154.22,,47.63,,170.1,371.95,1936-11-23,SBD,1
Wraps,M,Pro Masters (45-49),110,Jon Tenbroeck,263.08,,183.7,188.24,254.01,700.8,1966-06-21,SBD,1
Raw,M,Amateur Teen (18-19),56,Andres Negro,,,86.18,88.45,,86.18,1993-08-28,B,1
Raw,M,Amateur Masters (55-59),82.5,Thomas Lewis,,,151.95,,,151.95,1955-04-27,B,1
Raw,M,Amateur Masters (45-49),90,Bernard Trice,,,138.35,,,138.35,1966-11-07,B,1
Raw,M,Amateur Open,90,Clint Koser,,,158.76,,256.28,415.04,1988-02-03,BD,1
Raw,M,Amateur Teen (14-15),60,Brendan Hanna,,,,,138.35,138.35,1997-05-30,D,1
