Equipment,Division,Sex,Event,WeightClassKg,Name,Best3BenchKg,Best3DeadliftKg,TotalKg,Country,State,Bench4Kg,Deadlift4Kg,Place
Single-ply,Elite Open,M,B,67.5,Kerwin Unten,250,,250,USA,HI,254,,1
Single-ply,Elite Open,M,B,140+,Mike Womack,,,,USA,TX,,,DQ
Multi-ply,Open,M,B,100,Kenneth Millrany,305,,305,USA,TN,,,1
Multi-ply,Open,M,B,100,Steven Kaufman,210,,210,USA,TX,,,2
Multi-ply,Open,M,B,100,Thomas Reiher,207.5,,207.5,USA,HI,,,3
Multi-ply,Open,M,B,117.5,Jani Ihalainen,275,,275,Finland,,,,1
Multi-ply,Open,M,B,117.5,Kaleb Crafts,267.5,,267.5,USA,UT,,,2
Multi-ply,Open,M,B,125,Tim Moon,305,,305,USA,GA,,,1
Multi-ply,Open,M,B,125,Mark Stanford,265,,265,USA,AZ,,,2
Multi-ply,Open,M,B,140,Bill Gillespie,340,,340,USA,VA,,,1
Multi-ply,Open,M,B,140,Don Miskinis,182.5,,182.5,USA,OH,,,2
Multi-ply,Open,M,B,140+,Tiny Meeker,377.5,,377.5,USA,TX,,,1
Single-ply,Open,M,B,56,Gerardo Merino Jaramillo,145,,145,Ecuador,,,,1
Single-ply,Open,M,B,56,Vin Voeun,110.5,,110.5,Cambodia,,,,2
Single-ply,Open,M,B,60,Gary Hunter #1,92.5,,92.5,USA,TX,,,3
Single-ply,Open,M,B,67.5,David R Smith,202.5,,202.5,USA,TX,,,1
Single-ply,Open,M,B,67.5,Alfredo Evangelista,192.5,,192.5,USA,OR,,,2
Single-ply,Open,M,B,67.5,Jason Arnold,160.5,,160.5,USA,CA,,,3
Single-ply,Open,M,B,75,Adolfo Davila,227.5,,227.5,USA,CA,,,1
Single-ply,Open,M,B,75,Augustine Mastroine,165,,165,USA,OH,,,3
Single-ply,Open,M,B,75,Fulton White,157.5,,157.5,USA,NV,,,4
Single-ply,Open,M,B,75,Luis Baerga,125,,125,USA,TX,,,7
Single-ply,Open,M,B,82.5,Fil Dena III,192.5,,192.5,USA,NV,,,1
Single-ply,Open,M,B,82.5,Charles Martin,162.5,,162.5,USA,CA,,,4
Single-ply,Open,M,B,82.5,David Wentworth,150,,150,USA,ME,,,5
Single-ply,Open,M,B,90,Coby Washburn,237.5,,237.5,USA,TX,,,1
Single-ply,Open,M,B,90,Jason Taylor,170,,170,USA,MI,,,4
Single-ply,Open,M,B,90,Nathan Sultemeier,147.5,,147.5,USA,TX,,,8
Single-ply,Open,M,B,100,James Kelly,292.5,,292.5,USA,HI,,,1
Single-ply,Open,M,B,100,Scott Edmondson,267.5,,267.5,USA,OR,,,2
Single-ply,Open,M,B,100,James Noblit,250,,250,USA,OR,,,3
Single-ply,Open,M,B,100,Kim Päivöke,245,,245,Finland,,,,4
Single-ply,Open,M,B,100,Heikki Tyrväinen,237.5,,237.5,Finland,,,,5
Single-ply,Open,M,B,100,Will Beavers,237.5,,237.5,USA,CA,,,6
Single-ply,Open,M,B,100,Pauli Piispanen,195,,195,Finland,,,,8
Single-ply,Open,M,B,100,Joe Martinez,167.5,,167.5,USA,CA,,,11
Single-ply,Open,M,B,100,Brandon Blood,165,,165,USA,OH,,,12
Single-ply,Open,M,B,100,Dustin McFarland,150,,150,USA,OR,,,14
Single-ply,Open,M,B,100,Adam Hays,110,,110,USA,AZ,,,16
Single-ply,Open,M,B,110,James Hunter,322.5,,322.5,USA,CA,,,1
Single-ply,Open,M,B,110,Tony Blas,285,,285,Mexico,,,,2
Single-ply,Open,M,B,110,James Houston,272.5,,272.5,USA,CA,,,3
Single-ply,Open,M,B,110,Mike Desrosiers,247.5,,247.5,USA,AZ,,,4
Single-ply,Open,M,B,110,Juha Pukkila,215,,215,Finland,,,,5
Single-ply,Open,M,B,110,Ricky Lee Durham,,,,USA,TX,,,DQ
Single-ply,Open,M,B,110,Rob Golgano,,,,USA,ME,,,DQ
Single-ply,Open,M,B,110,Kari Pöntinen,,,,Finland,,,,DQ
Single-ply,Open,M,B,117.5,Jussi Tuomainen,315,,315,Finland,,,,1
Single-ply,Open,M,B,117.5,Joey Murphy,290,,290,USA,GA,,,2
Single-ply,Open,M,B,117.5,Paul Mercado,227.5,,227.5,USA,IL,,,4
Single-ply,Open,M,B,125,Adrian Larsen,305,,305,USA,OR,,,1
Single-ply,Open,M,B,125,Patrick Holloway,300,,300,USA,AZ,,,2
Single-ply,Open,M,B,125,Harjit Kumar,227.5,,227.5,India,,,,3
Single-ply,Open,M,B,140,Jeff Peshek,330,,330,USA,OH,,,1
Single-ply,Open,M,B,140,John Dennison,262.5,,262.5,USA,UT,,,2
Single-ply,Open,M,B,140,Sean Collins,160,,160,USA,AZ,,,4
Single-ply,Open,M,B,140+,Dave Forstner,292.5,,292.5,USA,MI,,,1
Single-ply,Open,M,B,140+,James Mersberg,280,,280,USA,HI,,,2
Single-ply,Open,M,B,140+,Joe Mickelson,250,,250,USA,WA,,,3
Single-ply,Open,M,B,140+,Jerry Pritchett,240,,240,USA,AZ,,,4
Single-ply,Open,M,B,140+,Ricardo Nort,220,,220,Brazil,,230,,6
Single-ply,Open,M,B,140+,Scott Wesley Jordan,,,,USA,AZ,,,DQ
Single-ply,Open,M,B,140+,Rich Lopez,,,,USA,CA,,,DQ
Single-ply,Open,M,B,140+,Merwyn Kekau Mersberg,,,,USA,HI,,,DQ
Multi-ply,Open,M,B,75,James Lin,130,,130,USA,WA,,,1
Multi-ply,Open,M,B,110,Joseph Taylor,177.5,,177.5,USA,NV,,,1
Multi-ply,Open,M,B,125,Joshua Sipes,245,,245,USA,TX,247.5,,3
Multi-ply,Open,M,B,140+,Keith Sayles,140,,140,USA,TX,,,2
Single-ply,Open,M,B,60,Josh Grubbs,125,,125,USA,AZ,,,1
Single-ply,Open,M,B,60,Homi Shivaie,95,,95,USA,CA,,,2
Single-ply,Open,M,B,67.5,Ronald A. C. Nipp,150,,150,USA,HI,,,4
Single-ply,Open,M,B,67.5,Dave Constantineau,143.5,,143.5,USA,WI,,,5
Single-ply,Open,M,B,75,Aramiq Amirchian,173,,173,USA,AZ,,,2
Single-ply,Open,M,B,75,Jacob Rogers,148.5,,148.5,USA,SC,,,5
Single-ply,Open,M,B,75,Owen Sanborn,132.5,,132.5,USA,IA,,,6
Single-ply,Open,M,B,82.5,Brian McLaughlin,172.5,,172.5,USA,OR,,,2
Single-ply,Open,M,B,82.5,Jason Pelc,170,,170,USA,MI,,,3
Single-ply,Open,M,B,82.5,Dietrich Dejean,,,,USA,NV,,,DQ
Single-ply,Open,M,B,82.5,Matthew Jones,,,,USA,MI,,,DQ
Single-ply,Open,M,B,90,Nathaniel Robino,233,,233,USA,HI,,,2
Single-ply,Open,M,B,90,John Rohde,172.5,,172.5,USA,ID,,,3
Single-ply,Open,M,B,90,Kyle Herzik,160,,160,USA,NV,,,5
Single-ply,Open,M,B,90,Adam Gwin,160,,160,USA,AL,,,6
Single-ply,Open,M,B,90,Telford Allen,160,,160,USA,ME,,,7
Single-ply,Open,M,B,100,Arthur Haug,212.5,,212.5,USA,IA,,,7
Single-ply,Open,M,B,100,Shayne Unea,195,,195,USA,OR,,,9
Single-ply,Open,M,B,100,David Butch Martinez,177.5,,177.5,USA,CA,,,10
Single-ply,Open,M,B,100,Brandon Blood,165,,165,USA,OH,,,13
Single-ply,Open,M,B,100,William Cameron LaForge,141,,141,USA,MA,,,15
Single-ply,Open,M,B,110,Fateh Sihota,195,,195,USA,,,,6
Single-ply,Open,M,B,110,James Sanders,190,,190,USA,OR,,,7
Single-ply,Open,M,B,117.5,Leonard Pokora,245,,245,USA,MI,,,3
Single-ply,Open,M,B,117.5,Chris Melillo,215,,215,USA,TX,,,5
Single-ply,Open,M,B,117.5,Nicholas Raymond,200,,200,USA,OR,,,6
Single-ply,Open,M,B,117.5,John Sotelo,192.5,,192.5,USA,HI,,,7
Single-ply,Open,M,B,140,Michael Pfabe,227.5,,227.5,USA,OH,,,3
Single-ply,Open,M,B,140+,Gordon Castling,235,,235,USA,AR,,,5
Single-ply,Open,M,B,140+,Leo Contreras,165,,165,USA,CA,,,7
Single-ply,Disabled,M,B,82.5,Vilmar Oliveira,140,,140,Brazil,,,,1
Single-ply,Disabled,M,B,90,Flavio Da Costa Baptista,100,,100,Brazil,,,,1
Single-ply,Disabled,M,B,110,Cody Colchado,182.5,,182.5,USA,TX,,,1
Single-ply,Disabled,M,B,140+,Allen Miluso,80,,80,USA,CA,,,1
Single-ply,Special Olympics,M,B,48,Todd Moore,40,,40,Canada,,,,1
Single-ply,Special Olympics,M,B,82.5,Dylan Kuehl,105,,105,USA,WA,,,1
Single-ply,Special Olympics,M,B,100,Bobby Lord,117.5,,117.5,USA,TX,,,1
Single-ply,Special Olympics,M,B,140+,Jock Mayes,95,,95,USA,CA,,,1
Single-ply,Teen 12-13,M,B,52,Alex Coffey,47.5,,47.5,USA,CA,,,1
Single-ply,Teen 12-13,M,B,82.5,Storm Draayer,68,,68,USA,MN,,,1
Single-ply,Teen 12-13,M,B,100,Tristen Zumwalt,,,,USA,OR,,,DQ
Single-ply,Teen 12-13,M,B,110,Jameson Jessup,50,,50,USA,CA,,,1
Single-ply,Teen 14-15,M,B,52,Austin Ellis,65,,65,USA,TX,,,1
Single-ply,Teen 14-15,M,B,67.5,Caleb Nute,80,,80,USA,ME,,,1
Single-ply,Teen 14-15,M,B,75,Tyler Rosenquist,55,,55,USA,CA,,,1
Single-ply,Teen 14-15,M,B,90,Kevin Perez,107.5,,107.5,USA,CA,,,1
Single-ply,Teen 14-15,M,B,100,Tyler Greene,90,,90,USA,NV,,,1
Single-ply,Teen 14-15,M,B,110,Nick Pastorello,110,,110,USA,NV,,,1
Single-ply,Teen 16-17,M,B,67.5,Brandon Jones,115,,115,USA,HI,,,1
Single-ply,Teen 16-17,M,B,75,Lonnie Overturf,175,,175,USA,TX,182.5,,1
Single-ply,Teen 16-17,M,B,75,Devin Safley,115,,115,USA,OR,,,2
Single-ply,Teen 16-17,M,B,82.5,C. J. Hollingshead,180,,180,USA,KS,,,1
Single-ply,Teen 16-17,M,B,82.5,Stefan Green,155,,155,USA,WA,,,2
Single-ply,Teen 16-17,M,B,82.5,Jacob Hill,110,,110,USA,ME,,,3
Single-ply,Teen 16-17,M,B,100,William Cameron LaForge,141,,141,USA,MA,,,1
Single-ply,Teen 16-17,M,B,100,Zach Sperrazza,137.5,,137.5,USA,TX,,,2
Single-ply,Teen 16-17,M,B,125,William Bronaugh,107.5,,107.5,USA,CA,,,1
Single-ply,Teen 16-17,M,B,140+,Raymond Gutierrez,200,,200,USA,CA,,,1
Single-ply,Teen 18-19,M,B,56,Hunter Hernandez,110,,110,USA,NV,,,1
Single-ply,Teen 18-19,M,B,56,Andrew Brooks,97.5,,97.5,USA,TX,,,2
Single-ply,Teen 18-19,M,B,60,Josh Grubbs,125,,125,USA,AZ,,,1
Single-ply,Teen 18-19,M,B,60,John Kimble,115,,115,USA,TX,,,2
Single-ply,Teen 18-19,M,B,60,Brandon Presto,105,,105,USA,NV,,,3
Single-ply,Teen 18-19,M,B,60,Alex Silva,77.5,,77.5,USA,CA,,,4
Single-ply,Teen 18-19,M,B,67.5,Ronald A. C. Nipp,150,,150,USA,HI,,,1
Single-ply,Teen 18-19,M,B,67.5,Joshua Lanham,137.5,,137.5,USA,CA,,,2
Single-ply,Teen 18-19,M,B,67.5,Manuel Pina,135,,135,USA,CA,,,3
Single-ply,Teen 18-19,M,B,67.5,Robert Carrasco,115,,115,USA,TX,,,4
Single-ply,Teen 18-19,M,B,75,Jacob Rogers,148.5,,148.5,USA,SC,,,1
Single-ply,Teen 18-19,M,B,75,Nick Mendizabal,140,,140,USA,CA,,,2
Single-ply,Teen 18-19,M,B,75,Joey Dosen,120,,120,USA,WA,,,3
Single-ply,Teen 18-19,M,B,82.5,Pat Clark,155,,155,USA,MT,,,1
Single-ply,Teen 18-19,M,B,82.5,Imaray Rojas,127.5,,127.5,USA,TX,,,2
Single-ply,Teen 18-19,M,B,90,Jeffrey Moreno,172.5,,172.5,USA,TX,,,1
Single-ply,Teen 18-19,M,B,90,Timothy Ward,140,,140,USA,TX,,,2
Single-ply,Teen 18-19,M,B,90,Doug Gardner,125,,125,USA,NV,,,3
Single-ply,Teen 18-19,M,B,100,Jacob Fernandez,162.5,,162.5,USA,TX,,,1
Multi-ply,Juniors 20-25,M,B,48,Jerel Aaron Hulliger,100,,100,USA,CA,,,1
Multi-ply,Juniors 20-25,M,B,110,Joseph Taylor,,,,USA,NV,,,DQ
Single-ply,Juniors 20-25,M,B,56,Andres Cruz,82.5,,82.5,USA,TX,,,1
Single-ply,Juniors 20-25,M,B,60,Antonio Moreno,128,,128,USA,TX,,,1
Single-ply,Juniors 20-25,M,B,75,Ismael Filipe De Nardi,180,,180,Brazil,,,,1
Single-ply,Juniors 20-25,M,B,75,Martin Esparza,165,,165,USA,TX,,,2
Single-ply,Juniors 20-25,M,B,75,Luis Perez,160,,160,USA,TX,,,3
Single-ply,Juniors 20-25,M,B,75,Baljit Singh,145,,145,USA,CA,,,4
Single-ply,Juniors 20-25,M,B,75,Jesus Lozano,145,,145,USA,TX,,,5
Single-ply,Juniors 20-25,M,B,75,Roy Arispe,137.5,,137.5,USA,TX,,,6
Single-ply,Juniors 20-25,M,B,82.5,Carlos Mata,207.5,,207.5,USA,TX,,,1
Single-ply,Juniors 20-25,M,B,82.5,Ilian Rojas,200,,200,USA,TX,,,2
Single-ply,Juniors 20-25,M,B,82.5,John Hess,140,,140,USA,NV,,,3
Single-ply,Juniors 20-25,M,B,82.5,Jordan Mc Peek,122.5,,122.5,USA,OH,,,4
Single-ply,Juniors 20-25,M,B,90,Eric Ximenez,182.5,,182.5,USA,TX,193,,1
Single-ply,Juniors 20-25,M,B,90,Anthony White,172.5,,172.5,USA,AZ,,,2
Single-ply,Juniors 20-25,M,B,90,Steven Rocha,145,,145,USA,TX,,,3
Single-ply,Juniors 20-25,M,B,100,Pauli Piispanen,195,,195,Finland,,,,1
Single-ply,Juniors 20-25,M,B,100,Waldo Villarreal,175,,175,USA,TX,,,2
Single-ply,Juniors 20-25,M,B,100,Gene Carter,170,,170,USA,TX,,,3
Single-ply,Juniors 20-25,M,B,100,Adam Contreras,170,,170,USA,CA,,,4
Single-ply,Juniors 20-25,M,B,100,Ryan Bobula,150,,150,USA,NV,,,5
Single-ply,Juniors 20-25,M,B,100,Adam Hays,110,,110,USA,AZ,,,6
Single-ply,Juniors 20-25,M,B,100,Bradley Caughey,90,,90,USA,UT,,,7
Single-ply,Juniors 20-25,M,B,110,Austin Shipley,232.5,,232.5,USA,AZ,,,1
Single-ply,Juniors 20-25,M,B,110,Jake Garbush,215,,215,USA,WA,,,2
Single-ply,Juniors 20-25,M,B,110,Isaiah Thomas,205,,205,USA,HI,,,3
Single-ply,Juniors 20-25,M,B,110,Anthony Rodriguez,202.5,,202.5,USA,TX,,,4
Single-ply,Juniors 20-25,M,B,117.5,Nicholas Raymond,200,,200,USA,OR,,,1
Single-ply,Juniors 20-25,M,B,117.5,Zachary Holloway,142.5,,142.5,USA,NV,,,2
Single-ply,Juniors 20-25,M,B,140,Javier Garza,205,,205,USA,TX,,,1
Single-ply,Juniors 20-25,M,B,140,Sean Collins,160,,160,USA,AZ,,,2
Single-ply,Juniors 20-25,M,B,140+,Arthur Tupuola,282.5,,282.5,USA,HI,,,1
Multi-ply,Submasters 33-39,M,B,100,Thomas Reiher,207.5,,207.5,USA,HI,,,1
Multi-ply,Submasters 33-39,M,B,100,Steven Kaufman,,,,USA,TX,,,DQ
Multi-ply,Submasters 33-39,M,B,117.5,Jani Ihalainen,275,,275,Finland,,,,1
Single-ply,Submasters 33-39,M,B,67.5,Jason Arnold,160.5,,160.5,USA,CA,,,1
Single-ply,Submasters 33-39,M,B,75,Augustine Mastroine,165,,165,USA,OH,,,1
Single-ply,Submasters 33-39,M,B,75,Jose Cabrera,130,,130,USA,CA,,,2
Single-ply,Submasters 33-39,M,B,82.5,Dietrich Dejean,140,,140,USA,NV,,,1
Single-ply,Submasters 33-39,M,B,82.5,Bill Caram,137.5,,137.5,USA,OR,,,2
Single-ply,Submasters 33-39,M,B,90,Coby Washburn,237.5,,237.5,USA,TX,,,1
Single-ply,Submasters 33-39,M,B,90,Murphy Knott,167.5,,167.5,USA,OR,,,2
Single-ply,Submasters 33-39,M,B,90,Jose Emilio Avila,120,,120,USA,CA,,,4
Single-ply,Submasters 33-39,M,B,90,Marcos Paulo Domingos,100,,100,Brazil,,,,5
Single-ply,Submasters 33-39,M,B,100,Scott Edmondson,267.5,,267.5,USA,OR,,,1
Single-ply,Submasters 33-39,M,B,100,Armando Soto,260.5,,260.5,USA,TX,,,2
Single-ply,Submasters 33-39,M,B,100,Kim Päivöke,245,,245,Finland,,,,3
Single-ply,Submasters 33-39,M,B,100,Lawrence De Alva,237.5,,237.5,USA,AZ,,,5
Single-ply,Submasters 33-39,M,B,110,James Houston,272.5,,272.5,USA,CA,,,1
Single-ply,Submasters 33-39,M,B,110,Tony Blas,272.5,,272.5,USA,OR,,,2
Single-ply,Submasters 33-39,M,B,110,Mike Desrosiers,247.5,,247.5,USA,AZ,,,3
Single-ply,Submasters 33-39,M,B,110,Fateh Sihota,195,,195,India,,,,5
Single-ply,Submasters 33-39,M,B,110,Kari Pöntinen,,,,Finland,,,,DQ
Single-ply,Submasters 33-39,M,B,117.5,Paul Mercado,227.5,,227.5,USA,IL,,,1
Single-ply,Submasters 33-39,M,B,125,Sam Aumavae,345,,345,USA,OR,,,1
Single-ply,Submasters 33-39,M,B,125,Ben Rogers,290,,290,USA,WA,,,2
Single-ply,Submasters 33-39,M,B,125,Harjit Kumar,227.5,,227.5,India,,,,3
Single-ply,Submasters 33-39,M,B,140,Michael Pfabe,227.5,,227.5,USA,OH,,,1
Single-ply,Submasters 33-39,M,B,140+,Lance Christensen,160,,160,USA,UT,,,2
Single-ply,Submasters 33-39,M,B,140+,Merwyn Kekau Mersberg,,,,USA,HI,,,DQ
Multi-ply,Masters 40-46,M,B,82.5,Jerry Riley,200,,200,USA,OR,,,1
Multi-ply,Masters 40-46,M,B,110,Frank Wakakuwa,282.5,,282.5,USA,NV,,,1
Multi-ply,Masters 40-46,M,B,140,Silvio Edson Francisco Braga,200,,200,Brazil,,,,1
Multi-ply,Masters 40-46,M,B,140+,Tiny Meeker,377.5,,377.5,USA,TX,,,1
Single-ply,Masters 40-46,M,B,67.5,David R Smith,202.5,,202.5,USA,TX,,,1
Single-ply,Masters 40-46,M,B,75,Valentino Plummer,215.5,,215.5,USA,OR,,,1
Single-ply,Masters 40-46,M,B,82.5,Keith Daniels,240.5,,240.5,USA,HI,,,1
Single-ply,Masters 40-46,M,B,90,Tony Coduto,235.5,,235.5,USA,IL,,,1
Single-ply,Masters 40-46,M,B,90,Louie Mansanas,227.5,,227.5,USA,HI,,,2
Single-ply,Masters 40-46,M,B,90,Sean Aberman,183,,183,USA,UT,,,3
Single-ply,Masters 40-46,M,B,100,James Kelly,292.5,,292.5,USA,HI,,,1
Single-ply,Masters 40-46,M,B,100,Gary Gulseth,227.5,,227.5,USA,WI,,,2
Single-ply,Masters 40-46,M,B,100,John Westleigh,222.5,,222.5,USA,ME,,,3
Single-ply,Masters 40-46,M,B,100,Christian Draayer,145,,145,USA,MN,,,4
Single-ply,Masters 40-46,M,B,110,James Hunter,307.5,,307.5,USA,CA,,,1
Single-ply,Masters 40-46,M,B,110,Roland Garza,261,,261,USA,OR,,,2
Single-ply,Masters 40-46,M,B,110,Donnie Hamblin,190,,190,USA,AZ,,,3
Single-ply,Masters 40-46,M,B,110,Rob Golgano,,,,USA,ME,,,DQ
Single-ply,Masters 40-46,M,B,117.5,Joey Murphy,290,,290,USA,GA,,,1
Single-ply,Masters 40-46,M,B,125,Patrick Holloway,300,,300,USA,AZ,,,1
Single-ply,Masters 40-46,M,B,125,JJ Warren,217.5,,217.5,USA,SC,,,2
Single-ply,Masters 40-46,M,B,140,Warren Orr,232.5,,232.5,Canada,,,,1
Single-ply,Masters 40-46,M,B,140+,Dave Forstner,292.5,,292.5,USA,MI,,,1
Single-ply,Masters 40-46,M,B,140+,Stephen Wright,182.5,,182.5,USA,ME,,,2
Single-ply,Masters 40-46,M,B,140+,Scott Wesley Jordan,,,,USA,AZ,,,DQ
Single-ply,Masters 40-46,M,B,140+,Rich Lopez,,,,USA,CA,,,DQ
Multi-ply,Masters 47-53,M,B,75,Rick King,135,,135,USA,OR,,,1
Multi-ply,Masters 47-53,M,B,100,Kenneth Millrany,,,,USA,TN,,,DQ
Multi-ply,Masters 47-53,M,B,125,Tim Moon,300,,300,USA,GA,,,1
Multi-ply,Masters 47-53,M,B,125,Mark Stanford,265,,265,USA,AZ,,,2
Multi-ply,Masters 47-53,M,B,140,Bill Gillespie,340,,340,USA,VA,,,1
Multi-ply,Masters 47-53,M,B,140,Don Miskinis,182.5,,182.5,USA,OH,,,2
Multi-ply,Masters 47-53,M,B,140+,Keith Sayles,140,,140,USA,TX,,,1
Single-ply,Masters 47-53,M,B,56,Gerardo Merino Jaramillo,145,,145,Ecuador,,,,1
Single-ply,Masters 47-53,M,B,60,Chetram Mangra,110,,110,USA,NY,,,1
Single-ply,Masters 47-53,M,B,75,Fulton White,157.5,,157.5,USA,NV,,,1
Single-ply,Masters 47-53,M,B,75,Keith Cunningham,145,,145,USA,WA,,,2
Single-ply,Masters 47-53,M,B,82.5,Deron Agaran,205,,205,USA,HI,,,1
Single-ply,Masters 47-53,M,B,82.5,Martin Aguirre,195,,195,USA,NV,,,2
Single-ply,Masters 47-53,M,B,82.5,Fil Dena III,192.5,,192.5,USA,NV,,,3
Single-ply,Masters 47-53,M,B,82.5,Eric Lumpkin,183,,183,USA,OR,,,4
Single-ply,Masters 47-53,M,B,90,Doug Noebe,210,,210,USA,OH,,,1
Single-ply,Masters 47-53,M,B,90,George Phipps,192.5,,192.5,USA,NV,,,2
Single-ply,Masters 47-53,M,B,100,Brian Reynolds,215,,215,USA,WA,,,1
Single-ply,Masters 47-53,M,B,100,Gene A Wenzel,105,,105,USA,OH,,,2
Single-ply,Masters 47-53,M,B,100,James Noblit,,,,USA,OR,,,DQ
Single-ply,Masters 47-53,M,B,110,Ed Macauley,247.5,,247.5,USA,OR,,,1
Single-ply,Masters 47-53,M,B,110,Juha Pukkila,215,,215,Finland,,,,2
Single-ply,Masters 47-53,M,B,110,Kenneth Engleman,155,,155,USA,CA,,,3
Single-ply,Masters 47-53,M,B,117.5,Eric Jones,192.5,,192.5,USA,MI,,,1
Single-ply,Masters 47-53,M,B,125,John Stewart,297.5,,297.5,USA,TX,,,1
Single-ply,Masters 47-53,M,B,140,Jeff Peshek,295,,295,USA,OH,,,1
Single-ply,Masters 47-53,M,B,140,Naresh Kumar,200,,200,India,,,,2
Single-ply,Masters 47-53,M,B,140,Blair Fisher,,,,Canada,,,,DQ
Single-ply,Masters 47-53,M,B,140+,James Mersberg,,,,USA,HI,,,DQ
Multi-ply,Masters 54-60,M,B,82.5,Doug Clayton,155,,155,USA,WY,,,1
Multi-ply,Masters 54-60,M,B,110,Ric Duncan,277.5,,277.5,USA,TX,283,,1
Multi-ply,Masters 54-60,M,B,110,William B Caughey,112.5,,112.5,USA,UT,,,2
Single-ply,Masters 54-60,M,B,67.5,Alfredo Evangelista,190,,190,USA,OR,,,1
Single-ply,Masters 54-60,M,B,67.5,Dave Constantineau,143.5,,143.5,USA,WI,,,2
Single-ply,Masters 54-60,M,B,82.5,Ken Van Buren,175,,175,USA,AZ,,,1
Single-ply,Masters 54-60,M,B,82.5,Perry Plush,167.5,,167.5,USA,WA,,,2
Single-ply,Masters 54-60,M,B,82.5,Charles Martin,162.5,,162.5,USA,CA,,,3
Single-ply,Masters 54-60,M,B,82.5,John Mc Broom,105,,105,USA,CA,,,4
Single-ply,Masters 54-60,M,B,90,Tom Gonnering,175,,175,USA,AL,,,1
Single-ply,Masters 54-60,M,B,90,Doug Woods,155,,155,USA,WA,,,2
Single-ply,Masters 54-60,M,B,90,Mauri Cole,127.5,,127.5,USA,AR,,,3
Single-ply,Masters 54-60,M,B,100,David Butch Martinez,177.5,,177.5,USA,CA,,,1
Single-ply,Masters 54-60,M,B,100,Randy Waldorf,155,,155,USA,MN,,,2
Single-ply,Masters 54-60,M,B,100,Jim Curley,,,,USA,CO,,,DQ
Single-ply,Masters 54-60,M,B,110,Mike Frizzell,240,,240,USA,IL,,,1
Single-ply,Masters 54-60,M,B,117.5,Mike Sinner,190,,190,USA,WA,,,1
Single-ply,Masters 54-60,M,B,117.5,David Wolf,187.5,,187.5,USA,WY,,,2
Single-ply,Masters 54-60,M,B,125,Willard Crossen Jr,300,,300,USA,WA,,,1
Single-ply,Masters 54-60,M,B,125,Jeff Fahrenbruch,,,,USA,AZ,,,DQ
Single-ply,Masters 54-60,M,B,140+,Joe Mickelson,250,,250,USA,WA,,,1
Single-ply,Masters 54-60,M,B,140+,Leo Contreras,165,,165,USA,CA,,,2
Multi-ply,Masters 61-67,M,B,90,Joe Beteta,,,,USA,OR,,,DQ
Multi-ply,Masters 61-67,M,B,90,Daniel Hofeditz,,,,USA,AZ,,,DQ
Single-ply,Masters 61-67,M,B,75,Gary Witzel,122.5,,122.5,USA,WA,,,1
Single-ply,Masters 61-67,M,B,82.5,G. Jeffery Thornton,117.5,,117.5,USA,AZ,,,1
Single-ply,Masters 61-67,M,B,82.5,Jerome Mautner,110,,110,USA,CA,,,2
Single-ply,Masters 61-67,M,B,82.5,Robert Bienvenu,97.5,,97.5,USA,LA,,,3
Single-ply,Masters 61-67,M,B,82.5,David Wentworth,,,,USA,ME,,,DQ
Single-ply,Masters 61-67,M,B,90,Dan Swift,207.5,,207.5,USA,IL,,,1
Single-ply,Masters 61-67,M,B,90,Godfrey Holzinger,142.5,,142.5,USA,WA,,,2
Single-ply,Masters 61-67,M,B,90,Nelson Raymond,72.5,,72.5,USA,ME,,,3
Single-ply,Masters 61-67,M,B,100,Tom Haggenmiller,115,,115,USA,MN,,,1
Single-ply,Masters 61-67,M,B,110,Thomas Wright,115,,115,USA,KS,,,1
Single-ply,Masters 61-67,M,B,117.5,Leonard Pokora,245,,245,USA,MI,,,1
Single-ply,Masters 61-67,M,B,125,Eldon Olson,187.5,,187.5,USA,MT,,,1
Single-ply,Masters 61-67,M,B,125,Mike Fryar,172.5,,172.5,USA,WA,,,2
Single-ply,Masters 61-67,M,B,140+,Allen Miluso,80,,80,USA,CA,,,1
Single-ply,Masters 61-67,M,B,140+,Randy Patterson,,,,USA,AZ,,,DQ
Multi-ply,Masters 68-74,M,B,75,Skip Schacher,87.5,,87.5,USA,MT,,,1
Multi-ply,Masters 68-74,M,B,82.5,Earle Conway,102.5,,102.5,USA,AZ,,,1
Multi-ply,Masters 68-74,M,B,100,Bob Bassman,,,,USA,TX,,,DQ
Single-ply,Masters 68-74,M,B,75,Julio Cesar Berrocal Carriedo,100,,100,USA,Peru,,,1
Single-ply,Masters 68-74,M,B,75,Thomas English,100,,100,USA,NV,,,2
Single-ply,Masters 68-74,M,B,75,Andy Agan,80,,80,USA,NV,,,3
Single-ply,Masters 68-74,M,B,82.5,Ed Angstrom,132.5,,132.5,USA,IA,,,1
Single-ply,Masters 68-74,M,B,82.5,Stan Miyahira,105,,105,USA,NV,,,2
Single-ply,Masters 68-74,M,B,82.5,Michael Dandini,105,,105,USA,CA,,,3
Single-ply,Masters 68-74,M,B,82.5,Arnold Pereza,103,,103,USA,HI,,,4
Single-ply,Masters 68-74,M,B,82.5,Larry Joiner,100,,100,USA,CA,,,5
Single-ply,Masters 68-74,M,B,90,Rudy Lozano,182.5,,182.5,USA,CA,,,1
Single-ply,Masters 68-74,M,B,90,John Herbein,112.5,,112.5,USA,PA,,,2
Single-ply,Masters 68-74,M,B,90,Ronald Ford,65,,65,USA,CA,,,3
Single-ply,Masters 68-74,M,B,100,Jim Parham,172.5,,172.5,USA,OK,186.5,,1
Single-ply,Masters 68-74,M,B,100,Robert Urrea,130,,130,USA,CA,,,2
Single-ply,Masters 68-74,M,B,100,Roger Kunz,120,,120,USA,CA,,,3
Single-ply,Masters 68-74,M,B,100,Roy Wells,75,,75,USA,NV,,,4
Single-ply,Masters 68-74,M,B,100,William Prince,,,,USA,NV,,,DQ
Single-ply,Masters 68-74,M,B,117.5,Whitley Kit Price,170,,170,USA,TX,,,1
Single-ply,Masters 68-74,M,B,140,Ed Acey,,,,USA,UT,,,DQ
Single-ply,Masters 75-79,M,B,60,Larry Vincent,108,,108,USA,OR,,,1
Single-ply,Masters 75-79,M,B,82.5,John Mc Ewen,97.5,,97.5,USA,CA,,,1
Single-ply,Masters 75-79,M,B,82.5,Charles Vause,83.5,,83.5,USA,GA,,,2
Single-ply,Masters 75-79,M,B,82.5,David Boyes,60,,60,USA,LA,,,3
Single-ply,Masters 75-79,M,B,90,Harold Smith,141,,141,USA,MT,,,1
Single-ply,Masters 75-79,M,B,90,Robert Cook,57.5,,57.5,USA,NV,,,2
Single-ply,Masters 75-79,M,B,90,Dean Baker,55,,55,USA,CA,,,3
Single-ply,Masters 75-79,M,B,140,JP Krachunis,100,,100,USA,CA,,,1
Single-ply,Masters 80-84,M,B,75,Joseph Cavness,85,,85,USA,CA,,,1
Single-ply,Masters 80-84,M,B,75,Jack Withers,65,,65,USA,NV,,,2
Single-ply,Masters 80-84,M,B,82.5,Nixon Munly,67.5,,67.5,USA,OR,,,1
Single-ply,Masters 80-84,M,B,82.5,George Choi,55,,55,USA,CA,,,2
Single-ply,Masters 80-84,M,B,90,Charles Rice,117.5,,117.5,USA,CA,,,1
Single-ply,Masters 85-89,M,B,67.5,Arthur Whinston,35,,35,USA,OR,,,1
Single-ply,Masters 85-89,M,B,75,Bladen Mc Clelland,70.5,,70.5,USA,MI,,,1
Single-ply,Masters 85-89,M,B,90,Seymour Perlis,77.5,,77.5,USA,AZ,80,,1
Single-ply,Masters 85-89,M,B,90,Rodney Graves,62.5,,62.5,USA,NV,,,2
Multi-ply,Law/Fire,M,B,82.5,Darren Carr,177.5,,177.5,USA,UT,,,1
Multi-ply,Law/Fire,M,B,125,Tracy Lundin,,,,USA,OR,,,DQ
Single-ply,Law/Fire,M,B,90,Sean Boyle,216.5,,216.5,USA,WA,,,1
Single-ply,Law/Fire,M,B,90,Ronald W. C. Nipp Jr,,,,USA,HI,,,DQ
Single-ply,Law/Fire,M,B,100,Nick Berriman,245,,245,USA,OR,260.5,,1
Single-ply,Law/Fire,M,B,100,Heikki Tyrväinen,237.5,,237.5,Finland,,,,2
Single-ply,Law/Fire,M,B,125,Adrian Larsen,,,,USA,OR,,,DQ
Single-ply,Law/Fire,M,B,140,Roger Ryan,330,,330,USA,IL,,,1
Single-ply,Law/Fire,M,B,140,Marcus Austin,165,,165,USA,OK,,,2
Single-ply,Law/Fire,M,B,140+,Hiram Kaikaina,288,,288,USA,HI,,,1
Multi-ply,Submasters 33-39,M,B,125,Joshua Sipes,245,,245,USA,TX,247.5,,1
Single-ply,Submasters 33-39,M,B,90,Adam Gwin,160,,160,USA,AL,,,3
Single-ply,Submasters 33-39,M,B,100,Nick Berriman,245,,245,USA,OR,260.5,,4
Single-ply,Submasters 33-39,M,B,100,Jeffrey Begue,157.5,,157.5,USA,OH,,,6
Single-ply,Submasters 33-39,M,B,110,Darryl Zuchelli,212.5,,212.5,USA,AL,,,4
Single-ply,Submasters 33-39,M,B,140,Marcus Austin,165,,165,USA,OK,,,2
Single-ply,Submasters 33-39,M,B,140+,Hiram Kaikaina,288,,288,USA,HI,,,1
Single-ply,Submasters 33-39,M,B,140+,Keoni Reich,,,,USA,HI,,,DQ
Multi-ply,Law/Fire Masters 40-47,M,B,110,Frank Wakakuwa,,,,USA,NV,,,DQ
Multi-ply,Law/Fire Masters 40-47,M,B,125,Tracy Lundin,,,,USA,OR,,,DQ
Single-ply,Law/Fire Masters 40-47,M,B,90,Ronald W. C. Nipp Jr,227.5,,227.5,USA,HI,,,1
Single-ply,Law/Fire Masters 40-47,M,B,90,Sean Boyle,216.5,,216.5,USA,WA,,,2
Single-ply,Law/Fire Masters 40-47,M,B,90,Daniel Stewart,125,,125,USA,AR,,,3
Single-ply,Law/Fire Masters 40-47,M,B,110,Donnie Hamblin,190,,190,USA,AZ,,,1
Single-ply,Law/Fire Masters 40-47,M,B,125,JJ Warren,217.5,,217.5,USA,SC,,,1
Single-ply,Law/Fire Masters 40-47,M,B,140,Warren Orr,232.5,,232.5,Canada,,240,,1
Single-ply,Law/Fire Masters 48-55,M,B,90,Luis Fernando Meireles Dias,160,,160,Brazil,,,,1
Single-ply,Law/Fire Masters 48-55,M,B,100,William Denniston,187.5,,187.5,USA,MI,,,1
Single-ply,Law/Fire Masters 48-55,M,B,110,Gary McFarland,,,,USA,VT,,,DQ
Single-ply,Law/Fire Masters 48-55,M,B,125,Michal Johnson,160.5,,160.5,USA,CA,,,1
Single-ply,Law/Fire Masters 48-55,M,B,140,Dennis Schultz,290,,290,USA,CA,,,1
Single-ply,Law/Fire Masters 56+,M,B,67.5,Gary Miller #2,162.5,,162.5,USA,NV,,,1
Single-ply,Law/Fire Masters 56+,M,B,82.5,Mike Harrison,155,,155,USA,TX,157.5,,1
Single-ply,Law/Fire Masters 56+,M,B,90,Charles McFarland,137.5,,137.5,USA,OR,,,1
Single-ply,Law/Fire Masters 56+,M,B,100,Bruce Begue,183,,183,USA,OH,,,1
Single-ply,Law/Fire Masters 56+,M,B,100,Ernest Stuart,137.5,,137.5,USA,TX,,,2
Single-ply,Law/Fire Masters 56+,M,B,125,Eldon Olson,187.5,,187.5,USA,MT,,,1
Single-ply,Law/Fire Masters 56+,M,B,140,Roger Ryan,330,,330,USA,IL,,,1
Single-ply,Law/Fire Masters 56+,M,B,140,Ed Acey,170,,170,USA,UT,,,2
Single-ply,Law/Fire Masters 56+,M,B,140+,Randy Patterson,,,,USA,AZ,,,DQ
Multi-ply,Open,F,B,67.5,Diana Sutton,55,,55,USA,OR,,,1
Multi-ply,Open,F,B,75,Virpi Pukkila,142.5,,142.5,Finland,,150.5,,1
Multi-ply,Open,F,B,90,Annie Bowman,115,,115,USA,WA,,,1
Single-ply,Open,F,B,52,Jessica Okimura,82.5,,82.5,USA,HI,,,1
Single-ply,Open,F,B,52,Betty Lafferty,67.5,,67.5,USA,AL,,,2
Single-ply,Open,F,B,52,Amparo Barajas,52.5,,52.5,USA,TX,,,3
Single-ply,Open,F,B,56,Rommey Garcia,45,,45,Ecuador,,,,3
Single-ply,Open,F,B,56,Angela Sweet,85,,85,USA,PA,,,1
Single-ply,Open,F,B,56,Lorene Stone,47.5,,47.5,USA,OR,,,2
Single-ply,Open,F,B,60,Amanda Harris,105,,105,USA,TX,,,1
Single-ply,Open,F,B,60,Christie Luehrs,102.5,,102.5,USA,OR,,,2
Single-ply,Open,F,B,60,Martha Godinez-Shim,78,,78,USA,HI,,,3
Single-ply,Open,F,B,60,Velma Panlasigui,77.5,,77.5,USA,HI,,,4
Single-ply,Open,F,B,60,Jill Porter,72.5,,72.5,USA,TX,,,5
Single-ply,Open,F,B,60,Tiffany Dean,70,,70,USA,NV,,,6
Single-ply,Open,F,B,60,Dolores Garcia-Munro,47.5,,47.5,USA,CA,,,7
Single-ply,Open,F,B,67.5,Beverly Anolin,114,,114,USA,CA,120,,1
Single-ply,Open,F,B,67.5,Shawna Sheffield,85,,85,USA,CA,,,2
Single-ply,Open,F,B,67.5,Britney Rupley,55,,55,USA,CA,,,3
Single-ply,Open,F,B,75,Cindy Shockman,125,,125,USA,OR,,,1
Single-ply,Open,F,B,75,Ana Catia Portilho Couto,100,,100,Brazil,,105,,2
Single-ply,Open,F,B,75,Peach Presley,92.5,,92.5,USA,CA,,,3
Single-ply,Open,F,B,75,Lucia Feraud Montenegro,85,,85,Ecuador,,,,4
Single-ply,Open,F,B,75,Elizabeth Couture,67.5,,67.5,USA,MA,,,5
Single-ply,Open,F,B,75,Shauna Perry,,,,USA,HI,,,DQ
Single-ply,Open,F,B,82.5,Lori Barlow,67.5,,67.5,USA,CA,,,1
Single-ply,Open,F,B,90,Karen Campbell,205,,205,USA,ME,,,1
Single-ply,Open,F,B,100,Melissa Powell,115,,115,USA,OK,,,1
Single-ply,Disabled,F,B,52,Valesca Cristina Rocha,35,,35,Brazil,,,,1
Single-ply,Special Olympics,F,B,75,Cinthia Nelson,47.5,,47.5,USA,NV,,,1
Single-ply,Teen 12-13,F,B,56,Pomaikai Yamaguchi,,,,USA,HI,,,DQ
Multi-ply,Teen 14-15,F,B,60,Alexandra Pecktol,55,,55,USA,OR,,,1
Single-ply,Teen 14-15,F,B,48,Rafaela de Andrade Ubertini,37.5,,37.5,Brazil,,,,1
Single-ply,Teen 16-17,F,B,52,Tessa Campbell,40,,40,USA,CA,,,1
Single-ply,Teen 16-17,F,B,60,Amy Graves,50,,50,USA,CA,,,1
Single-ply,Teen 16-17,F,B,75,Alexandra Isnor,37.5,,37.5,USA,CA,,,1
Single-ply,Teen 18-19,F,B,56,Chasitee Thompson,52.5,,52.5,USA,TX,60,,1
Single-ply,Teen 18-19,F,B,60,Michaela Milesi,55,,55,USA,CA,,,1
Single-ply,Teen 18-19,F,B,67.5,Briana Jo Villarreal,70,,70,USA,TX,,,1
Single-ply,Teen 18-19,F,B,75,Sarah Biddle,72.5,,72.5,USA,WI,,,1
Single-ply,Teen 18-19,F,B,75,Keisha Johnston,52.5,,52.5,USA,TX,,,2
Single-ply,Juniors 20-25,F,B,52,Jessica Okimura,85,,85,USA,HI,,,1
Single-ply,Juniors 20-25,F,B,56,Petra Villegas,50.5,,50.5,USA,TX,,,1
Single-ply,Juniors 20-25,F,B,60,Amanda Harris,105,,105,USA,TX,,,1
Single-ply,Juniors 20-25,F,B,60,Brenda Clayton,62.5,,62.5,USA,WY,,,2
Single-ply,Juniors 20-25,F,B,60,Mary-Ann Sutton,57.5,,57.5,USA,CA,,,3
Single-ply,Juniors 20-25,F,B,60,Dawn Wehner,47.5,,47.5,USA,TX,,,4
Single-ply,Juniors 20-25,F,B,67.5,Morgan Myer,45,,45,USA,TX,,,2
Single-ply,Juniors 20-25,F,B,67.5,Natalie Caughey,45,,45,USA,UT,,,3
Single-ply,Juniors 20-25,F,B,67.5,Krystal Miller,105,,105,USA,NV,,,1
Single-ply,Juniors 20-25,F,B,75,Elizabeth Couture,67.5,,67.5,USA,MA,,,1
Single-ply,Juniors 20-25,F,B,75,Sofia Valdez,55,,55,USA,TX,,,2
Single-ply,Juniors 20-25,F,B,90+,Rachael Richey,103,,103,USA,TX,,,1
Multi-ply,Submasters 33-39,F,B,90+,Melissa Zumwalt,132.5,,132.5,USA,OR,,,1
Single-ply,Submasters 33-39,F,B,52,Linh Ngo,52.5,,52.5,USA,WA,,,1
Single-ply,Submasters 33-39,F,B,56,Rommey Garcia,45,,45,Ecuador,,,,1
Single-ply,Submasters 33-39,F,B,60,Dede Leinwohl,70,,70,USA,CA,,,1
Single-ply,Submasters 33-39,F,B,75,Shawna LeBlanc,112.5,,112.5,Canada,,,,1
Single-ply,Submasters 33-39,F,B,82.5,Lori Barlow,67.5,,67.5,USA,CA,,,1
Multi-ply,Masters 40-46,F,B,67.5,Teresa Jacobs,87.5,,87.5,USA,WA,,,1
Multi-ply,Masters 40-46,F,B,75,Virpi Pukkila,142.5,,142.5,Finland,,150.5,,1
Single-ply,Masters 40-46,F,B,52,Yu-Xin Hao,89,,89,USA,OH,,,1
Single-ply,Masters 40-46,F,B,56,Rebecca Moore,57.5,,57.5,USA,WA,,,1
Single-ply,Masters 40-46,F,B,60,Velma Panlasigui,77.5,,77.5,USA,HI,,,1
Single-ply,Masters 40-46,F,B,75,Cindy Shockman,125,,125,USA,OR,,,1
Single-ply,Masters 40-46,F,B,75,Ana Catia Portilho Couto,100,,100,Brazil,,105,,2
Single-ply,Masters 40-46,F,B,75,Lucia Feraud Montenegro,85,,85,Ecuador,,,,3
Multi-ply,Masters 47-53,F,B,56,Nan Helms,57.5,,57.5,USA,OR,,,1
Multi-ply,Masters 47-53,F,B,60,Janet Montgomery,55,,55,USA,OR,,,1
Multi-ply,Masters 47-53,F,B,67.5,Diana Sutton,55,,55,USA,OR,,,1
Single-ply,Masters 47-53,F,B,56,Sarah Sanford,90,,90,USA,MN,,,1
Single-ply,Masters 47-53,F,B,56,Jackie Steele,,,,USA,WA,,,DQ
Single-ply,Masters 47-53,F,B,60,Martha Godinez-Shim,78,,78,USA,HI,,,1
Single-ply,Masters 47-53,F,B,60,Tiffany Dean,70,,70,USA,NV,,,2
Single-ply,Masters 47-53,F,B,60,Kori Lee,60,,60,USA,TX,,,3
Single-ply,Masters 47-53,F,B,60,Dolores Garcia-Munro,47.5,,47.5,USA,CA,,,4
Single-ply,Masters 47-53,F,B,67.5,Beverly Anolin,114,,114,USA,CA,120,,1
Single-ply,Masters 47-53,F,B,75,Suzanne Spero,70,,70,USA,MA,,,1
Single-ply,Masters 47-53,F,B,82.5,Iraci Fatima Fenner,45,,45,Brazil,,,,1
Single-ply,Masters 47-53,F,B,90,Karen Campbell,205,,205,USA,ME,,,1
Multi-ply,Masters 54-60,F,B,52,Robyn Nelson,52.5,,52.5,USA,OR,,,1
Multi-ply,Masters 54-60,F,B,75,Jane Stabile,95,,95,USA,MA,,,1
Multi-ply,Masters 54-60,F,B,82.5,Margie Huston,80.5,,80.5,USA,WA,,,1
Multi-ply,Masters 54-60,F,B,90,Marilyn Lewis,70,,70,USA,WA,,,1
Single-ply,Masters 54-60,F,B,48,Pamela Robinson,67.5,,67.5,USA,CA,,,1
Single-ply,Masters 54-60,F,B,56,Karon Denniston,62.5,,62.5,USA,MI,,,1
Single-ply,Masters 54-60,F,B,60,Jill Porter,72.5,,72.5,USA,TX,,,1
Single-ply,Masters 54-60,F,B,67.5,Marsha Goodman,57.5,,57.5,USA,AZ,,,1
Single-ply,Masters 54-60,F,B,75,Peach Presley,92.5,,92.5,USA,CA,97.5,,1
Single-ply,Masters 54-60,F,B,82.5,Wilma Lee Cadavona,90,,90,USA,ID,95,,1
Multi-ply,Masters 61-67,F,B,56,Gloria Camp,50,,50,USA,OR,,,1
Single-ply,Masters 61-67,F,B,52,Rosalind Pierce,40,,40,USA,CA,,,2
Single-ply,Masters 61-67,F,B,52,Jo-Ann Clough,60,,60,USA,ME,,,1
Single-ply,Masters 61-67,F,B,60,Naomi Sylvester,35,,35,USA,NV,,,1
Single-ply,Masters 61-67,F,B,67.5,Linda Read,42.5,,42.5,USA,NV,,,1
Single-ply,Masters 61-67,F,B,67.5,Dawn Cole,35,,35,USA,CA,,,2
Single-ply,Masters 61-67,F,B,75,Marlene Wexler,45,,45,USA,MN,,,2
Single-ply,Masters 61-67,F,B,75,Pat Robey,97.5,,97.5,USA,WA,,,1
Single-ply,Masters 68-74,F,B,52,Betty Lafferty,67.5,,67.5,USA,AL,70.5,,1
Single-ply,Masters 68-74,F,B,60,Jo Walker,67.5,,67.5,USA,OR,,,1
Single-ply,Masters 68-74,F,B,75,Gerda Shupe,47.5,,47.5,USA,CA,,,1
Single-ply,Masters 68-74,F,B,82.5,Barbara Meraz,35,,35,USA,CA,,,1
Single-ply,Masters 68-74,F,B,90,Sandy Bonifield,34,,34,USA,CA,,,2
Single-ply,Masters 68-74,F,B,90,Winifred Pristell,72.5,,72.5,USA,WA,,,1
Single-ply,Masters 75-79,F,B,67.5,Grace Cloninger,37.5,,37.5,USA,NV,,,1
Single-ply,Masters 75-79,F,B,75,Joan Sloan,30,,30,USA,NV,,,1
Single-ply,Masters 80-84,F,B,75,Melicent Whinston,32.5,,32.5,USA,OR,,,1
Single-ply,Masters 85-89,F,B,56,Dottie Ward,20.5,,20.5,USA,CA,,,1
Single-ply,Law/Fire,F,B,75,Brenda Nolen,120,,120,USA,CA,125,,1
Single-ply,Submasters 33-39,F,B,75,Shawna LeBlanc,112.5,,112.5,Canada,,,,2
Single-ply,Law/Fire Masters 40-47,F,B,60,Simone Fulginiti Pfutzenreuter,40,,40,Brazil,,,,1
Single-ply,Law/Fire Masters 40-47,F,B,67.5,Ronelle Knouse,97.5,,97.5,USA,CA,102.5,,1
Single-ply,Law/Fire Masters 40-47,F,B,67.5,Christine Hamp,77.5,,77.5,USA,WA,,,2
Single-ply,Open,M,D,56,Vin Voeun,,157.5,157.5,Cambodia,,,160,1
Single-ply,Open,M,D,60,Gary Hunter #1,,183,183,USA,TX,,,2
Single-ply,Open,M,D,67.5,Antonio Gallo,,255.5,255.5,USA,NV,,,1
Single-ply,Open,M,D,67.5,Dean Kaneshiro,,255.5,255.5,USA,HI,,,2
Single-ply,Open,M,D,67.5,Alfredo Evangelista,,227.5,227.5,USA,OR,,,3
Single-ply,Open,M,D,75,Ryan Snelling,,272.5,272.5,USA,MO,,,1
Single-ply,Open,M,D,75,Richard Cirigliano,,255,255,USA,CA,,,2
Single-ply,Open,M,D,75,David Felton,,247.5,247.5,USA,WI,,,3
Single-ply,Open,M,D,75,Chris McGrail,,237.5,237.5,USA,UT,,,4
Single-ply,Open,M,D,75,Augustine Mastroine,,228,228,USA,OH,,,7
Single-ply,Open,M,D,75,Fulton White,,220,220,USA,NV,,,9
Single-ply,Open,M,D,75,Luis Baerga,,212.5,212.5,USA,TX,,,10
Single-ply,Open,M,D,75,RJ Meier,,185,185,USA,SD,,,12
Single-ply,Open,M,D,82.5,Brian McLaughlin,,242.5,242.5,USA,OR,,,2
Single-ply,Open,M,D,90,Edwin Manmano,,295,295,USA,HI,,,1
Single-ply,Open,M,D,90,Eddie DiFruscia,,277.5,277.5,USA,NH,,,2
Single-ply,Open,M,D,90,Landon Cross,,250,250,USA,MI,,,4
Single-ply,Open,M,D,90,Jason Taylor,,227.5,227.5,USA,MI,,,7
Single-ply,Open,M,D,90,Nathan Sultemeier,,205,205,USA,TX,,,9
Single-ply,Open,M,D,90,Guadalupe Trevino,,167.5,167.5,USA,TX,,,11
Single-ply,Open,M,D,100,Ben Rice,,341,341,USA,WA,,,1
Single-ply,Open,M,D,100,Tim Sparkes,,297.5,297.5,USA,AZ,,,2
Single-ply,Open,M,D,100,Dustin McFarland,,272.5,272.5,USA,OR,,,5
Single-ply,Open,M,D,100,Hubbel Richmond,,262.5,262.5,USA,CA,,,7
Single-ply,Open,M,D,100,Duane Burlingame,,260,260,USA,IL,,,8
Single-ply,Open,M,D,100,Shayne Unea,,255,255,USA,OR,,,9
Single-ply,Open,M,D,100,Kim Päivöke,,230,230,Finland,,,,11
Single-ply,Open,M,D,100,Brandon Blood,,227.5,227.5,USA,OH,,,12
Single-ply,Open,M,D,100,Adam Hays,,215,215,USA,AZ,,,14
Single-ply,Open,M,D,100,William G Caughey,,210,210,USA,UT,,,15
Single-ply,Open,M,D,110,Al Bianchi,,325.5,325.5,USA,MA,,,1
Single-ply,Open,M,D,110,Mike Woody,,315,315,USA,IN,,,2
Single-ply,Open,M,D,110,Kari Pöntinen,,310,310,Finland,,,,3
Single-ply,Open,M,D,110,Brent Howard,,287.5,287.5,USA,NV,,,4
Single-ply,Open,M,D,110,Ron L'Huillier,,277.5,277.5,USA,MI,,,5
Single-ply,Open,M,D,110,Robert Schleder,,275,275,USA,AZ,,,6
Single-ply,Open,M,D,110,Mike Desrosiers,,272.5,272.5,USA,AZ,,,7
Single-ply,Open,M,D,117.5,Jussi Tuomainen,,350.5,350.5,Finland,,,,1
Single-ply,Open,M,D,117.5,Garrett Muro,,320,320,USA,NV,,,2
Single-ply,Open,M,D,117.5,Nicolas Lepine,,320,320,USA,IL,,,3
Single-ply,Open,M,D,117.5,Terry Putman,,318,318,USA,OK,,,4
Single-ply,Open,M,D,117.5,Nicholas Raymond,,305.5,305.5,USA,OR,,,5
Single-ply,Open,M,D,117.5,Tony Arterburn,,275,275,USA,UT,,,6
Single-ply,Open,M,D,125,Patrick Holloway,,350,350,USA,AZ,,,1
Single-ply,Open,M,D,125,Harjit Kumar,,272.5,272.5,India,,,,2
Single-ply,Open,M,D,140,Jim Nickerson,,332.5,332.5,USA,OR,,,1
Single-ply,Open,M,D,140,Sean Collins,,215,215,USA,AZ,,,3
Single-ply,Open,M,D,140,Don Miskinis,,202.5,202.5,USA,OH,,,4
Single-ply,Open,M,D,140,Joe Mickelson,,272.5,272.5,USA,WA,,,2
Single-ply,Open,M,D,140,David Edgell,,,,USA,UT,,,DQ
Single-ply,Open,M,D,140,Ricardo Nort,,,,Brazil,,,,DQ
Single-ply,Open,M,D,140,Jerry Pritchett,,,,USA,AZ,,,DQ
Single-ply,Open,M,D,60,Homi Shivaie,,200,200,USA,CA,,,1
Single-ply,Open,M,D,60,Josh Grubbs,,148,148,USA,AZ,,,3
Single-ply,Open,M,D,67.5,Dave Constantineau,,215,215,USA,WI,,,4
Single-ply,Open,M,D,75,Chris McGrail,,237.5,237.5,USA,UT,,,5
Single-ply,Open,M,D,75,Owen Sanborn,,230,230,USA,IA,,,6
Single-ply,Open,M,D,75,Heath Robbins,,227.5,227.5,USA,IL,,,8
Single-ply,Open,M,D,75,Aramiq Amirchian,,205,205,USA,AZ,,,11
Single-ply,Open,M,D,82.5,Dominick Narigi,,247.5,247.5,USA,CA,,,1
Single-ply,Open,M,D,82.5,Brian McLaughlin,,242.5,242.5,USA,OR,,,3
Single-ply,Open,M,D,82.5,Jason Pelc,,232.5,232.5,USA,MI,,,4
Single-ply,Open,M,D,82.5,Jaxon Boyd,,212.5,212.5,USA,IL,,,5
Single-ply,Open,M,D,82.5,Dietrich Dejean,,205,205,USA,NV,,,6
Single-ply,Open,M,D,90,Mark Pearce,,257.5,257.5,USA,TX,,,3
Single-ply,Open,M,D,90,Landon Cross,,250,250,USA,MI,,,5
Single-ply,Open,M,D,90,Telford Allen,,237.5,237.5,USA,ME,,,6
Single-ply,Open,M,D,90,Kyle Herzik,,225,225,USA,NV,,,8
Single-ply,Open,M,D,90,Steven Pontius,,185,185,USA,WA,,,10
Single-ply,Open,M,D,100,William Cameron LaForge,,285,285,USA,MA,,,3
Single-ply,Open,M,D,100,Arthur Haug,,285,285,USA,IA,,,4
Single-ply,Open,M,D,100,Marty Rowe,,272.5,272.5,USA,AR,,,6
Single-ply,Open,M,D,100,Shayne Unea,,235,235,USA,OR,,,10
Single-ply,Open,M,D,100,Brandon Blood,,227.5,227.5,USA,OH,,,13
Single-ply,Open,M,D,110,Fateh Sihota,,250,250,India,,,,8
Single-ply,Open,M,D,110,Anthony Doyle,,250,250,USA,AR,,,9
Single-ply,Open,M,D,117.5,John Sotelo,,240,240,USA,HI,,,7
Single-ply,Open,M,D,125,William Pontius,,257.5,257.5,USA,WA,,,3
Single-ply,Open,M,D,140,Don Miskinis,,202.5,202.5,USA,OH,,,5
Single-ply,Open,M,D,140,Michael Pfabe,,202.5,202.5,USA,OH,,,6
Single-ply,Disabled,M,D,82.5,Vilmar Oliveira,,180,180,Brazil,,,,1
Single-ply,Disabled,M,D,90,John Herbein,,183,183,USA,PA,,,1
Single-ply,Disabled,M,D,90,Flavio Da Costa Baptista,,145,145,Brazil,,,,2
Single-ply,Disabled,M,D,90,Nick Sinardi,,,,USA,FL,,,DQ
Single-ply,Disabled,M,D,110,Cody Colchado,,227.5,227.5,USA,TX,,,1
Single-ply,Disabled,M,D,140,Allen Miluso,,102.5,102.5,USA,CA,,,1
Single-ply,Special Olympics,M,D,48,Todd Moore,,65,65,Canada,,,,1
Single-ply,Special Olympics,M,D,75,Chad McFarland,,196.5,196.5,USA,OR,,,1
Single-ply,Special Olympics,M,D,100,Bobby Lord,,237.5,237.5,USA,TX,,,1
Single-ply,Special Olympics,M,D,117.5,Nick Ceglia,,210.5,210.5,USA,OR,,,1
Single-ply,Special Olympics,M,D,140,Jock Mayes,,132.5,132.5,USA,CA,,,1
Single-ply,Teen 12-13,M,D,56,Gino Filardo,,71.5,71.5,USA,CA,,,1
Single-ply,Teen 12-13,M,D,67.5,Antonio Waldorf,,137.5,137.5,USA,MN,,,1
Single-ply,Teen 12-13,M,D,82.5,Storm Draayer,,127.5,127.5,USA,MN,,,1
Single-ply,Teen 12-13,M,D,90,Kaylin Kullman,,92.5,92.5,USA,CA,,,1
Single-ply,Teen 12-13,M,D,110,Jameson Jessup,,112.5,112.5,USA,CA,,125,1
Single-ply,Teen 14-15,M,D,52,Austin Ellis,,127.5,127.5,USA,TX,,,1
Single-ply,Teen 14-15,M,D,67.5,Caleb Nute,,137.5,137.5,USA,ME,,,1
Single-ply,Teen 14-15,M,D,75,Gaven White,,147.5,147.5,USA,AZ,,,1
Single-ply,Teen 14-15,M,D,75,Tyler Rosenquist,,85,85,USA,CA,,,2
Single-ply,Teen 14-15,M,D,90,Kevin Perez,,155,155,USA,CA,,,1
Single-ply,Teen 14-15,M,D,110,Nick Pastorello,,155,155,USA,NV,,,1
Single-ply,Teen 14-15,M,D,110,Kyle Capewell,,145,145,USA,CA,,,2
Single-ply,Teen 14-15,M,D,140,Alex DeSoto,,230,230,USA,AZ,,,1
Single-ply,Teen 16-17,M,D,67.5,Brandon Jones,,167.5,167.5,USA,HI,,,1
Single-ply,Teen 16-17,M,D,75,Lonnie Overturf,,230,230,USA,TX,,,1
Single-ply,Teen 16-17,M,D,82.5,C. J. Hollingshead,,247.5,247.5,USA,KS,,257.5,1
Single-ply,Teen 16-17,M,D,82.5,Matthew Ramsdell,,240,240,USA,ME,,,2
Single-ply,Teen 16-17,M,D,82.5,Jacob Hill,,172.5,172.5,USA,ME,,,3
Single-ply,Teen 16-17,M,D,100,William Cameron LaForge,,285,285,USA,MA,,,1
Single-ply,Teen 16-17,M,D,100,Hayden Hawkins,,217.5,217.5,USA,OR,,,2
Single-ply,Teen 16-17,M,D,100,Zach Sperrazza,,215.5,215.5,USA,TX,,,3
Single-ply,Teen 16-17,M,D,125,William Bronaugh,,182.5,182.5,USA,CA,,,1
Single-ply,Teen 18-19,M,D,56,Andrew Brooks,,197.5,197.5,USA,TX,,205,1
Single-ply,Teen 18-19,M,D,60,John Kimble,,201.5,201.5,USA,TX,,,1
Single-ply,Teen 18-19,M,D,60,Alex Silva,,167.5,167.5,USA,CA,,,2
Single-ply,Teen 18-19,M,D,60,Josh Grubbs,,148,148,USA,AZ,,,3
Single-ply,Teen 18-19,M,D,67.5,Robert Carrasco,,235.5,235.5,USA,TX,,,1
Single-ply,Teen 18-19,M,D,67.5,Manuel Pina,,182.5,182.5,USA,CA,,,2
Single-ply,Teen 18-19,M,D,82.5,Josh Caldwell,,217.5,217.5,USA,CA,,,1
Single-ply,Teen 18-19,M,D,82.5,Imaray Rojas,,142.5,142.5,USA,TX,,,2
Single-ply,Teen 18-19,M,D,90,Timothy Ward,,278,278,USA,TX,,,1
Single-ply,Teen 18-19,M,D,90,Jeffrey Moreno,,273,273,USA,TX,,,2
Single-ply,Teen 18-19,M,D,90,Doug Gardner,,215,215,USA,NV,,,3
Single-ply,Teen 18-19,M,D,90,Steven Pontius,,185,185,USA,WA,,,4
Single-ply,Teen 18-19,M,D,100,Jacob Fernandez,,227.5,227.5,USA,TX,,,1
Single-ply,Teen 18-19,M,D,100,Kyle Kubiak,,217.5,217.5,USA,MN,,,2
Single-ply,Juniors 20-25,M,D,48,Jerel Aaron Hulliger,,160,160,USA,CA,,,1
Single-ply,Juniors 20-25,M,D,56,Andres Cruz,,157.5,157.5,USA,TX,,,1
Single-ply,Juniors 20-25,M,D,60,Antonio Moreno,,182.5,182.5,USA,TX,,201,1
Single-ply,Juniors 20-25,M,D,75,Martin Esparza,,245,245,USA,TX,,,1
Single-ply,Juniors 20-25,M,D,75,Ismael Filipe De Nardi,,240,240,Brazil,,,,2
Single-ply,Juniors 20-25,M,D,75,Roy Arispe,,235,235,USA,TX,,,3
Single-ply,Juniors 20-25,M,D,75,Jesus Lozano,,230,230,USA,TX,,,4
Single-ply,Juniors 20-25,M,D,75,Baljit Singh,,215,215,USA,CA,,,5
Single-ply,Juniors 20-25,M,D,82.5,Ilian Rojas,,237.5,237.5,USA,TX,,,1
Single-ply,Juniors 20-25,M,D,82.5,Jordan Mc Peek,,205,205,USA,OH,,,2
Single-ply,Juniors 20-25,M,D,90,Zack Heppner,,272.5,272.5,USA,OR,,,1
Single-ply,Juniors 20-25,M,D,90,Eric Ximenez,,265,265,USA,TX,,,2
Single-ply,Juniors 20-25,M,D,90,Steven Rocha,,245,245,USA,TX,,,3
Single-ply,Juniors 20-25,M,D,100,Ben Rice,,341,341,USA,WA,,,1
Single-ply,Juniors 20-25,M,D,100,Hubbel Richmond,,262.5,262.5,USA,CA,,,2
Single-ply,Juniors 20-25,M,D,100,Zach Beghin,,250,250,USA,IL,,,3
Single-ply,Juniors 20-25,M,D,100,Ryan Bobula,,247.5,247.5,USA,NV,,,4
Single-ply,Juniors 20-25,M,D,100,Adam Hays,,215,215,USA,AZ,,,5
Single-ply,Juniors 20-25,M,D,100,Waldo Villarreal,,197.5,197.5,USA,TX,,,6
Single-ply,Juniors 20-25,M,D,100,Gene Carter,,,,USA,TX,,,DQ
Single-ply,Juniors 20-25,M,D,110,Jake Garbush,,297.5,297.5,USA,WA,,,1
Single-ply,Juniors 20-25,M,D,110,Austin Shipley,,295,295,USA,AZ,,,2
Single-ply,Juniors 20-25,M,D,110,Anthony Rodriguez,,250,250,USA,TX,,,3
Single-ply,Juniors 20-25,M,D,110,Isaiah Thomas,,240,240,USA,HI,,,4
Single-ply,Juniors 20-25,M,D,110,Jose Ramirez,,215,215,USA,NV,,,5
Single-ply,Juniors 20-25,M,D,110,Brian Overholtzer,,192.5,192.5,USA,CA,,,6
Single-ply,Juniors 20-25,M,D,117.5,Garrett Muro,,320,320,USA,NV,,,1
Single-ply,Juniors 20-25,M,D,117.5,Nicholas Raymond,,305.5,305.5,USA,OR,,,2
Single-ply,Juniors 20-25,M,D,117.5,Zachary Holloway,,250,250,USA,NV,,,3
Single-ply,Juniors 20-25,M,D,140,Javier Garza,,227.5,227.5,USA,TX,,,1
Single-ply,Juniors 20-25,M,D,140,Sean Collins,,215,215,USA,AZ,,,2
Single-ply,Submasters 33-39,M,D,67.5,Antonio Gallo,,255.5,255.5,USA,NV,,,1
Single-ply,Submasters 33-39,M,D,75,Augustine Mastroine,,228,228,USA,OH,,,1
Single-ply,Submasters 33-39,M,D,75,Heath Robbins,,227.5,227.5,USA,IL,,,2
Single-ply,Submasters 33-39,M,D,75,Jose Cabrera,,215,215,USA,CA,,,3
Single-ply,Submasters 33-39,M,D,75,Alejandro Barajas,,210,210,USA,TX,,,4
Single-ply,Submasters 33-39,M,D,82.5,Dietrich Dejean,,215,215,USA,NV,,,1
Single-ply,Submasters 33-39,M,D,82.5,Craig Bitton,,215,215,USA,UT,,,2
Single-ply,Submasters 33-39,M,D,82.5,Justin Huffaker,,210,210,USA,UT,,,3
Single-ply,Submasters 33-39,M,D,82.5,Bill Caram,,202.5,202.5,USA,OR,,,4
Single-ply,Submasters 33-39,M,D,90,Jason Hansen,,250,250,USA,UT,,,1
Single-ply,Submasters 33-39,M,D,90,Marcos Paulo Domingos,,230,230,Brazil,,,,2
Single-ply,Submasters 33-39,M,D,90,Murphy Knott,,227.5,227.5,USA,OR,,,3
Single-ply,Submasters 33-39,M,D,100,Kim Päivöke,,230,230,Finland,,,,3
Single-ply,Submasters 33-39,M,D,110,Kari Pöntinen,,310,310,Finland,,,,1
Single-ply,Submasters 33-39,M,D,110,Mike Desrosiers,,272.5,272.5,USA,AZ,,,2
Single-ply,Submasters 33-39,M,D,110,Richard Curran,,257.5,257.5,USA,WA,,,3
Single-ply,Submasters 33-39,M,D,110,Fateh Sihota,,250,250,India,,,,4
Single-ply,Submasters 33-39,M,D,110,Sergio De Soto,,227.5,227.5,USA,AZ,,,5
Single-ply,Submasters 33-39,M,D,125,Harjit Kumar,,272.5,272.5,USA,TX,,,1
Single-ply,Submasters 33-39,M,D,140,Michael Pfabe,,202.5,202.5,USA,OH,,,3
Single-ply,Submasters 33-39,M,D,140,Lance Christensen,,237.5,237.5,USA,UT,,,2
Single-ply,Submasters 33-39,M,D,140,Ricardo Nort,,,,Brazil,,,,DQ
Single-ply,Masters 40-46,M,D,90,Eddie DiFruscia,,277.5,277.5,USA,NH,,,1
Single-ply,Masters 40-46,M,D,90,Mark Pearce,,257.5,257.5,USA,TX,,,2
Single-ply,Masters 40-46,M,D,90,Sean Aberman,,215,215,USA,UT,,,3
Single-ply,Masters 40-46,M,D,100,Tim Sparkes,,297.5,297.5,USA,AZ,,,1
Single-ply,Masters 40-46,M,D,100,John Westleigh,,262.5,262.5,USA,ME,,,2
Single-ply,Masters 40-46,M,D,100,Christian Draayer,,227.5,227.5,USA,MN,,,3
Single-ply,Masters 40-46,M,D,110,Mike Woody,,315,315,USA,IN,,,1
Single-ply,Masters 40-46,M,D,110,Lance Davis,,242.5,242.5,USA,UT,,,2
Single-ply,Masters 40-46,M,D,110,Donnie Hamblin,,227.5,227.5,USA,AZ,,,3
Single-ply,Masters 40-46,M,D,117.5,Terry Putman,,318,318,USA,OK,,,1
Single-ply,Masters 40-46,M,D,117.5,Robert Exum,,272.5,272.5,USA,CA,,,2
Single-ply,Masters 40-46,M,D,125,Patrick Holloway,,350,350,USA,AZ,,,1
Single-ply,Masters 40-46,M,D,140,Warren Orr,,237.5,237.5,Canada,,,,4
Single-ply,Masters 40-46,M,D,140,Thomas Guiney,,308,308,USA,OK,,,1
Single-ply,Masters 40-46,M,D,140,Tiny Meeker,,277.5,277.5,USA,TX,,,2
Single-ply,Masters 40-46,M,D,140,Stephen Wright,,250,250,USA,ME,,,3
Single-ply,Masters 40-46,M,D,140,David Edgell,,,,USA,UT,,,DQ
Single-ply,Masters 47-53,M,D,60,Chetram Mangra,,110,110,USA,NY,,,1
Single-ply,Masters 47-53,M,D,67.5,David Edmondson,,210,210,USA,UT,,,1
Single-ply,Masters 47-53,M,D,75,Keith Cunningham,,240,240,USA,WA,,,1
Single-ply,Masters 47-53,M,D,75,Fulton White,,220,220,USA,NV,,,2
Single-ply,Masters 47-53,M,D,75,Peter Knight,,,,USA,NV,,,DQ
Single-ply,Masters 47-53,M,D,82.5,Chris Goyes,,227.5,227.5,USA,TX,,,1
Single-ply,Masters 47-53,M,D,90,Doug Noebe,,250.5,250.5,USA,OH,,,1
Single-ply,Masters 47-53,M,D,100,Gene A Wenzel,,210,210,USA,OH,,,1
Single-ply,Masters 47-53,M,D,110,Eugene Merrill,,240.5,240.5,USA,AR,,,1
Single-ply,Masters 47-53,M,D,110,Steve Gaytan,,220,220,USA,CA,,,2
Single-ply,Masters 47-53,M,D,125,Bobby Driskill,,305,305,USA,AL,,,1
Single-ply,Masters 47-53,M,D,140,Jeff Peshek,,305,305,USA,OH,,,1
Single-ply,Masters 47-53,M,D,140,Blair Fisher,,267.5,267.5,Canada,,,273,2
Single-ply,Masters 47-53,M,D,140,James Mersberg,,,,USA,HI,,,DQ
Single-ply,Masters 54-60,M,D,67.5,Dean Kaneshiro,,255.5,255.5,USA,HI,,,1
Single-ply,Masters 54-60,M,D,67.5,Alfredo Evangelista,,227.5,227.5,USA,OR,,,2
Single-ply,Masters 54-60,M,D,67.5,Dave Constantineau,,215,215,USA,WI,,,3
Single-ply,Masters 54-60,M,D,75,Richard Cirigliano,,255,255,USA,CA,,,1
Single-ply,Masters 54-60,M,D,75,David Felton,,247.5,247.5,USA,WI,,,2
Single-ply,Masters 54-60,M,D,75,Dave Higgins,,177.5,177.5,USA,MN,,,3
Single-ply,Masters 54-60,M,D,82.5,Doug Clayton,,232.5,232.5,USA,WY,,,1
Single-ply,Masters 54-60,M,D,90,Doug Woods,,242.5,242.5,USA,WA,,,1
Single-ply,Masters 54-60,M,D,100,Duane Burlingame,,260,260,USA,IL,,,1
Single-ply,Masters 54-60,M,D,100,Jim Curley,,232.5,232.5,USA,CO,,,2
Single-ply,Masters 54-60,M,D,110,Eddie Morgan,,299,299,USA,AR,,,1
Single-ply,Masters 54-60,M,D,110,Mike Frizzell,,282.5,282.5,USA,IL,,,2
Single-ply,Masters 54-60,M,D,110,Ron L'Huillier,,277.5,277.5,USA,MI,,,3
Single-ply,Masters 54-60,M,D,110,Marvin Hollan,,275,275,USA,TX,,,4
Single-ply,Masters 54-60,M,D,110,Ric Duncan,,250,250,USA,TX,,,5
Single-ply,Masters 54-60,M,D,110,William B Caughey,,187.5,187.5,USA,UT,,,6
Single-ply,Masters 54-60,M,D,117.5,Keith Huffer,,237.5,237.5,USA,CA,,,1
Single-ply,Masters 54-60,M,D,117.5,David Wolf,,232.5,232.5,USA,WY,,,2
Single-ply,Masters 54-60,M,D,140,Ted Stewart,,240,240,USA,NV,,,2
Single-ply,Masters 54-60,M,D,140,Joe Mickelson,,272.5,272.5,USA,WA,,,1
Single-ply,Masters 61-67,M,D,75,James Christian,,192.5,192.5,USA,TX,,,1
Single-ply,Masters 61-67,M,D,82.5,Jerry Shetka,,235,235,USA,MN,,,1
Single-ply,Masters 61-67,M,D,82.5,Jack Rankin,,200,200,USA,WA,,,2
Single-ply,Masters 61-67,M,D,82.5,David Wentworth,,182.5,182.5,USA,ME,,,3
Single-ply,Masters 61-67,M,D,82.5,G. Jeffery Thornton,,162.5,162.5,USA,AZ,,,4
Single-ply,Masters 61-67,M,D,82.5,Robert Bienvenu,,140.5,140.5,USA,LA,,,5
Single-ply,Masters 61-67,M,D,90,Bob Hochstein,,235,235,USA,IL,,,1
Single-ply,Masters 61-67,M,D,90,Mick Stevens,,225,225,USA,WA,,,2
Single-ply,Masters 61-67,M,D,90,Martin Joyce,,220,220,USA,ME,,,3
Single-ply,Masters 61-67,M,D,90,Godfrey Holzinger,,207.5,207.5,USA,WA,,,4
Single-ply,Masters 61-67,M,D,90,Ron Jones,,170,170,USA,AL,,,5
Single-ply,Masters 61-67,M,D,100,Bill Anderberg,,230,230,USA,OR,,,1
Single-ply,Masters 61-67,M,D,100,Tom Haggenmiller,,217.5,217.5,USA,MN,,,2
Single-ply,Masters 61-67,M,D,110,Cliff Sandberg,,250,250,USA,WA,,,1
Single-ply,Masters 61-67,M,D,110,Robert Wass,,185,185,USA,OR,,,2
Single-ply,Masters 61-67,M,D,110,Thomas Wright,,160,160,USA,KS,,,3
Single-ply,Masters 61-67,M,D,125,Mike Fryar,,255.5,255.5,USA,WA,,,1
Single-ply,Masters 61-67,M,D,125,Tom Morgan,,217.5,217.5,USA,AR,,,2
Single-ply,Masters 61-67,M,D,140,Randy Patterson,,250,250,USA,AZ,,,1
Single-ply,Masters 61-67,M,D,140,Allen Miluso,,102.5,102.5,USA,CA,,,2
Single-ply,Masters 68-74,M,D,75,Martin Montgomery,,215,215,USA,IN,,,1
Single-ply,Masters 68-74,M,D,82.5,Stan Miyahira,,150,150,USA,NV,,,1
Single-ply,Masters 68-74,M,D,90,Roy Eriksen,,195,195,USA,NV,,,1
Single-ply,Masters 68-74,M,D,90,John Herbein,,183,183,USA,PA,,,2
Single-ply,Masters 68-74,M,D,90,Ronald Ford,,95,95,USA,CA,,,3
Single-ply,Masters 68-74,M,D,100,Tom Overholtzer,,182.5,182.5,USA,CA,,,1
Single-ply,Masters 68-74,M,D,100,Robert Urrea,,180,180,USA,CA,,,2
Single-ply,Masters 68-74,M,D,110,Bud Davis,,275,275,USA,UT,,,1
Single-ply,Masters 75-79,M,D,60,Larry Vincent,,155.5,155.5,USA,OR,,,1
Single-ply,Masters 75-79,M,D,90,John Felten,,125,125,USA,MN,,,1
Single-ply,Masters 75-79,M,D,90,Robert Cook,,122.5,122.5,USA,NV,,,2
Single-ply,Masters 75-79,M,D,90,Dean Baker,,97.5,97.5,USA,CA,,,3
Single-ply,Masters 75-79,M,D,140,JP Krachunis,,92.5,92.5,USA,CA,,,1
Single-ply,Masters 80-84,M,D,75,Joseph Cavness,,97.5,97.5,USA,CA,,,1
Single-ply,Masters 80-84,M,D,82.5,George Choi,,65,65,USA,CA,,,1
Single-ply,Masters 80-84,M,D,90,Owen Van Buskirk,,160,160,USA,OR,,,1
Single-ply,Masters 85-89,M,D,75,Bladen Mc Clelland,,107.5,107.5,USA,MI,,,1
Single-ply,Masters 85-89,M,D,90,Rodney Graves,,90,90,USA,NV,,,1
Single-ply,Masters 90+,M,D,75,Dr. Donald Dreyer,,75,75,USA,LA,,77.5,1
Single-ply,Law/Fire,M,D,82.5,Douglas Wellemeyer,,240,240,USA,CA,,,1
Single-ply,Law/Fire,M,D,90,Dan Guches,,273,273,USA,OR,,,1
Single-ply,Law/Fire,M,D,100,Troy Fryar,,287.5,287.5,USA,WA,,,1
Single-ply,Law/Fire,M,D,100,Nick Berriman,,237.5,237.5,USA,OR,,,2
Single-ply,Law/Fire,M,D,110,Robert Schleder,,275,275,USA,AZ,,,1
Single-ply,Law/Fire,M,D,140,Marcus Austin,,185,185,USA,OK,,,2
Single-ply,Law/Fire,M,D,140,Keoni Reich,,327.5,327.5,USA,HI,,,1
Single-ply,Submasters 33-39,M,D,100,Chris Newton,,245,245,USA,CA,,,1
Single-ply,Submasters 33-39,M,D,100,Nick Berriman,,237.5,237.5,USA,OR,,,2
Single-ply,Submasters 33-39,M,D,140,Marcus Austin,,185,185,USA,OK,,,4
Single-ply,Submasters 33-39,M,D,140,Keoni Reich,,327.5,327.5,USA,HI,,,1
Single-ply,Law/Fire Masters 40-47,M,D,90,Ronald W. C. Nipp Jr,,230,230,USA,HI,,,1
Single-ply,Law/Fire Masters 40-47,M,D,90,Daniel Stewart,,227.5,227.5,USA,AR,,,2
Single-ply,Law/Fire Masters 40-47,M,D,100,Troy Fryar,,287.5,287.5,USA,WA,,,1
Single-ply,Law/Fire Masters 40-47,M,D,110,Al Bianchi,,325.5,325.5,USA,MA,,,1
Single-ply,Law/Fire Masters 40-47,M,D,110,Lance Davis,,242.5,242.5,USA,UT,,,2
Single-ply,Law/Fire Masters 40-47,M,D,110,Donnie Hamblin,,227.5,227.5,USA,AZ,,,3
Single-ply,Law/Fire Masters 40-47,M,D,110,Bill Splawn,,225,225,USA,WA,,,4
Single-ply,Law/Fire Masters 40-47,M,D,140,Warren Orr,,237.5,237.5,Canada,,,,1
Single-ply,Law/Fire Masters 48-55,M,D,75,Larry Esquivel,,182.5,182.5,USA,CA,,,1
Single-ply,Law/Fire Masters 48-55,M,D,90,Dan Guches,,273,273,USA,OR,,,1
Single-ply,Law/Fire Masters 48-55,M,D,90,Luis Fernando Meireles Dias,,230.5,230.5,Brazil,,,,2
Single-ply,Law/Fire Masters 48-55,M,D,100,William Denniston,,212.5,212.5,USA,MI,,,1
Single-ply,Law/Fire Masters 48-55,M,D,117.5,Ismyanto Soekardi,,283.5,283.5,USA,CA,,,1
Single-ply,Law/Fire Masters 48-55,M,D,140,Dennis Schultz,,255,255,USA,CA,,,1
Single-ply,Law/Fire Masters 56+,M,D,67.5,Gary Miller #2,,145,145,USA,NV,,150,1
Single-ply,Law/Fire Masters 56+,M,D,82.5,Mike Harrison,,223,223,USA,TX,,,1
Single-ply,Law/Fire Masters 56+,M,D,90,Charles McFarland,,252.5,252.5,USA,OR,,,1
Single-ply,Law/Fire Masters 56+,M,D,100,Jon Wolbers,,258,258,Canada,,,,1
Single-ply,Law/Fire Masters 56+,M,D,100,Tom Overholtzer,,182.5,182.5,USA,CA,,,2
Single-ply,Law/Fire Masters 56+,M,D,100,Ernest Stuart,,170,170,USA,TX,,,3
Single-ply,Law/Fire Masters 56+,M,D,110,Marvin Hollan,,275,275,USA,TX,,,1
Single-ply,Law/Fire Masters 56+,M,D,117.5,Manny Burruel,,250,250,USA,CA,,,1
Single-ply,Law/Fire Masters 56+,M,D,140,Randy Patterson,,250,250,USA,AZ,,,1
Single-ply,Open,F,D,48,Colleen Loo,,140,140,USA,HI,,142.5,1
Single-ply,Open,F,D,52,Jo-Ann Clough,,140,140,USA,ME,,145.5,1
Single-ply,Open,F,D,52,Amparo Barajas,,122.5,122.5,USA,TX,,,2
Single-ply,Open,F,D,56,Angela Sweet,,130,130,USA,PA,,,1
Single-ply,Open,F,D,56,Lorene Stone,,105,105,USA,OR,,,2
Single-ply,Open,F,D,56,Rommey Garcia,,95,95,Ecuador,,,,3
Single-ply,Open,F,D,60,Melissa Klundby,,160,160,USA,CA,,,1
Single-ply,Open,F,D,60,Velma Panlasigui,,140,140,USA,HI,,,2
Single-ply,Open,F,D,60,Dolores Garcia-Munro,,132.5,132.5,USA,CA,,,3
Single-ply,Open,F,D,60,Jill Porter,,125.5,125.5,USA,TX,,,4
Single-ply,Open,F,D,67.5,Linda Okoro,,218,218,USA,TX,,227.5,1
Single-ply,Open,F,D,67.5,Jane McCubbin,,190,190,USA,WI,,,2
Single-ply,Open,F,D,67.5,Beverly Anolin,,175,175,USA,CA,,,3
Single-ply,Open,F,D,67.5,Shawna Sheffield,,137.5,137.5,USA,CA,,,4
Single-ply,Open,F,D,67.5,Britney Rupley,,130,130,USA,CA,,,5
Single-ply,Open,F,D,75,Shauna Perry,,192.5,192.5,USA,HI,,,1
Single-ply,Open,F,D,75,Cindy Shockman,,185,185,USA,OR,,,2
Single-ply,Open,F,D,75,Ana Catia Portilho Couto,,177.5,177.5,Brazil,,,,3
Single-ply,Open,F,D,75,Elizabeth Couture,,145,145,USA,MA,,,4
Single-ply,Open,F,D,75,Lucia Feraud Montenegro,,135,135,Ecuador,,,,5
Single-ply,Open,F,D,75,Jennifer Fahrney,,127.5,127.5,USA,UT,,,6
Single-ply,Open,F,D,82.5,Deb Kesper,,145.5,145.5,USA,MA,,,1
Single-ply,Open,F,D,90,Annie Bowman,,192.5,192.5,USA,WA,,,1
Single-ply,Open,F,D,90,Karen Campbell,,190,190,USA,ME,,,2
Single-ply,Open,F,D,44,Elizabeth Cabe,,145.5,145.5,USA,HI,,,1
Single-ply,Disabled,F,D,52,Valesca Cristina Rocha,,60,60,Brazil,,,,1
Single-ply,Teen 12-13,F,D,56,Pomaikai Yamaguchi,,125.5,125.5,USA,HI,,,1
Single-ply,Teen 14-15,F,D,48,Rafaela de Andrade Ubertini,,85,85,Brazil,,,92.5,1
Single-ply,Teen 14-15,F,D,56,Gabriela Damasceno,,100,100,Brazil,,,105,1
Single-ply,Teen 14-15,F,D,60,Alexandra Pecktol,,141.5,141.5,USA,OR,,145,1
Single-ply,Teen 16-17,F,D,60,Amy Graves,,95,95,USA,CA,,,1
Single-ply,Teen 16-17,F,D,67.5,Katrina Cohen,,127.5,127.5,USA,CA,,,1
Single-ply,Teen 16-17,F,D,75,Alexandra Isnor,,85,85,USA,CA,,,1
Single-ply,Teen 16-17,F,D,90,Jacqueline Wickens,,,,USA,NV,,,DQ
Single-ply,Teen 18-19,F,D,56,Chasitee Thompson,,132.5,132.5,USA,TX,,137.5,1
Single-ply,Teen 18-19,F,D,60,Michaela Milesi,,137.5,137.5,USA,CA,,,1
Single-ply,Teen 18-19,F,D,67.5,Briana Jo Villarreal,,152.5,152.5,USA,TX,,,1
Single-ply,Teen 18-19,F,D,75,Sarah Biddle,,137.5,137.5,USA,WI,,,1
Single-ply,Teen 18-19,F,D,75,Keisha Johnston,,127.5,127.5,USA,TX,,,2
Single-ply,Juniors 20-25,F,D,48,Colleen Loo,,140,140,USA,HI,,142.5,1
Single-ply,Juniors 20-25,F,D,52,Jessica Okimura,,117.5,117.5,USA,HI,,,1
Single-ply,Juniors 20-25,F,D,56,Petra Villegas,,107.5,107.5,USA,TX,,112.5,1
Single-ply,Juniors 20-25,F,D,60,Mary-Ann Sutton,,140,140,USA,CA,,,1
Single-ply,Juniors 20-25,F,D,60,Brenda Clayton,,107.5,107.5,USA,WY,,,2
Single-ply,Juniors 20-25,F,D,60,Dawn Wehner,,77.5,77.5,USA,TX,,,3
Single-ply,Juniors 20-25,F,D,67.5,Krystal Miller,,137.5,137.5,USA,NV,,,1
Single-ply,Juniors 20-25,F,D,67.5,Natalie Caughey,,115,115,USA,UT,,,2
Single-ply,Juniors 20-25,F,D,67.5,Morgan Myer,,102.5,102.5,USA,TX,,,3
Single-ply,Juniors 20-25,F,D,75,Amanda Wass,,165,165,USA,OR,,,1
Single-ply,Juniors 20-25,F,D,75,Elizabeth Couture,,145,145,USA,MA,,,2
Single-ply,Juniors 20-25,F,D,75,Sofia Valdez,,120,120,USA,TX,,,3
Single-ply,Juniors 20-25,F,D,90+,Rachael Richey,,137.5,137.5,USA,TX,,,1
Single-ply,Submasters 33-39,F,D,52,Linh Ngo,,116.5,116.5,USA,WA,,,1
Single-ply,Submasters 33-39,F,D,56,Rommey Garcia,,95,95,Ecuador,,,,1
Single-ply,Submasters 33-39,F,D,60,Melissa Klundby,,160,160,USA,CA,,,1
Single-ply,Submasters 33-39,F,D,60,Dede Leinwohl,,120,120,USA,CA,,,2
Single-ply,Submasters 33-39,F,D,75,Shawna LeBlanc,,160,160,Canada,,,,1
Single-ply,Submasters 33-39,F,D,75,Jennifer Fahrney,,127.5,127.5,USA,UT,,,3
Single-ply,Masters 40-46,F,D,52,Yu-Xin Hao,,137.5,137.5,USA,OH,,,1
Single-ply,Masters 40-46,F,D,56,Rebecca Moore,,115,115,USA,WA,,,1
Single-ply,Masters 40-46,F,D,60,Velma Panlasigui,,140,140,USA,HI,,,1
Single-ply,Masters 40-46,F,D,60,Lori Rogers,,92.5,92.5,USA,UT,,,2
Single-ply,Masters 40-46,F,D,67.5,Teresa Jacobs,,170,170,USA,WA,,,1
Single-ply,Masters 40-46,F,D,75,Cindy Shockman,,185,185,USA,OR,,,1
Single-ply,Masters 40-46,F,D,75,Ana Catia Portilho Couto,,177.5,177.5,Brazil,,,,2
Single-ply,Masters 40-46,F,D,75,Lucia Feraud Montenegro,,135,135,Ecuador,,,,3
Single-ply,Masters 40-46,F,D,44,Elizabeth Cabe,,145.5,145.5,USA,HI,,,1
Single-ply,Masters 47-53,F,D,60,Dolores Garcia-Munro,,132.5,132.5,USA,CA,,,1
Single-ply,Masters 47-53,F,D,60,Alison Barnhill,,130,130,USA,CA,,,2
Single-ply,Masters 47-53,F,D,60,Martha Godinez-Shim,,125,125,USA,HI,,,3
Single-ply,Masters 47-53,F,D,67.5,Jane McCubbin,,190,190,USA,WI,,,1
Single-ply,Masters 47-53,F,D,67.5,Beverly Anolin,,175,175,USA,CA,,,2
Single-ply,Masters 47-53,F,D,75,Suzanne Spero,,170.5,170.5,USA,MA,,,1
Single-ply,Masters 47-53,F,D,82.5,Theresa Holte,,165,165,USA,OR,,,1
Single-ply,Masters 47-53,F,D,82.5,Deb Kesper,,145.5,145.5,USA,MA,,,2
Single-ply,Masters 47-53,F,D,82.5,Josefina Jackson,,140,140,USA,TX,,,3
Single-ply,Masters 47-53,F,D,82.5,Iraci Fatima Fenner,,100,100,Brazil,,,,4
Single-ply,Masters 47-53,F,D,90,Karen Campbell,,190,190,USA,ME,,,1
Single-ply,Masters 54-60,F,D,56,Karon Denniston,,106,106,USA,MI,,,1
Single-ply,Masters 54-60,F,D,60,Jill Porter,,125.5,125.5,USA,TX,,,1
Single-ply,Masters 54-60,F,D,67.5,Marsha Goodman,,110.5,110.5,USA,AZ,,,1
Single-ply,Masters 54-60,F,D,67.5,Mary Bartlett-Sweet,,110,110,USA,WI,,,2
Single-ply,Masters 54-60,F,D,75,Jane Stabile,,170,170,USA,MA,,,1
Single-ply,Masters 54-60,F,D,82.5,Margie Huston,,147.5,147.5,USA,WA,,,1
Single-ply,Masters 54-60,F,D,90,Marilyn Lewis,,147.5,147.5,USA,WA,,,1
Single-ply,Masters 61-67,F,D,52,Jo-Ann Clough,,140,140,USA,ME,,145.5,1
Single-ply,Masters 61-67,F,D,60,Naomi Sylvester,,80,80,USA,NV,,,1
Single-ply,Masters 61-67,F,D,67.5,Linda Read,,105,105,USA,NV,,,1
Single-ply,Masters 61-67,F,D,67.5,Dawn Cole,,62.5,62.5,USA,CA,,,2
Single-ply,Masters 61-67,F,D,75,Karen Harding,,137.5,137.5,USA,MA,,,1
Single-ply,Masters 61-67,F,D,75,Pat Robey,,110,110,USA,WA,,,2
Single-ply,Masters 61-67,F,D,75,Marlene Wexler,,102.5,102.5,USA,MN,,,3
Single-ply,Masters 68-74,F,D,52,Betty Lafferty,,98,98,USA,AL,,98.5,1
Single-ply,Masters 68-74,F,D,75,Gerda Shupe,,95,95,USA,CA,,,1
Single-ply,Masters 68-74,F,D,82.5,Barbara Meraz,,65,65,USA,CA,,,1
Single-ply,Masters 68-74,F,D,90,Winifred Pristell,,120,120,USA,WA,,,1
Single-ply,Masters 68-74,F,D,90,Sandy Bonifield,,67.5,67.5,USA,CA,,,2
Single-ply,Masters 75-79,F,D,67.5,Grace Cloninger,,75,75,USA,NV,,,1
Single-ply,Masters 75-79,F,D,75,Joan Sloan,,70,70,USA,NV,,,1
Single-ply,Masters 80-84,F,D,75,Melicent Whinston,,76.5,76.5,USA,OR,,78,1
Single-ply,Masters 85-89,F,D,56,Dottie Ward,,35,35,USA,CA,,,1
Single-ply,Law/Fire,F,D,75,Amanda Wass,,165,165,USA,OR,,170,1
Single-ply,Submasters 33-39,F,D,75,Shawna LeBlanc,,160,160,Canada,,,,2
Single-ply,Law/Fire Masters 40-47,F,D,60,Simone Fulginiti Pfutzenreuter,,90.5,90.5,Brazil,,,,1
