Division,WeightClassKg,Place,Name,Team,BodyweightKg,Best3SquatKg,Best3BenchKg,Best3DeadliftKg,TotalKg,Equipment,Event,Sex
Boys,51.71,1,LA Gonzalez,Alice,51.71,188.24,97.52,181.44,467.2,Single-ply,SBD,M
Boys,51.71,2,Robert Gonzalez,Laredo Cigarroa,51.71,183.7,97.52,179.17,460.4,Single-ply,SBD,M
Boys,51.71,3,Cody Juarez,Alice,50.35,181.44,104.33,149.69,435.45,Single-ply,SBD,M
Boys,51.71,4,Danny Ruiz,Zapata,51.71,142.88,79.38,172.37,394.63,Single-ply,SBD,M
Boys,51.71,5,Oscar Martel,Laredo United South,48.99,133.81,86.18,136.08,356.07,Single-ply,SBD,M
Boys,51.71,6,Marcus Gaza,Alice,51.44,151.95,58.97,127.01,337.93,Single-ply,SBD,M
Boys,51.71,7,Rogelio Hernandez,Ben Bolt-Palito Blanco,49.71,129.27,74.84,131.54,335.66,Single-ply,SBD,M
Boys,51.71,8,Aaron Fuentes,Zapata,51.26,117.93,72.57,127.01,317.51,Single-ply,SBD,M
Boys,51.71,9,AJ Perez,Santa Gertrudis Academy,51.71,122.47,72.57,117.93,312.98,Single-ply,SBD,M
Boys,55.79,1,Randy Soliz,Hebbronville,55.34,204.12,113.4,217.72,535.24,Single-ply,SBD,M
Boys,55.79,2,Jesus Trevino,Zapata,55.34,176.9,102.06,195.04,474,Single-ply,SBD,M
Boys,55.79,3,Niko Munoz,Falfurrias,53.89,113.4,65.77,138.35,317.51,Single-ply,SBD,M
Boys,55.79,DQ,Jose Alcorta,Laredo United South,55.34,,,,,Single-ply,SBD,M
Boys,59.87,1,Marcos Lara,Mathis,59.42,167.83,120.2,204.12,492.15,Single-ply,SBD,M
Boys,59.87,2,Richard Saenz,Hebbronville,58.97,204.12,97.52,188.24,489.88,Single-ply,SBD,M
Boys,59.87,3,Anthony Perez,Ben Bolt-Palito Blanco,56.52,165.56,104.33,174.63,444.52,Single-ply,SBD,M
Boys,59.87,4,Ryan Saenz,Hebbronville,59.42,142.88,77.11,151.95,371.95,Single-ply,SBD,M
Boys,59.87,DQ,JC Gutierrez,Zapata,59.87,,,,,Single-ply,SBD,M
Boys,59.87,DQ,Mac Gomez,Zapata,59.42,215.46,106.59,,,Single-ply,SBD,M
Boys,59.87,DQ,Alex Ramirez,Falfurrias,59.15,,,,,Single-ply,SBD,M
Boys,67.13,1,Oscar Galvan,Laredo United South,67.13,188.24,142.88,215.46,546.58,Single-ply,SBD,M
Boys,67.13,2,Oscar Camarillo,Alice,66.86,210.92,124.74,204.12,539.77,Single-ply,SBD,M
Boys,67.13,3,Ramiro Gonzalez,Falfurrias,65.95,174.63,120.2,195.04,489.88,Single-ply,SBD,M
Boys,67.13,4,Nathaniel McRae,Hebbronville,66.68,174.63,97.52,208.65,480.81,Single-ply,SBD,M
Boys,67.13,5,Tristian Perez,Ben Bolt-Palito Blanco,67.13,151.95,92.99,154.22,399.16,Single-ply,SBD,M
Boys,67.13,6,Zachary Rodriguez,Three Rivers,63.5,147.42,88.45,156.49,392.36,Single-ply,SBD,M
Boys,67.13,7,Cody Prather,Ben Bolt-Palito Blanco,66.22,133.81,70.31,151.95,356.07,Single-ply,SBD,M
Boys,67.13,DQ,Robert Canales,Hebbronville,63.5,142.88,77.11,,,Single-ply,SBD,M
Boys,74.84,1,Leonel Salinas,San Diego,74.84,242.67,124.74,226.8,594.21,Single-ply,SBD,M
Boys,74.84,2,Matt Olivarri,Alice,74.39,204.12,129.27,206.38,539.77,Single-ply,SBD,M
Boys,74.84,3,Destin Chapa,Mathis,74.84,204.12,129.27,199.58,532.97,Single-ply,SBD,M
Boys,74.84,4,John Carrillo,Three Rivers,70.31,145.15,81.65,163.29,390.09,Single-ply,SBD,M
Boys,74.84,5,Heron Tamez,Falfurrias,73.48,131.54,74.84,136.08,342.46,Single-ply,SBD,M
Boys,82.1,1,Kevin Martinez,Laredo United South,81.83,215.46,129.27,226.8,571.53,Single-ply,SBD,M
Boys,82.1,2,Victor Moreno,Hebbronville,81.65,217.72,129.27,222.26,569.26,Single-ply,SBD,M
Boys,82.1,3,Joshua Olivarez,Falfurrias,77.93,213.19,115.67,226.8,555.65,Single-ply,SBD,M
Boys,82.1,4,Toby Medina,Mathis,82.1,158.76,63.5,136.08,358.34,Single-ply,SBD,M
Boys,82.1,DQ,Dawson Bednorz,Three Rivers,79.29,204.12,106.59,,,Single-ply,SBD,M
Boys,89.81,1,Arnold Sauceda,Hebbronville,88,263.08,133.81,249.48,646.37,Single-ply,SBD,M
Boys,89.81,2,Alec Lara,Mathis,89.81,231.33,170.1,197.31,598.74,Single-ply,SBD,M
Boys,89.81,3,Ilias Rodriguez,Three Rivers,86,190.51,104.33,201.85,496.68,Single-ply,SBD,M
Boys,89.81,4,Luis De Luna,Laredo United South,89.81,197.31,111.13,188.24,496.68,Single-ply,SBD,M
Boys,89.81,5,Joel Salinas,Falfurrias,85.73,183.7,106.59,183.7,474,Single-ply,SBD,M
Boys,89.81,6,Carlos Huerta,Hebbronville,89.36,176.9,99.79,183.7,460.4,Single-ply,SBD,M
Boys,89.81,7,Felipe Ruiz,Freer,88.18,183.7,111.13,158.76,453.59,Single-ply,SBD,M
Boys,89.81,8,Prusad Dalvi,Ben Bolt-Palito Blanco,87.36,149.69,81.65,149.69,381.02,Single-ply,SBD,M
Boys,99.79,1,Jaime Pedraza,Mathis,98.88,215.46,142.88,217.72,576.06,Single-ply,SBD,M
Boys,99.79,2,Michael Salaiz,San Diego,97.98,229.06,113.4,222.26,564.72,Single-ply,SBD,M
Boys,99.79,3,Elias Cantu,Hebbronville,92.99,199.58,124.74,206.38,530.7,Single-ply,SBD,M
Boys,99.79,DQ,Franco Arce,Zapata,97.98,235.87,,,,Single-ply,SBD,M
Boys,109.77,1,Ruben Casas,Falfurrias,105.96,283.5,167.83,229.06,680.39,Single-ply,SBD,M
Boys,109.77,2,Daniel Vela,Falfurrias,108.77,229.06,131.54,219.99,580.6,Single-ply,SBD,M
Boys,109.77,3,Joey Garza,Falfurrias,101.7,201.85,102.06,170.1,474,Single-ply,SBD,M
Boys,109.77,4,Pete Coninguez,Hebbronville,109.32,129.27,77.11,158.76,365.14,Single-ply,SBD,M
Boys,109.77,5,Nick Medina,Mathis,103.42,151.95,90.72,90.72,333.39,Single-ply,SBD,M
Boys,109.77,DQ,Michael Almedina,Zapata,107.5,,,,,Single-ply,SBD,M
Boys,124.74,1,Carlos Sanchez,Laredo United South,124.28,342.46,188.24,299.37,830.07,Single-ply,SBD,M
Boys,124.74,2,Javier Henderson,Mathis,117.93,344.73,179.17,235.87,759.77,Single-ply,SBD,M
Boys,124.74,3,Hugo Martinez,Zapata,124.74,299.37,149.69,256.28,705.34,Single-ply,SBD,M
Boys,124.74,4,Jaime Rosas,Falfurrias,117.48,260.82,151.95,233.6,646.37,Single-ply,SBD,M
Boys,124.74,5,Joe Huerta,Hebbronville,115.67,254.01,145.15,235.87,635.03,Single-ply,SBD,M
Boys,124.74,6,Jose Marquez,Hebbronville,112.04,240.4,142.88,233.6,616.89,Single-ply,SBD,M
Boys,124.74,7,Anthony Cantu,Mathis,114.31,240.4,161.03,185.97,587.4,Single-ply,SBD,M
Boys,124.74,DQ,Luis Sanchez,Three Rivers,119.84,249.48,147.42,,,Single-ply,SBD,M
Boys,124.74,DQ,Oscar Zepeda,Zapata,118.84,,,,,Single-ply,SBD,M
Boys,124.74,DQ,Erick Chapa,Zapata,118.84,,,,,Single-ply,SBD,M
Boys,124.74,DQ,Jorge Gutierrez,Laredo Cigarroa,114.76,,,,,Single-ply,SBD,M
Boys,124.74,DQ,Jacob Reyna,Laredo Cigarroa,115.67,,,,,Single-ply,SBD,M
Boys,124.74+,1,George Hughes,San Diego,128.82,204.12,133.81,204.12,542.04,Single-ply,SBD,M
Boys,124.74+,2,Adrian Ramirez,Laredo Cigarroa,131.27,174.63,86.18,183.7,444.52,Single-ply,SBD,M
Boys,124.74+,3,Julio Reyna,Hebbronville,132.45,156.49,79.38,183.7,419.57,Single-ply,SBD,M
Boys,124.74+,DQ,Guadalupe Gonzalez,Laredo Martin,134.99,,,,,Single-ply,SBD,M
