Division,WeightClassKg,Place,Name,Team,BodyweightKg,Best3SquatKg,Best3BenchKg,Best3DeadliftKg,TotalKg,Equipment,Event,Sex
Boys,51.71,1,Cain Gala,Hallsville,50.53,129.27,81.65,147.42,358.34,Single-ply,SBD,M
Boys,51.71,2,Pablo Gutierrez,Mount Pleasant,48.99,115.67,72.57,145.15,333.39,Single-ply,SBD,M
Boys,51.71,3,Patrick Dishman,Huntsville,48.17,117.93,72.57,140.61,331.12,Single-ply,SBD,M
Boys,51.71,4,Raul Cantu,Tyler,50.26,124.74,61.23,140.61,326.59,Single-ply,SBD,M
Boys,51.71,5,Junior Chavez,Waxahachie,50.8,111.13,72.57,131.54,315.25,Single-ply,SBD,M
Boys,51.71,6,Oscar Yanez,Sulphur Springs,51.17,117.93,74.84,122.47,315.25,Single-ply,SBD,M
Boys,51.71,7,Alex Rodriguez,Sulphur Springs,50.71,102.06,68.04,131.54,301.64,Single-ply,SBD,M
Boys,51.71,8,Milthon Torres,Nacogdoches,47.9,97.52,63.5,113.4,274.42,Single-ply,SBD,M
Boys,51.71,9,Chris Charles,Ennis,49.08,102.06,63.5,108.86,274.42,Single-ply,SBD,M
Boys,51.71,10,Kace Cotten,Waxahachie,50.08,95.25,52.16,122.47,269.89,Single-ply,SBD,M
Boys,51.71,11,Jason Botkin,Corsicana,47.63,90.72,52.16,95.25,238.14,Single-ply,SBD,M
Boys,51.71,DQ,DeAnthony Lane,Ennis,48.99,,,,,Single-ply,SBD,M
Boys,55.79,1,Simon Schuler,Hallsville,54.79,136.08,86.18,151.95,374.21,Single-ply,SBD,M
Boys,55.79,2,Carter Winegeart,Tyler Lee,55.79,142.88,79.38,149.69,371.95,Single-ply,SBD,M
Boys,55.79,3,Jaidon Garrick,Lindale,54.79,138.35,68.04,145.15,351.53,Single-ply,SBD,M
Boys,55.79,4,Tony De La Cruz,Waxahachie,54.52,136.08,63.5,147.42,347,Single-ply,SBD,M
Boys,55.79,5,Juan Castanon,Mount Pleasant,54.79,133.81,58.97,140.61,333.39,Single-ply,SBD,M
Boys,55.79,6,Holden Bailey,North Forney,55.16,120.2,65.77,142.88,328.85,Single-ply,SBD,M
Boys,55.79,7,Jose Esquivel,Corsicana,55.79,108.86,63.5,122.47,294.84,Single-ply,SBD,M
Boys,59.87,1,Christian Contreras,Greenville,59.24,190.51,108.86,172.37,471.74,Single-ply,SBD,M
Boys,59.87,2,Jaden Schroeder,Huntsville,59.06,172.37,95.25,176.9,444.52,Single-ply,SBD,M
Boys,59.87,3,Nolan Danzinger,North Forney,59.33,174.63,88.45,172.37,435.45,Single-ply,SBD,M
Boys,59.87,4,James Fisher,Texarkana Texas,57.79,158.76,92.99,163.29,415.04,Single-ply,SBD,M
Boys,59.87,5,Daniel Landaverde,Mount Pleasant,58.42,154.22,92.99,165.56,412.77,Single-ply,SBD,M
Boys,59.87,6,Jaden Taylor,Lindale,59.51,163.29,77.11,170.1,410.5,Single-ply,SBD,M
Boys,59.87,7,Jose Reyes,Ennis,59.24,147.42,104.33,154.22,405.97,Single-ply,SBD,M
Boys,59.87,8,Jesus Reyes,Ennis,56.79,145.15,102.06,145.15,392.36,Single-ply,SBD,M
Boys,59.87,9,Cason Goodson,Sulphur Springs,59.24,147.42,92.99,151.95,392.36,Single-ply,SBD,M
Boys,59.87,10,Mike Jones #2,Midlothian,59.42,154.22,86.18,145.15,385.55,Single-ply,SBD,M
Boys,59.87,11,Deandre Brown,Corsicana,59.69,138.35,83.91,149.69,371.95,Single-ply,SBD,M
Boys,67.13,1,Andrew Magedson,Greenville,67.04,242.67,113.4,226.8,582.87,Single-ply,SBD,M
Boys,67.13,2,Jordan Baker,Huntsville,67.13,199.58,136.08,204.12,539.77,Single-ply,SBD,M
Boys,67.13,3,Austin Neely,Jacksonville,63.96,197.31,111.13,170.1,478.54,Single-ply,SBD,M
Boys,67.13,4,Nick Henderson,Waxahachie,64.32,183.7,97.52,197.31,478.54,Single-ply,SBD,M
Boys,67.13,5,TeVarri Graves,Tyler,66.77,181.44,97.52,185.97,464.93,Single-ply,SBD,M
Boys,67.13,6,Gustavo Hilario,Tyler Lee,66.22,172.37,95.25,190.51,458.13,Single-ply,SBD,M
Boys,67.13,7,Ross Martinez,Midlothian,66.32,167.83,86.18,190.51,444.52,Single-ply,SBD,M
Boys,67.13,8,Kortlon Erskine,Red Oak,65.23,176.9,83.91,181.44,442.25,Single-ply,SBD,M
Boys,67.13,9,Edwin Amaya,Huntsville,66.04,161.03,88.45,172.37,421.84,Single-ply,SBD,M
Boys,67.13,10,George Greenway,Sulphur Springs,66.77,170.1,83.91,158.76,412.77,Single-ply,SBD,M
Boys,67.13,11,Jacyrin Coats,Marshall,66.77,145.15,68.04,176.9,390.09,Single-ply,SBD,M
Boys,67.13,12,Haydan Keller,Sulphur Springs,61.69,124.74,74.84,111.13,310.71,Single-ply,SBD,M
Boys,74.84,1,Elvin Martinez,Huntsville,73.12,235.87,142.88,249.48,628.23,Single-ply,SBD,M
Boys,74.84,2,Jeremy Glenn,Greenville,74.3,204.12,115.67,215.46,535.24,Single-ply,SBD,M
Boys,74.84,3,Tyler Wilder,Longview,74.48,208.65,104.33,215.46,528.44,Single-ply,SBD,M
Boys,74.84,4,Cam Morris,Waxahachie,71.67,181.44,113.4,226.8,521.63,Single-ply,SBD,M
Boys,74.84,5,Kendre Rogers,Huntsville,68.58,185.97,129.27,204.12,519.36,Single-ply,SBD,M
Boys,74.84,6,Jeremiah Johnson,Whitehouse,71.94,208.65,111.13,185.97,505.76,Single-ply,SBD,M
Boys,74.84,7,Keidrick Reeves,Texarkana Texas,73.57,185.97,108.86,208.65,503.49,Single-ply,SBD,M
Boys,74.84,8,Carson Bridges,Sulphur Springs,73.12,185.97,106.59,204.12,496.68,Single-ply,SBD,M
Boys,74.84,9,Jephaniah Lister,Longview,72.67,197.31,95.25,197.31,489.88,Single-ply,SBD,M
Boys,74.84,10,Jayton DeLeon,Midlothian,73.94,185.97,99.79,183.7,469.47,Single-ply,SBD,M
Boys,82.1,1,Cor'tavius Pruitt,Sulphur Springs,77.2,249.48,136.08,226.8,612.35,Single-ply,SBD,M
Boys,82.1,2,Alevon Holloman,Huntsville,80.47,238.14,138.35,226.8,603.28,Single-ply,SBD,M
Boys,82.1,3,Isaiah Neal,Sulphur Springs,79.92,222.26,127.01,226.8,576.06,Single-ply,SBD,M
Boys,82.1,4,Calvin Ribera,North Forney,80.38,231.33,106.59,235.87,573.79,Single-ply,SBD,M
Boys,82.1,5,Kelpatrick Manning,Huntsville,75.66,206.38,131.54,219.99,557.92,Single-ply,SBD,M
Boys,82.1,6,Vincent Morales,Sulphur Springs,79.92,199.58,138.35,219.99,557.92,Single-ply,SBD,M
Boys,82.1,7,Cameron Watson,Tyler Lee,77.66,210.92,108.86,222.26,542.04,Single-ply,SBD,M
Boys,82.1,8,Jeffery Sapp,Texarkana Texas,80.56,213.19,113.4,204.12,530.7,Single-ply,SBD,M
Boys,82.1,9,Gavin Steelman,Marshall,79.2,201.85,111.13,192.78,505.76,Single-ply,SBD,M
Boys,82.1,10,Christian Arthur,Lufkin,82.1,158.76,108.86,219.99,487.61,Single-ply,SBD,M
Boys,89.81,1,Chris Arnold,Texarkana Texas,89.54,235.87,142.88,258.55,637.3,Single-ply,SBD,M
Boys,89.81,2,David Bledsoe,Lindale,89.18,238.14,142.88,254.01,635.03,Single-ply,SBD,M
Boys,89.81,3,Parker Musselwhite,Tyler Lee,88.36,240.4,115.67,235.87,591.94,Single-ply,SBD,M
Boys,89.81,4,DaRyan Williams,Nacogdoches,88.99,233.6,127.01,217.72,578.33,Single-ply,SBD,M
Boys,89.81,5,Jc Blakemore,Longview,86.82,217.72,113.4,233.6,564.72,Single-ply,SBD,M
Boys,89.81,6,Matt Rolen,Waxahachie,88.09,204.12,161.03,185.97,551.11,Single-ply,SBD,M
Boys,89.81,7,Anthony Perales,Red Oak,87.91,213.19,120.2,206.38,539.77,Single-ply,SBD,M
Boys,89.81,8,Jaeryn Green,Huntsville,82.46,188.24,117.93,204.12,510.29,Single-ply,SBD,M
Boys,89.81,DQ,D'Amiro Murphy,Lufkin,87.18,222.26,142.88,,,Single-ply,SBD,M
Boys,99.79,1,Caleb High,Waxahachie,96.8,278.96,149.69,260.82,689.46,Single-ply,SBD,M
Boys,99.79,2,Nick Stewart,Waxahachie,98.07,263.08,167.83,254.01,684.92,Single-ply,SBD,M
Boys,99.79,3,Dylan Hipsman,Midlothian,98.07,254.01,149.69,272.16,675.85,Single-ply,SBD,M
Boys,99.79,4,D'Idrec Dugan,Sulphur Springs,99.79,249.48,136.08,272.16,657.71,Single-ply,SBD,M
Boys,99.79,5,Ty McDaniel,Lindale,95.89,272.16,127.01,247.21,646.37,Single-ply,SBD,M
Boys,99.79,6,Wilfredo Valladares,Tyler,99.52,272.16,147.42,226.8,646.37,Single-ply,SBD,M
Boys,99.79,7,Michael Farnsworth,Midlothian,98.07,244.94,161.03,226.8,632.76,Single-ply,SBD,M
Boys,99.79,8,Caleb Johnson,Corsicana,99.61,208.65,136.08,260.82,605.55,Single-ply,SBD,M
Boys,99.79,9,Daiston Keeton,Tyler,95.71,240.4,133.81,226.8,601.01,Single-ply,SBD,M
Boys,99.79,10,James Perales,Tyler Lee,98.16,208.65,136.08,219.99,564.72,Single-ply,SBD,M
Boys,99.79,11,Melvin Martin,Corsicana,97.61,192.78,122.47,231.33,546.58,Single-ply,SBD,M
Boys,99.79,DQ,Stephon Adams-Woodson,Nacogdoches,99.79,,,,,Single-ply,SBD,M
Boys,109.77,1,Anthony Perez,Waxahachie,105.32,249.48,190.51,260.82,700.8,Single-ply,SBD,M
Boys,109.77,2,Andrew Turner,Mount Pleasant,104.6,272.16,167.83,254.01,694,Single-ply,SBD,M
Boys,109.77,3,March Thomas,Lufkin,107.59,258.55,179.17,242.67,680.39,Single-ply,SBD,M
Boys,109.77,4,Jakyree Trigg,Tyler,105.69,249.48,145.15,240.4,635.03,Single-ply,SBD,M
Boys,109.77,5,Josh Moon,Longview,103.51,260.82,136.08,233.6,630.49,Single-ply,SBD,M
Boys,109.77,6,Darius Trimble,Whitehouse,107.68,254.01,136.08,204.12,594.21,Single-ply,SBD,M
Boys,109.77,7,Oscar Osorio,Greenville,104.24,238.14,136.08,213.19,587.4,Single-ply,SBD,M
Boys,109.77,8,Jake Adams,Huntsville,109.5,226.8,138.35,213.19,578.33,Single-ply,SBD,M
Boys,109.77,9,Duane Johnson,Midlothian,104.96,199.58,140.61,226.8,566.99,Single-ply,SBD,M
Boys,109.77,10,Seth White,Corsicana,104.87,238.14,117.93,188.24,544.31,Single-ply,SBD,M
Boys,109.77,11,Santiago Castillo,Lindale,104.87,197.31,108.86,208.65,514.83,Single-ply,SBD,M
Boys,124.74,1,Joseph Issac,Huntsville,123.29,276.69,183.7,258.55,718.94,Single-ply,SBD,M
Boys,124.74,2,Dustin Nicholas,Huntsville,114.21,276.69,158.76,263.08,698.53,Single-ply,SBD,M
Boys,124.74,3,Ian Blanch,Sulphur Springs,113.67,272.16,151.95,244.94,669.05,Single-ply,SBD,M
Boys,124.74,4,Adrian Jenkins,Marshall,115.67,240.4,147.42,242.67,630.49,Single-ply,SBD,M
Boys,124.74,5,D'Marea Sueing,Whitehouse,123.83,265.35,136.08,229.06,630.49,Single-ply,SBD,M
Boys,124.74,6,TreJon Blake,Tyler,116.75,265.35,120.2,238.14,623.69,Single-ply,SBD,M
Boys,124.74,7,Cole Brumley,Huntsville,118.12,244.94,154.22,210.92,610.08,Single-ply,SBD,M
Boys,124.74,8,Matt Edwards,Lindale,122.65,235.87,129.27,226.8,591.94,Single-ply,SBD,M
Boys,124.74,9,Manny Ramirez,Ennis,121.47,222.26,165.56,199.58,587.4,Single-ply,SBD,M
Boys,124.74,10,DeAunte Thomas,Corsicana,116.39,229.06,147.42,206.38,582.87,Single-ply,SBD,M
Boys,124.74,11,Cecil Johnson,Hallsville,110.22,233.6,120.2,215.46,569.26,Single-ply,SBD,M
Boys,124.74,DQ,Sergio Cabrera,Jacksonville,121.83,276.69,,,,Single-ply,SBD,M
Boys,124.74+,1,Dawson Smith,Huntsville,135.44,301.64,208.65,254.01,764.3,Single-ply,SBD,M
Boys,124.74+,2,Devin Collins,Ennis,148.69,297.1,181.44,263.08,741.62,Single-ply,SBD,M
Boys,124.74+,3,Larry Davis,Corsicana,163.11,294.84,192.78,238.14,725.75,Single-ply,SBD,M
Boys,124.74+,4,Derrick Rigsby,Huntsville,144.24,281.23,176.9,247.21,705.34,Single-ply,SBD,M
Boys,124.74+,5,Devin Beamon,North Forney,131,306.17,145.15,235.87,687.19,Single-ply,SBD,M
Boys,124.74+,6,Ahmad Farrier,Longview,166.74,317.51,136.08,233.6,687.19,Single-ply,SBD,M
Boys,124.74+,7,Carl Williams,Lufkin,138.89,249.48,151.95,272.16,673.58,Single-ply,SBD,M
Boys,124.74+,8,Brandon Bobino,Huntsville,142.97,281.23,158.76,233.6,673.58,Single-ply,SBD,M
Boys,124.74+,9,Ernesto Lopez,Greenville,131.81,278.96,147.42,226.8,653.17,Single-ply,SBD,M
Boys,124.74+,10,Logan DeGarso,Greenville,140.16,267.62,147.42,199.58,614.62,Single-ply,SBD,M
Boys,124.74+,11,Deontae Martin,Corsicana,135.17,242.67,140.61,229.06,612.35,Single-ply,SBD,M
Boys,124.74+,DQ,Manuel Saavedra,Greenville,156.58,306.17,156.49,,,Single-ply,SBD,M
