Name,Division,BodyweightKg,WeightClassKg,Squat1Kg,Squat2Kg,Squat3Kg,Best3SquatKg,Bench1Kg,Bench2Kg,Bench3Kg,Best3BenchKg,Deadlift1Kg,Deadlift2Kg,Deadlift3Kg,Best3DeadliftKg,TotalKg,Equipment,Event,Sex,Place
Rebecca Heath,F-C-Open,47,47,80,82.5,85,85,47.5,50,52.5,52.5,100,110,115,115,252.5,Raw,SBD,F,1
Annabell Gillan,F-C-U18,52,52,72.5,77.5,-80,77.5,45,47.5,50,50,100,107.5,110,110,237.5,Raw,SBD,F,1
Kaytee Poolton,F-C-U23,52,52,105,112.5,117.5,117.5,55,57.5,59,59,110,117.5,-122.5,117.5,294,Raw,SBD,F,1
Susie Butler,F-C-U23,52,52,80,85,87.5,87.5,47.5,50,52.5,52.5,100,-107.5,107.5,107.5,247.5,Raw,SBD,F,2
Louise Edwards,F-C-Open,52,52,80,87.5,92.5,92.5,50,55,57.5,57.5,140,147,150,150,300,Raw,SBD,F,1
Anita Kidgell,F-C-Open,52,52,70,75,77.5,77.5,50,52.5,-105,52.5,105,112.5,115,115,245,Raw,SBD,F,2
Elizabeth Hill,F-C-Open,52,52,77.5,-82.5,-82.5,77.5,45,-50,,45,100,-105,-105,100,222.5,Raw,SBD,F,3
Rachel Smith,F-C-Open,52,52,60,-65,-65,60,32.5,-35,-35,32.5,85,90,95,95,187.5,Raw,SBD,F,4
Lucy Rayner,F-C-U18,57,57,80,-85,85,85,57.5,62.5,-67.5,62.5,100,110,115,115,262.5,Raw,SBD,F,1
Ellie Steel,F-C-U23,57,57,105,112.5,117.5,117.5,67.5,72.5,75,75,130,140,150,150,342.5,Raw,SBD,F,1
Molly Chapman,F-C-U23,57,57,75,80,-82.5,80,40,45,47.5,47.5,100,112.5,-115,112.5,240,Raw,SBD,F,2
Louise Murray,F-C-Open,57,57,130,135,140,140,80,83,85,85,140,-145,-145,140,365,Raw,SBD,F,1
Rosimery Lima,F-C-Open,57,57,122.5,-130,-130,122.5,72.5,77.5,-145,77.5,147.5,157.5,160,160,360,Raw,SBD,F,2
Pelin Baykal,F-C-Open,57,57,95,102.5,110,110,57.5,62.5,,62.5,132.5,142.5,-150,142.5,315,Raw,SBD,F,3
Faye Jordan,F-C-Open,57,57,90,-95,-95,90,65,67.5,70,70,125,132.5,-140,132.5,292.5,Raw,SBD,F,4
Tiffany Annan,F-C-Open,57,57,95,100,102.5,102.5,50,-52.5,-52.5,50,115,122.5,-127.5,122.5,275,Raw,SBD,F,5
Shannon Clifford,F-C-U23,63,63,92.5,97.5,102.5,102.5,50,55,57.5,57.5,115,125,130,130,290,Raw,SBD,F,1
Alice Hogg,F-C-U23,63,63,-90,92.5,100,100,50,52.5,57.5,57.5,-120,125,-130,125,282.5,Raw,SBD,F,2
Abi Graham,F-C-Open,63,63,107.5,117.5,122.5,122.5,67.5,72.5,-75,72.5,150,160,170,170,365,Raw,SBD,F,1
Nina Cambatta,F-C-Open,63,63,105,112.5,-118,112.5,57.5,65,-67.5,65,145,150,155,155,332.5,Raw,SBD,F,2
Rebecca Lynn Nicholson,F-C-Open,63,63,110,117.5,122.5,122.5,52.5,57.5,60,60,120,130,137.5,137.5,320,Raw,SBD,F,3
Khrys Kyriacou,F-C-Open,63,63,-122.5,122.5,-128,122.5,70,-75,-75,70,120,-125,125,125,317.5,Raw,SBD,F,4
Beverley Rodgers,F-C-Open,63,63,100,105,-110,105,70,72.5,75,75,125,130,135,135,315,Raw,SBD,F,5
Emma Cresswell,F-C-Open,63,63,90,-100,100,100,52.5,55,-57.5,55,140,150,-155,150,305,Raw,SBD,F,6
Rowan Hendry-Horne,F-C-Open,63,63,110,115,120,120,60,65,-70,65,110,120,-125,120,305,Raw,SBD,F,7
Lucy Cohen,F-C-Open,63,63,100,-110,-110,100,55,60,62.5,62.5,130,140,-145,140,302.5,Raw,SBD,F,8
Moira Pritchard,F-C-Open,63,63,97.5,-102.5,105,105,60,-65,-65,60,120,125,130,130,295,Raw,SBD,F,9
Bethan Keeble,F-C-Open,63,63,90,-100,100,100,52.5,-55,55,55,125,132.5,137.5,137.5,292.5,Raw,SBD,F,10
Leanne Knight,F-C-Open,63,63,90,95,100,100,-50,50,-52.5,50,125,130,135,135,285,Raw,SBD,F,11
Emma Lee-Yarwood,F-C-Open,63,63,85,90,92.5,92.5,52.5,57.5,-60,57.5,115,125,130,130,280,Raw,SBD,F,12
Vicki Cliffe,F-C-Open,63,63,70,82.5,85,85,42.5,47.5,50,50,110,130,137.5,137.5,272.5,Raw,SBD,F,13
Lynda Banks,F-C-Open,63,63,85,90,-95,90,47.5,50,52.5,52.5,120,-125,-125,120,262.5,Raw,SBD,F,14
Phoebe Burton,F-C-Open,63,63,87.5,-92.5,-92.5,87.5,-52.5,52.5,-57.5,52.5,95,102.5,110,110,250,Raw,SBD,F,15
Lyzzi Wills,F-C-Open,63,63,70,80,-85,80,-45,-45,45,45,90,-100,-100,90,215,Raw,SBD,F,16
Megan Davies,F-C-U18,69,72,82.5,90,92.5,92.5,40,45,-47.5,45,112.5,120,127.5,127.5,265,Raw,SBD,F,1
Rachel Atemie,F-C-U23,71.9,72,105,115,117.5,117.5,60,67.5,-70,67.5,165,175,177.5,177.5,362.5,Raw,SBD,F,1
Amy Spencer,F-C-U23,70.4,72,100,105,110,110,55,60,65,65,120,127.5,-132.5,127.5,302.5,Raw,SBD,F,2
Rhiannon Edwards,F-C-U23,68.3,72,95,-105,-108,95,55,60,-62.5,60,115,125,-127.5,125,280,Raw,SBD,F,3
Louise Richardson,F-C-Open,66.9,72,145,-155,-155,145,65,70,-72.5,70,157.5,165,-172.5,165,380,Raw,SBD,F,1
Tanya Bull,F-C-Open,69.3,72,115,-125,127.5,127.5,65,67.5,-70,67.5,160,170,-175,170,365,Raw,SBD,F,2
Louise Whithington,F-C-Open,68.1,72,110,120,127.5,127.5,70,75,77.5,77.5,135,145,155,155,360,Raw,SBD,F,3
Megan Batchelor,F-C-Open,69.6,72,115,120,-122.5,120,-75,75,-77.5,75,140,150,160,160,355,Raw,SBD,F,4
Sophie Alexander,F-C-Open,70.8,72,110,117.5,-122.5,117.5,65,-70,70,70,130,142.5,150,150,337.5,Raw,SBD,F,5
Amanda Gisby,F-C-Open,63.5,72,110,115,120,120,55,60,-62.5,60,135,-145,-145,135,315,Raw,SBD,F,6
Ella Hope,F-C-Open,68,72,110,117.5,-122.5,117.5,55,60,-65,60,125,-132.5,,125,302.5,Raw,SBD,F,7
Lisa Boardman,F-C-Open,71.6,72,95,100,-105,100,50,52.5,55,55,145,,,145,300,Raw,SBD,F,8
Hannah Wragg,F-C-Open,67.9,72,85,92.5,100,100,52.5,55,-60,55,130,,,130,285,Raw,SBD,F,9
Heidi Markeley,F-C-Open,70,72,80,87.5,92.5,92.5,55,60,62.5,62.5,115,127.5,130,130,285,Raw,SBD,F,10
Avril Hughes,F-C-Open,70.3,72,-85,90,92.5,92.5,47.5,-50,-52.5,47.5,127.5,135,140,140,280,Raw,SBD,F,11
Laura Porter,F-C-Open,70.5,72,90,95,100,100,47.5,-50,-50,47.5,110,115,117.5,117.5,265,Raw,SBD,F,12
Frankie Pagram,F-C-Open,69.7,72,75,82.5,90,90,45,47.5,-50,47.5,100,,,100,237.5,Raw,SBD,F,13
Tracey Burn,F-C-Open,65.6,72,60,67.5,-70,67.5,35,37.5,40,40,110,115,120,120,227.5,Raw,SBD,F,14
Charlie Chester,F-C-U18,79.8,84,110,117.5,125,125,47.5,55,-57.5,55,140,150,160,160,340,Raw,SBD,F,1
Abigail McLean,F-C-U18,74,84,102.5,110,115,115,55,60,62.5,62.5,135,145,155,155,332.5,Raw,SBD,F,2
Alicia Blum,F-C-U18,80.6,84,95,-105,105,105,42.5,-47.5,47.5,47.5,120,130,-135,130,282.5,Raw,SBD,F,3
Apple Doepner,F-C-Open,73.3,84,120,130,-135,130,67.5,70,72.5,72.5,160,167.5,-172.5,167.5,370,Raw,SBD,F,1
Vicky McDonald,F-C-Open,82.5,84,130,-140,-140,130,60,-62.5,-62.5,60,140,-145,145,145,335,Raw,SBD,F,2
Helen Toms,F-C-Open,83.4,84,115,122.5,127.5,127.5,60,65,-67.5,65,130,140,-150,140,332.5,Raw,SBD,F,3
Anna Macnab,F-C-Open,112.3,84+,172.5,180,185,185,77.5,82.5,-85,82.5,170,180,185.5,185.5,453,Raw,SBD,F,1
Kelly Phasey,F-C-Open,109.8,84+,145,-155,162.5,162.5,75,80,82.5,82.5,150,160,167.5,167.5,412.5,Raw,SBD,F,2
Emma Thorp,F-C-Open,94,84+,100,110,-120,110,50,55,-60,55,-130,140,150,150,315,Raw,SBD,F,3
