Division,WeightClassKg,Place,Name,Team,BodyweightKg,Best3SquatKg,Best3BenchKg,Best3DeadliftKg,TotalKg,Equipment,Event,Sex
Boys,51.71,1,Michael Guerrero,Georgetown East View,51.71,124.74,81.65,142.88,349.27,Single-ply,SBD,M
Boys,51.71,2,Tristen Aleksines,Hutto,51.17,95.25,54.43,117.93,267.62,Single-ply,SBD,M
Boys,51.71,3,Shawn Patterson,BASTROP Cedar Creek,51.71,92.99,61.23,113.4,267.62,Single-ply,SBD,M
Boys,51.71,4,DJ Walker,Georgetown East View,50.44,83.91,56.7,104.33,244.94,Single-ply,SBD,M
Boys,51.71,5,Hayden Hughes,Georgetown,50.08,90.72,47.63,102.06,240.4,Single-ply,SBD,M
Boys,51.71,6,Joel Berrum,Austin Lake Travis,50.62,99.79,34.02,83.91,217.72,Single-ply,SBD,M
Boys,51.71,DQ,Brown Greg,Waco University,51.71,102.06,47.63,92.99,,Single-ply,SBD,M
Boys,55.79,1,Davion Aldridge,Hutto,55.25,179.17,102.06,217.72,498.95,Single-ply,SBD,M
Boys,55.79,2,Billy Pearson,Pflugerville Connally,55.52,133.81,72.57,172.37,378.75,Single-ply,SBD,M
Boys,55.79,3,Avery Rodriguez,Cameron Yoe,54.79,133.81,74.84,151.95,360.61,Single-ply,SBD,M
Boys,55.79,4,Chris Guerra,Georgetown East View,55.79,108.86,86.18,124.74,319.78,Single-ply,SBD,M
Boys,55.79,5,David Turner,Hutto,53.61,120.2,68.04,120.2,308.44,Single-ply,SBD,M
Boys,55.79,6,Kaden Harris,Georgetown East View,55.79,81.65,61.23,104.33,247.21,Single-ply,SBD,M
Boys,55.79,7,Omar Deloera,Pflugerville,55.43,92.99,45.36,92.99,231.33,Single-ply,SBD,M
Boys,55.79,DQ,Angel Lona,Pflugerville Connally,52.71,95.25,52.16,97.52,,Single-ply,SBD,M
Boys,59.87,1,Austin Carrow,Austin Lake Travis,59.87,156.49,102.06,183.7,442.25,Single-ply,SBD,M
Boys,59.87,2,Dominic Hamilton,Georgetown East View,59.87,142.88,90.72,151.95,385.55,Single-ply,SBD,M
Boys,59.87,3,Michael Marullo,Georgetown East View,58.33,138.35,90.72,131.54,360.61,Single-ply,SBD,M
Boys,59.87,4,Danny Donal,Pflugerville Connally,57.97,127.01,77.11,131.54,335.66,Single-ply,SBD,M
Boys,59.87,5,Nathaniel McMillan,Georgetown,58.79,92.99,63.5,122.47,278.96,Single-ply,SBD,M
Boys,59.87,6,Jack Schneeman,Georgetown,57.24,92.99,63.5,117.93,274.42,Single-ply,SBD,M
Boys,59.87,7,Dylan Morales,BASTROP Cedar Creek,59.78,83.91,68.04,120.2,272.16,Single-ply,SBD,M
Boys,59.87,8,Ryan Wall,Georgetown East View,58.97,92.99,49.9,127.01,269.89,Single-ply,SBD,M
Boys,59.87,DQ,Ray Heiser,Kyle Lehman,59.87,108.86,72.57,138.35,,Single-ply,SBD,M
Boys,67.13,1,Trey Elkins,Austin Lake Travis,66.59,176.9,111.13,179.17,467.2,Single-ply,SBD,M
Boys,67.13,2,Dereon Kizzie,Pflugerville Connally,63.32,156.49,106.59,185.97,449.06,Single-ply,SBD,M
Boys,67.13,3,Julian Mata,Kyle Lehman,65.14,147.42,108.86,174.63,430.91,Single-ply,SBD,M
Boys,67.13,4,Christopher Brenham,Georgetown,65.77,183.7,81.65,165.56,430.91,Single-ply,SBD,M
Boys,67.13,5,Jesse Barron,Hutto,61.05,165.56,83.91,179.17,428.64,Single-ply,SBD,M
Boys,67.13,6,Daniel Mireles,Georgetown East View,63.59,163.29,104.33,151.95,419.57,Single-ply,SBD,M
Boys,67.13,7,Daveon Douglas,Pflugerville,67.04,154.22,106.59,147.42,408.23,Single-ply,SBD,M
Boys,67.13,8,Kade Fly,Hutto,60.51,149.69,68.04,161.03,378.75,Single-ply,SBD,M
Boys,67.13,9,Devon Soto,Seguin,64.68,129.27,92.99,154.22,376.48,Single-ply,SBD,M
Boys,67.13,10,Anthony Espinoza,Georgetown East View,65.77,142.88,70.31,142.88,356.07,Single-ply,SBD,M
Boys,67.13,11,Jeremy Cevallos,Seguin,66.41,120.2,79.38,154.22,353.8,Single-ply,SBD,M
Boys,67.13,12,Larry Estrada,Pflugerville Connally,63.32,113.4,77.11,142.88,333.39,Single-ply,SBD,M
Boys,67.13,13,Clayton Morris,BASTROP Cedar Creek,63.23,115.67,68.04,147.42,331.12,Single-ply,SBD,M
Boys,67.13,14,Chance McGuire,Georgetown,60.87,113.4,65.77,147.42,326.59,Single-ply,SBD,M
Boys,67.13,15,Dylan Stover,Austin Lake Travis,62.87,111.13,61.23,133.81,306.17,Single-ply,SBD,M
Boys,67.13,DQ,Chris Gomes,Austin Lake Travis,67.13,115.67,83.91,124.74,,Single-ply,SBD,M
Boys,67.13,DQ,Alex Aguillon,Cameron Yoe,67.13,138.35,68.04,170.1,,Single-ply,SBD,M
Boys,67.13,DQ,Dylan Kurz,Cameron Yoe,67.13,131.54,68.04,133.81,,Single-ply,SBD,M
Boys,67.13,DQ,Dillon Cahill,Georgetown,67.13,99.79,52.16,83.91,,Single-ply,SBD,M
Boys,67.13,DQ,Joseph Echavarria,Georgetown,60.33,68.04,43.09,83.91,,Single-ply,SBD,M
Boys,67.13,DQ,Angel Lindert,Georgetown East View,66.41,99.79,61.23,111.13,,Single-ply,SBD,M
Boys,67.13,DQ,Jordan Kuglin,Georgetown East View,67.13,147.42,74.84,149.69,,Single-ply,SBD,M
Boys,67.13,DQ,Matthew Reiff,Pflugerville,60.24,111.13,74.84,120.2,,Single-ply,SBD,M
Boys,74.84,1,Tydrick Williams,Cameron Yoe,74.3,183.7,115.67,192.78,492.15,Single-ply,SBD,M
Boys,74.84,2,Jordan Lawrence,Pflugerville Connally,69.58,161.03,111.13,190.51,462.66,Single-ply,SBD,M
Boys,74.84,3,Jakobe Davidson,Hutto,73.66,156.49,86.18,197.31,439.98,Single-ply,SBD,M
Boys,74.84,4,Eduardo Perez,Georgetown,67.59,165.56,90.72,181.44,437.72,Single-ply,SBD,M
Boys,74.84,5,Michael Hernandez,Pflugerville,73.75,156.49,97.52,183.7,437.72,Single-ply,SBD,M
Boys,74.84,6,Drew Ybarra,Pflugerville Connally,73.94,142.88,97.52,197.31,437.72,Single-ply,SBD,M
Boys,74.84,7,Javon Burrell,Georgetown East View,72.67,167.83,83.91,163.29,415.04,Single-ply,SBD,M
Boys,74.84,8,Cameron Forrest,Hutto,69.22,145.15,92.99,167.83,405.97,Single-ply,SBD,M
Boys,74.84,9,Colton Harris,Georgetown East View,70.94,142.88,90.72,149.69,383.29,Single-ply,SBD,M
Boys,74.84,10,John Santos,Cameron Yoe,74.3,138.35,79.38,163.29,381.02,Single-ply,SBD,M
Boys,74.84,11,Donte Miller,Pflugerville Connally,69.13,124.74,81.65,145.15,351.53,Single-ply,SBD,M
Boys,74.84,12,Caleb Forrest,Hutto,67.68,111.13,86.18,149.69,347,Single-ply,SBD,M
Boys,74.84,13,Jeremiah Aviles,Seguin,73.57,124.74,77.11,131.54,333.39,Single-ply,SBD,M
Boys,74.84,14,Michael Nnaji,Pflugerville Connally,73.12,97.52,72.57,136.08,306.17,Single-ply,SBD,M
Boys,74.84,DQ,Ben Rickerson,Georgetown,74.84,124.74,77.11,102.06,,Single-ply,SBD,M
Boys,74.84,DQ,Landon Anderson,Cameron Yoe,74.84,86.18,72.57,131.54,,Single-ply,SBD,M
Boys,82.1,1,Parsons Teondre,Waco University,79.2,190.51,129.27,201.85,521.63,Single-ply,SBD,M
Boys,82.1,2,Matt Schoenbourn,Hutto,82.1,199.58,115.67,206.38,521.63,Single-ply,SBD,M
Boys,82.1,3,Matt May,Georgetown,78.38,174.63,102.06,192.78,469.47,Single-ply,SBD,M
Boys,82.1,4,Juan Salazar,Seguin,81.28,174.63,104.33,165.56,444.52,Single-ply,SBD,M
Boys,82.1,5,Tre Moreno,Kyle Lehman,80.47,158.76,90.72,185.97,435.45,Single-ply,SBD,M
Boys,82.1,6,Travis Atchley,Austin Lake Travis,76.66,136.08,95.25,183.7,415.04,Single-ply,SBD,M
Boys,82.1,7,Erik Anderson #3,Georgetown,76.2,158.76,97.52,142.88,399.16,Single-ply,SBD,M
Boys,82.1,8,Andre Stiles,Pflugerville Connally,81.92,140.61,92.99,161.03,394.63,Single-ply,SBD,M
Boys,82.1,9,Cory Alcala,Pflugerville Connally,79.29,129.27,92.99,129.27,351.53,Single-ply,SBD,M
Boys,82.1,10,Jamie Sanchez,Georgetown East View,80.74,124.74,79.38,140.61,344.73,Single-ply,SBD,M
Boys,82.1,11,Tyler Miller,Seguin,75.75,111.13,83.91,138.35,333.39,Single-ply,SBD,M
Boys,82.1,12,Yaser Mirza,Pflugerville Connally,80.2,90.72,56.7,120.2,267.62,Single-ply,SBD,M
Boys,82.1,DQ,Alfred Garcia,Georgetown,82.1,102.06,74.84,124.74,,Single-ply,SBD,M
Boys,82.1,DQ,Chris Martinez,Georgetown,82.1,113.4,68.04,136.08,,Single-ply,SBD,M
Boys,82.1,DQ,Walker Fain,Georgetown,82.1,133.81,83.91,113.4,,Single-ply,SBD,M
Boys,82.1,DQ,Joey Montoya,Georgetown,82.1,147.42,92.99,183.7,,Single-ply,SBD,M
Boys,82.1,DQ,Nick Corona,Georgetown,82.1,124.74,83.91,124.74,,Single-ply,SBD,M
Boys,82.1,DQ,Kody Markert,Georgetown,82.1,,77.11,124.74,,Single-ply,SBD,M
Boys,89.81,1,Phillip Wilson,Pflugerville Connally,82.92,244.94,156.49,215.46,616.89,Single-ply,SBD,M
Boys,89.81,2,Justin Arismendez,Kyle Lehman,87,213.19,142.88,222.26,578.33,Single-ply,SBD,M
Boys,89.81,3,Austin Naiser,Georgetown East View,84.46,185.97,133.81,197.31,517.1,Single-ply,SBD,M
Boys,89.81,4,RJ Petaia,Pflugerville,89.18,201.85,120.2,188.24,510.29,Single-ply,SBD,M
Boys,89.81,5,Garrett Luensmann,Seguin,89.81,185.97,111.13,192.78,489.88,Single-ply,SBD,M
Boys,89.81,6,De'Angelo Sutton,Seguin,88.9,179.17,97.52,210.92,487.61,Single-ply,SBD,M
Boys,89.81,7,Torrie Davis,Georgetown East View,89.18,165.56,120.2,181.44,467.2,Single-ply,SBD,M
Boys,89.81,8,Nick Tello,Kyle Lehman,83.46,167.83,106.59,170.1,444.52,Single-ply,SBD,M
Boys,89.81,9,Trey Bishop,Pflugerville Connally,88.54,145.15,113.4,176.9,435.45,Single-ply,SBD,M
Boys,89.81,10,Marquez Henry,BASTROP Cedar Creek,89.81,142.88,104.33,170.1,417.3,Single-ply,SBD,M
Boys,89.81,11,Connor Kelly,Bastrop Cedar Creek,82.37,149.69,83.91,181.44,415.04,Single-ply,SBD,M
Boys,89.81,12,Joshua Ewald,Kyle Lehman,88.81,151.95,90.72,172.37,415.04,Single-ply,SBD,M
Boys,89.81,13,James Gracia,BASTROP Cedar Creek,82.19,136.08,95.25,181.44,412.77,Single-ply,SBD,M
Boys,89.81,14,Louis Kelley,Pflugerville,88.36,138.35,113.4,142.88,394.63,Single-ply,SBD,M
Boys,89.81,15,Thinh Pham,Pflugerville,86.73,133.81,102.06,151.95,387.82,Single-ply,SBD,M
Boys,89.81,16,Frank Durante,Georgetown,83.37,147.42,90.72,147.42,385.55,Single-ply,SBD,M
Boys,89.81,17,Blaine Hernandez,Seguin,85.73,151.95,77.11,154.22,383.29,Single-ply,SBD,M
Boys,89.81,18,Marcus Slonaker,Pflugerville Connally,84.46,102.06,86.18,138.35,326.59,Single-ply,SBD,M
Boys,89.81,19,Bryan Ramirez,Kyle Lehman,86.09,102.06,92.99,127.01,322.05,Single-ply,SBD,M
Boys,89.81,DQ,Paden Brown,Georgetown,89.81,136.08,97.52,136.08,,Single-ply,SBD,M
Boys,99.79,1,Paul Sanchez,Hutto,98.97,265.35,138.35,272.16,675.85,Single-ply,SBD,M
Boys,99.79,2,Keeland Moore,Georgetown,96.62,256.28,147.42,222.26,625.96,Single-ply,SBD,M
Boys,99.79,3,Joseph Rodriguez,BASTROP Cedar Creek,97.34,240.4,129.27,240.4,610.08,Single-ply,SBD,M
Boys,99.79,4,Derrick Juptner,Georgetown,97.34,240.4,151.95,204.12,596.47,Single-ply,SBD,M
Boys,99.79,5,Brandon Salazar,Georgetown East View,94.44,190.51,129.27,201.85,521.63,Single-ply,SBD,M
Boys,99.79,6,Jonathan Willett,Georgetown East View,92.62,197.31,124.74,188.24,510.29,Single-ply,SBD,M
Boys,99.79,7,David Mata,Georgetown,95.8,201.85,108.86,192.78,503.49,Single-ply,SBD,M
Boys,99.79,8,Carl Ferguson,Kyle Lehman,96.52,181.44,136.08,179.17,496.68,Single-ply,SBD,M
Boys,99.79,9,Caleb Zuniga,BASTROP Cedar Creek,99.52,170.1,124.74,181.44,476.27,Single-ply,SBD,M
Boys,99.79,10,Denver Coddington,Pflugerville,99.52,174.63,129.27,170.1,474,Single-ply,SBD,M
Boys,99.79,11,Randy Reyes,BASTROP Cedar Creek,95.89,154.22,108.86,172.37,435.45,Single-ply,SBD,M
Boys,99.79,12,Harrison Schuler,Georgetown,97.25,136.08,102.06,174.63,412.77,Single-ply,SBD,M
Boys,99.79,13,Ryan Starrit,Georgetown,94.62,149.69,83.91,170.1,403.7,Single-ply,SBD,M
Boys,99.79,14,Kyle Mann,Austin Lake Travis,94.08,145.15,104.33,147.42,396.89,Single-ply,SBD,M
Boys,99.79,15,Bryan Sevilla,Pflugerville Connally,91.17,122.47,68.04,117.93,308.44,Single-ply,SBD,M
Boys,99.79,DQ,Sebastian Bravo,Waco University,99.79,,104.33,226.8,,Single-ply,SBD,M
Boys,99.79,DQ,Kade Langston,Austin Lake Travis,99.79,,115.67,165.56,,Single-ply,SBD,M
Boys,99.79,DQ,Nick Furr,Georgetown,99.79,,68.04,149.69,,Single-ply,SBD,M
Boys,109.77,1,Abel Longoria,Kyle Lehman,102.06,263.08,142.88,204.12,610.08,Single-ply,SBD,M
Boys,109.77,2,Hunter Creasey,Georgetown,101.33,226.8,117.93,233.6,578.33,Single-ply,SBD,M
Boys,109.77,3,Joshua Tran,Pflugerville Connally,109.5,210.92,122.47,224.53,557.92,Single-ply,SBD,M
Boys,109.77,4,Dameion Cavazos,Georgetown,106.41,222.26,136.08,188.24,546.58,Single-ply,SBD,M
Boys,109.77,5,Rashon Sheppard,Pflugerville Connally,102.42,204.12,122.47,208.65,535.24,Single-ply,SBD,M
Boys,109.77,6,Hunter Bohanan,Georgetown,105.32,190.51,142.88,167.83,501.22,Single-ply,SBD,M
Boys,109.77,7,James Rodriguez,Pflugerville,106.96,192.78,127.01,181.44,501.22,Single-ply,SBD,M
Boys,109.77,8,Jordan Jackson,Pflugerville Connally,100.79,188.24,106.59,199.58,494.42,Single-ply,SBD,M
Boys,109.77,9,Tyler Noles,Georgetown,109.32,165.56,124.74,163.29,453.59,Single-ply,SBD,M
Boys,109.77,10,Aaron Ward,Seguin,103.6,161.03,97.52,170.1,428.64,Single-ply,SBD,M
Boys,124.74,1,Jordan Barrs,Pflugerville,124.47,219.99,163.29,219.99,603.28,Single-ply,SBD,M
Boys,124.74,2,Brian Prickett,Kyle Lehman,121.29,226.8,131.54,226.8,585.13,Single-ply,SBD,M
Boys,124.74,3,Allan Edelmon,Georgetown East View,123.92,226.8,142.88,215.46,585.13,Single-ply,SBD,M
Boys,124.74,4,Tyrek Kerley,Pflugerville Connally,116.39,204.12,106.59,208.65,519.36,Single-ply,SBD,M
Boys,124.74,5,Adrian Lewis,Cameron Yoe,123.92,222.26,113.4,179.17,514.83,Single-ply,SBD,M
Boys,124.74,6,Cole Northcutt,Georgetown,110.68,199.58,102.06,199.58,501.22,Single-ply,SBD,M
Boys,124.74,7,Dortavis Lewis,Cameron Yoe,117.39,204.12,108.86,183.7,496.68,Single-ply,SBD,M
Boys,124.74,8,Drake Broadwater,BASTROP Cedar Creek,112.22,170.1,113.4,204.12,487.61,Single-ply,SBD,M
Boys,124.74,9,Tristan Resendez,Pflugerville Connally,115.03,183.7,108.86,190.51,483.08,Single-ply,SBD,M
Boys,124.74,10,Brian George,BASTROP Cedar Creek,111.77,117.93,83.91,142.88,344.73,Single-ply,SBD,M
Boys,124.74,DQ,Jocoby Coleman,Georgetown,124.74,136.08,102.06,149.69,,Single-ply,SBD,M
Boys,124.74+,1,Marty Rodriguez,Hutto,131.72,258.55,127.01,213.19,598.74,Single-ply,SBD,M
Boys,124.74+,2,Anthony Rishton,Georgetown,143.7,231.33,131.54,213.19,576.06,Single-ply,SBD,M
Boys,124.74+,3,Silas Davis,Pflugerville Connally,198.13,215.46,138.35,192.78,546.58,Single-ply,SBD,M
Boys,124.74+,4,Carlos Morales,Kyle Lehman,141.97,195.04,149.69,183.7,528.44,Single-ply,SBD,M
Boys,124.74+,5,Chase Patterson,Austin Lake Travis,126.1,201.85,106.59,199.58,508.02,Single-ply,SBD,M
Boys,124.74+,6,Brian McDonald,Cameron Yoe,133.36,158.76,86.18,149.69,394.63,Single-ply,SBD,M
