Division,Name,Country,BirthYear,Sex,WeightClassKg,BodyweightKg,Squat1Kg,Squat2Kg,Squat3Kg,Best3SquatKg,Bench1Kg,Bench2Kg,Bench3Kg,Best3BenchKg,Deadlift1Kg,Deadlift2Kg,Deadlift3Kg,Best3DeadliftKg,TotalKg,Place,Event,Equipment
Sub-Juniors,Wei-Jou Chen,Taiwan,1991,F,44,41.25,95,105,-110,105,35,42.5,-45,42.5,-110,110,-122.5,110,257.5,1,SBD,Single-ply
Sub-Juniors,Bandel Snehal T,India,1992,F,44,43.45,-80,80,85,85,30,-37.5,-37.5,30,90,100,-105,100,215,2,SBD,Single-ply
Juniors,Esther Wong,Hong Kong,1988,F,44,43.85,30,40,50,50,25,27.5,-30,27.5,45,55,62.5,62.5,140,1,SBD,Single-ply
Sub-Juniors,Mazumdar Saswati,India,1989,F,48,47.85,-75,75,95,95,-40,40,45,45,100,112.5,-125,112.5,252.5,2,SBD,Single-ply
Sub-Juniors,Kadam Pooja S,India,1989,F,48,47.95,-105,105,-112.5,105,35,40,-42.5,40,110,-120,-120,110,255,1,SBD,Single-ply
Juniors,Setiowati Yuni,Indonesia,1984,F,48,47.45,-140,140,-150,140,-75,75,77.5,77.5,140,150,167.5,167.5,385,1,SBD,Single-ply
Juniors,Chia-Yu Lee,Taiwan,1987,F,48,47.8,130,-137.5,137.5,137.5,-80,-85,-85,,165,170,,170,,DQ,SBD,Single-ply
Juniors,Hui-Chiao Lin,Taiwan,1988,F,48,47.25,120,-130,130,130,55,60,,60,120,132.5,-140,132.5,322.5,2,SBD,Single-ply
Juniors,Kerketa Roshita,India,1984,F,48,45.75,-85,85,-110,85,40,47.5,-50,47.5,130,137.5,140,140,272.5,3,SBD,Single-ply
Open,Wei-Ling Chen,Taiwan,1982,F,48,46.8,-170,170,190,190,70,75,,75,170,182.5,,182.5,447.5,1,SBD,Single-ply
Open,Ch.V.S.N.L. Renuka,India,1979,F,48,47.95,120,130,140,140,55,60,65,65,125,135,142.5,142.5,347.5,2,SBD,Single-ply
Open,Sarita,India,1981,F,48,42.4,110,120,125,125,50,57.5,60,60,110,120,127.5,127.5,312.5,3,SBD,Single-ply
Open,Santos Jessica,Philippines,,F,48,44.4,100,-110,-112.5,100,42.5,-47.5,-47.5,42.5,110,120,-130,120,262.5,4,SBD,Single-ply
Sub-Juniors,Jajula Ramalakshimi,India,1989,F,52,51.1,125,135,145,145,65,72.5,-77.5,72.5,140,145,150,150,367.5,1,SBD,Single-ply
Sub-Juniors,Sukhwal Mala,India,1989,F,52,48.15,90,100,-107.5,100,40,45,-47.5,45,110,120,-130,120,265,2,SBD,Single-ply
Juniors,Anna Vasina,Uzbekistan,1985,F,52,48.9,115,122.5,-130,122.5,45,-52.5,52.5,52.5,115,125,127.5,127.5,302.5,3,SBD,Single-ply
Juniors,Hartati Openi,Indonesia,1984,F,52,51.25,170,180,,180,80,100,-109,100,150,160,-165,160,440,1,SBD,Single-ply
Juniors,Yi Ting Lin,Taiwan,1986,F,52,49.8,125,-140,-140,125,57.5,62.5,,62.5,130,142.5,-152.5,142.5,330,2,SBD,Single-ply
Juniors,Karpe Sneha,India,1987,F,52,51.6,-110,-110,-110,,45,50,-52.5,50,117.5,-127.5,,117.5,,DQ,SBD,Single-ply
Open,Yi-Ju Chou,Taiwan,1980,F,52,50.7,155,-170,-170,155,70,80,,80,180,190,-198.5,190,425,1,SBD,Single-ply
Open,Thomas Ruby,India,1981,F,52,50.9,125,135,150,150,45,55,-60,55,150,160,167.5,167.5,372.5,2,SBD,Single-ply
Open,Medina Merlina,Philippines,1968,F,52,51.1,135,142.5,-147.5,142.5,80,85,-90,85,110,112.5,-132.5,112.5,340,3,SBD,Single-ply
Open,Keiko Nakai,Japan,1976,F,52,51.9,125,-132.5,-132.5,125,-80,80,-85,80,135,-142.5,-142.5,135,340,4,SBD,Single-ply
Masters 1,Shoko Tanaka,Japan,1964,F,52,51.9,100,110,-120,110,60,70,-72.5,70,105,115,-125,115,295,1,SBD,Single-ply
Masters 2,Oca Leonora,Philippines,1956,F,52,49.35,100,-113.5,113.5,113.5,60,-66,-66,60,110,-131,-131,110,283.5,1,SBD,Single-ply
Sub-Juniors,Chia Shan Hsu,Taiwan,1989,F,56,55.25,140,151,,151,70,80,-86,80,-135,135,-151,135,366,1,SBD,Single-ply
Sub-Juniors,Risely Ashitha,India,1989,F,56,53.55,110,-120,-120,110,40,45,50,50,120,132.5,140,140,300,2,SBD,Single-ply
Juniors,Tatyana Zhukova,Kazakhstan,1987,F,56,55.75,125,132.5,137.5,137.5,80,87.5,-90,87.5,125,130,137.5,137.5,362.5,2,SBD,Single-ply
Juniors,Ching Ju Wang,Taiwan,1987,F,56,54.4,120,130,140,140,60,70,-80,70,152.5,160,162.5,162.5,372.5,1,SBD,Single-ply
Juniors,Roma,India,1985,F,56,54.9,100,-112.5,-120,100,40,-45,45,45,120,-130,-130,120,265,3,SBD,Single-ply
Juniors,Eusebio Charlene,Philippines,1986,F,56,54.95,85,-102.5,-102.5,85,35,-42.5,-45,35,82.5,100,-122.5,100,220,4,SBD,Single-ply
Open,Das Chandana,India,1988,F,56,53.15,95,100,-105,100,52.5,-57.5,-57.5,52.5,120,132.5,-135,132.5,285,4,SBD,Single-ply
Open,Xeniya Urupova,Kazakhstan,1987,F,56,54.95,130,137.5,142.5,142.5,85,90,-95,90,155,162.5,-167.5,162.5,395,2,SBD,Single-ply
Open,Yi-Ting Wang,Taiwan,1986,F,56,53.15,130,-137.5,-137.5,130,70,77.5,-85,77.5,-150,150,-155,150,357.5,3,SBD,Single-ply
Open,Ayako Ikeya,Japan,1969,F,56,56,170,182.5,190,190,107.5,112.5,115,115,165,175,-185,175,480,1,SBD,Single-ply
Masters 1,Lorenzo Elvira,Philippines,1965,F,56,52.35,105,112.5,-115,112.5,52.5,57.5,-60,57.5,120,132.5,135,135,305,1,SBD,Single-ply
Masters 1,Wing-Yuk Ip,Hong Kong,1961,F,56,55.95,102.5,107.5,-112.5,107.5,60,62.5,65,65,117.5,125,132.5,132.5,305,2,SBD,Single-ply
Masters 3,A-Yun Lin,Taiwan,1945,F,56,54.95,120,135,145,145,60,70,,70,140,155,-170,155,370,1,SBD,Single-ply
Sub-Juniors,Fang Chi You,Taiwan,1992,F,60,59.2,100,120,130,130,45,50,-55,50,110,140,-150,140,320,1,SBD,Single-ply
Juniors,Sari Noviana,Indonesia,1984,F,60,59.75,160,180,201,201,85,100,-113.5,100,185,200,211.5,211.5,512.5,1,SBD,Single-ply
Juniors,Hsiao Chan Yeh,Taiwan,1987,F,60,59.95,100,110,-120,110,60,67.5,70,70,110,117.5,120,120,300,3,SBD,Single-ply
Juniors,Ashok Kadam Vishaya,India,1986,F,60,58.45,100,112.5,122.5,122.5,45,-50,50,50,110,125,127.5,127.5,300,2,SBD,Single-ply
Juniors,Cardenas Monica,Philippines,1988,F,60,57.55,105,112.5,-122.5,112.5,-60,-60,-60,,117.5,120,,120,,DQ,SBD,Single-ply
Open,Eleonora Makhpirova,Kazakhstan,1986,F,60,59.25,200,213.5,-217.5,213.5,-100,105,110,110,175,185,195,195,518.5,1,SBD,Single-ply
Open,Chien-Yu Chou,Taiwan,1982,F,60,58.9,170,180,187.5,187.5,90,97.5,102.5,102.5,190,200,207.5,207.5,497.5,2,SBD,Single-ply
Open,Wai-Ching So,Hong Kong,1982,F,60,58.25,60,70,80,80,40,45,-47.5,45,75,90,92.5,92.5,217.5,3,SBD,Single-ply
Masters 1,Chiharu Sakai,Japan,1963,F,60,57.5,-125,-125,-125,,-85,-85,-85,,,,,,,DQ,SBD,Single-ply
Sub-Juniors,Chun Kuo,Taiwan,1989,F,67.5,63.85,150,160,-175,160,85,-95,-95,85,140,160,-176,160,405,1,SBD,Single-ply
Juniors,Wei-Jung Tseng,Taiwan,1985,F,67.5,66.1,160,175,185,185,70,80,85,85,160,170,-177.5,170,440,1,SBD,Single-ply
Juniors,D. K. Keerthi,India,1984,F,67.5,61.7,112.5,122.5,132.5,132.5,57.5,-65,65,65,122.5,135,-145,135,332.5,3,SBD,Single-ply
Juniors,Mina Takaba,Japan,1984,F,67.5,63.55,115,130,135,135,-60,62.5,67.5,67.5,115,130,137.5,137.5,340,2,SBD,Single-ply
Open,Rosario Ortiz Audrey,Philippines,1969,F,67.5,62.7,135,142.5,-147.5,142.5,92.5,-100,-100,92.5,140,147.5,152.5,152.5,387.5,3,SBD,Single-ply
Open,Cruz Michelle,Philippines,1972,F,67.5,63.25,-135,142.5,147.5,147.5,80,-85,-85,80,142.5,150,155,155,382.5,4,SBD,Single-ply
Open,Hsiao-Li Hsu,Taiwan,1981,F,67.5,65.35,160,180,-190,180,-90,100,105,105,200,210,-218.5,210,495,1,SBD,Single-ply
Open,Mohanty Ranu,India,1982,F,67.5,67.5,170,180,187.5,187.5,75,82.5,87.5,87.5,180,195,-200,195,470,2,SBD,Single-ply
Open,Khurana Shelly,India,1986,F,67.5,67.15,120,140,-147.5,140,50,60,-65,60,110,130,-140,130,330,5,SBD,Single-ply
Masters 2,Zarifa Kozlan,Uzbekistan,1952,F,67.5,64.7,100,115,125,125,60,70,75,75,115,127.5,135,135,335,1,SBD,Single-ply
Masters 2,Shasikant Leela,India,1958,F,67.5,67.5,-70,-70,-70,,35,40,45,45,-90,-90,,,,DQ,SBD,Single-ply
Sub-Juniors,Hsiang Ting Lai,Taiwan,1990,F,75,68.35,140,160,175,175,50,,,50,120,,,120,345,1,SBD,Single-ply
Sub-Juniors,Wen Ting Wu,Taiwan,1991,F,75,68.25,130,150,-160,150,50,,,50,130,,,130,330,2,SBD,Single-ply
Juniors,Hsiu-Jung Lo,Taiwan,1984,F,75,69.3,-190,190,-202.5,190,-95,-95,95,95,170,180,-190,180,465,1,SBD,Single-ply
Juniors,Lonkar Anuya,India,1984,F,75,73.85,157.5,167.5,-177.5,167.5,87.5,97.5,100,100,120,-130,135,135,402.5,2,SBD,Single-ply
Juniors,Arora Naju,India,1987,F,75,73.75,135,-147.5,-147.5,135,55,-60,-60,55,140,142.5,147.5,147.5,337.5,3,SBD,Single-ply
Open,Chien Lun Tseng,Taiwan,1983,F,75,67.9,200,-210,215,215,90,100,107.5,107.5,175,185,-192.5,185,507.5,2,SBD,Single-ply
Open,Valida Iskandarova,Kazakhstan,1974,F,75,67.75,190,200,205,205,107.5,112.5,-115,112.5,187.5,195,200,200,517.5,1,SBD,Single-ply
Open,Das Rupali,India,1980,F,75,71.6,145,-152.5,152.5,152.5,47.5,55,60,60,135,137.5,142.5,142.5,355,3,SBD,Single-ply
Masters 2,Roy Chaudauri Ratanmani,India,1955,F,75,70.3,100,116,125,125,50,58.5,62.5,62.5,100,132.5,-135,132.5,320,1,SBD,Single-ply
Sub-Juniors,Hsin Ju Chiu,Taiwan,1990,F,82.5,75.2,130,135,-145,135,70,77.5,85,85,130,140,-160,140,360,2,SBD,Single-ply
Sub-Juniors,You-Chia Chen,Taiwan,1990,F,82.5,79.4,135,145,152.5,152.5,60,67.5,-70,67.5,140,145,-160,145,365,1,SBD,Single-ply
Juniors,Amma T. Narayan,India,1984,F,82.5,81.35,160,170,-175,170,60,65,67.5,67.5,160,175,-180,175,412.5,1,SBD,Single-ply
Juniors,Pei Hsuan Chung,Taiwan,1988,F,82.5,75.2,140,-155,155,155,-60,60,-70,60,140,160,-170,160,375,2,SBD,Single-ply
Juniors,Ong Kathleen,Philippines,1984,F,82.5,77.6,-145,145,-157.5,145,62.5,65,72.5,72.5,130,-142.5,-142.5,130,347.5,3,SBD,Single-ply
Open,Pecante Erlina,Philippines,1964,F,82.5,82,200,216,-227.5,216,100,117.5,122.5,122.5,170,200,-216.5,200,538.5,1,SBD,Single-ply
Open,Min-Chu Hung,Taiwan,1983,F,82.5,81.6,110,,,110,-130,-158.5,-158.5,,110,125,,125,,DQ,SBD,Single-ply
Sub-Juniors,Po Ya You,Taiwan,1990,F,90,89.25,110,120,-135,120,40,-52.5,52.5,52.5,110,125,132.5,132.5,305,1,SBD,Single-ply
Juniors,Kaur Sandeep,India,1987,F,90,82.55,150,-165,-165,150,60,65,-67.5,65,140,145,-155,145,360,2,SBD,Single-ply
Juniors,Shih Ting Wang,Taiwan,1988,F,90,89.9,160,170,180,180,60,70,80,80,160,170,175,175,435,1,SBD,Single-ply
Juniors,Sharada G,India,1984,F,90,88.1,160,-170,-170,160,35,40,45,45,130,140,-150,140,345,3,SBD,Single-ply
Open,Ya-Wen Chang,Taiwan,1984,F,90,82.6,210,231,-240,231,-100,-100,100,100,200,209,-220,209,540,1,SBD,Single-ply
Open,Kulkarni Deepali,India,1979,F,90,83.2,150,-160,-165,150,60,67.5,-70,67.5,140,150,155,155,372.5,2,SBD,Single-ply
Masters 1,Maharao Raksha R,India,1959,F,90,89.05,100,-125,-125,100,60,67.5,70,70,105,120,-125,120,290,1,SBD,Single-ply
Sub-Juniors,Jie-Wen Chen,Taiwan,1990,F,90+,116,190,200,210,210,110,120,-125,120,170,190,-195,190,520,1,SBD,Single-ply
Juniors,Yuliya Stesenko,Uzbekistan,1984,F,90+,90.85,170,180,-190,180,100,110,-115,110,160,180,-200,180,470,1,SBD,Single-ply
Juniors,Wan Ting Huang,Taiwan,1988,F,90+,102.65,110,120,-130,120,40,52.5,57.5,57.5,125,135,150,150,327.5,2,SBD,Single-ply
Open,Guha Sampa,India,1967,F,90+,92.8,160,185,-197.5,185,97.5,105,107.5,107.5,130,150,160,160,452.5,1,SBD,Single-ply
Open,Midori Kato,Japan,1971,F,90+,90.7,155,172.5,180,180,77.5,87.5,-92.5,87.5,155,170,177.5,177.5,445,2,SBD,Single-ply
Open,Chun I Fu,Taiwan,1991,F,90+,108.25,135,147.5,155,155,70,80,-90,80,140,147.5,162.5,162.5,397.5,3,SBD,Single-ply
Masters 1,Batra Parveen,India,1966,F,90+,94.65,120,135,-152.5,135,70,75,82.5,82.5,-110,110,-135,110,327.5,2,SBD,Single-ply
Masters 1,Wa Li E La Yun Se,Taiwan,1959,F,90+,93.4,110,130,150,150,60,70,80,80,110,130,150,150,380,1,SBD,Single-ply
Sub-Juniors,Chun-Lin Wang,Taiwan,1990,M,52,51.45,170,-185,185,185,-85,-85,85,85,165,175,180,180,450,1,SBD,Single-ply
Juniors,Wei Hsuan Hu,Taiwan,1988,M,52,51.8,100,110,-125,110,-60,60,-75,60,-110,120,132.5,132.5,302.5,1,SBD,Single-ply
Sub-Juniors,Chao-Sheng Yang,Taiwan,1991,M,56,55.25,160,-170,-170,160,70,75,82.5,82.5,175,-185,-185,175,417.5,1,SBD,Single-ply
Juniors,Joshi Ajinkya,India,1988,M,56,55.55,-170,-170,-170,,90,95,-100,95,120,130,,130,,DQ,SBD,Single-ply
Juniors,Mahfoodh Al Kulaibi Suhail,Oman,1984,M,56,53.75,152.5,162.5,-172.5,162.5,70,-80,-80,70,140,160,,160,392.5,2,SBD,Single-ply
Juniors,Narayan Koli Nitin,India,1986,M,56,55.55,-160,-160,160,160,100,-107.5,-107.5,100,170,180,190,190,450,1,SBD,Single-ply
Masters 1,Taguibao Antonio,Philippines,1958,M,56,54.55,-175,175,-185,175,-82.5,82.5,-90,82.5,170,180,-182.5,180,437.5,1,SBD,Single-ply
Masters 1,Billore Sanjay,India,1967,M,56,54.2,-120,-120,120,120,80,-87.5,87.5,87.5,-150,150,160,160,367.5,2,SBD,Single-ply
Masters 2,Martand Bhoir Deodatta,India,1953,M,56,55.9,135,-140,-140,135,75,80,82.5,82.5,155,162.5,167.5,167.5,385,1,SBD,Single-ply
Masters 2,Chandra Bidika Purna,India,1957,M,56,55.7,140,147.5,150,150,50,60,-65,60,140,150,160,160,370,2,SBD,Single-ply
Masters 2,Chien Lin Tsai,Taiwan,1950,M,56,52.15,90,110,130,130,35,-40,-50,35,100,-125,135,135,300,3,SBD,Single-ply
Masters 2,Chiu-Kuei Kuo,Taiwan,1955,M,56,55.35,-90,-100,-100,,90,-105,-105,90,105,-115,,105,,DQ,SBD,Single-ply
Masters 3,Him Wong Kung,Hong Kong,1947,M,56,50.6,100,105,107.5,107.5,70,75,77.5,77.5,105,120,125,125,310,1,SBD,Single-ply
Masters 4,Te Wang Yang,Taiwan,1936,M,56,52.75,-100,-100,-100,,-35,-35,-35,,-100,-100,,,,DQ,SBD,Single-ply
Open,Hiroyuki Isagawa,Japan,1953,M,56,55.9,205,-212.5,-215,205,170,180,-191,180,-220,225,-240,225,610,1,SBD,Single-ply
Open,Chun-Hsiung Hu,Taiwan,1974,M,56,55.65,200,210,,210,90,95,,95,210,220,232.5,232.5,537.5,2,SBD,Single-ply
Open,Turar Tenelon,Kazakhstan,1984,M,56,55.45,185,192.5,-197.5,192.5,125,135,140,140,185,195,202.5,202.5,535,3,SBD,Single-ply
Open,Rajesh Sukrawane,India,1983,M,56,50.5,180,187.5,192.5,192.5,-105,105,-110,105,180,192.5,197.5,197.5,495,5,SBD,Single-ply
Open,Ilhomiddin Buriyev,Uzbekistan,1982,M,56,53.8,180,-192.5,192.5,192.5,95,102.5,110,110,180,192.5,195,195,497.5,4,SBD,Single-ply
Open,Tan Paul,Philippines,1983,M,56,55.05,-180,-180,-180,,-127.5,127.5,-135,127.5,197.5,202.5,,202.5,,DQ,SBD,Single-ply
Open,Sharma Dilip,India,1979,M,56,56,-135,-135,-135,,-95,95,-100,95,-190,-190,,,,DQ,SBD,Single-ply
Open,Torinidad Rolenz,Philippines,1973,M,56,52.25,110,120,-130,120,95,-102.5,-105,95,125,-140,,125,340,6,SBD,Single-ply
Sub-Juniors,Shin Wri Huang,Taiwan,1989,M,60,59.2,160,-170,-180,160,80,82.5,-90,82.5,190,200,207.5,207.5,450,1,SBD,Single-ply
Sub-Juniors,Zafar Ahmedov,Uzbekistan,1990,M,60,59.1,165,177.5,185,185,85,-92.5,-92.5,85,162.5,175,-185,175,445,2,SBD,Single-ply
Sub-Juniors,Yung Wei Hu,Taiwan,1989,M,60,58.65,170,180,-185,180,60,70,-75,70,182.5,192.5,-197.5,192.5,442.5,3,SBD,Single-ply
Sub-Juniors,Darwish Awlad Thani Jalal,Oman,1989,M,60,59.6,150,172.5,-182.5,172.5,70,77.5,82.5,82.5,162.5,-170,,162.5,417.5,4,SBD,Single-ply
Juniors,Dmitriy Kozba,Kazakhstan,1986,M,60,59.75,200,210,215,215,130,137.5,145,145,200,-215,-215,200,560,1,SBD,Single-ply
Juniors,Chih Wen Wun,Taiwan,1986,M,60,59.1,165,175,-187.5,175,90,102.5,-110,102.5,185,200,-202.5,200,477.5,3,SBD,Single-ply
Juniors,Kentaro Nagase,Japan,1986,M,60,59.75,175,185,192.5,192.5,112.5,117.5,122.5,122.5,200,207.5,-215,207.5,522.5,2,SBD,Single-ply
Open,Tsung-Ting Hsieh,Taiwan,1982,M,60,59.35,250,-270,-270,250,-180,180,190,190,260,275,-302.5,275,715,2,SBD,Single-ply
Open,Darimin Bin Sutrisno,Indonesia,1975,M,60,59.85,270,282.5,286,286,170,180,190,190,240,260,267.5,267.5,743.5,1,SBD,Single-ply
Open,Kuat Sarbalaev,Kazakhstan,1983,M,60,59.55,202.5,215,220,220,142.5,147.5,-150,147.5,210,222.5,227.5,227.5,595,3,SBD,Single-ply
Open,Chih-Chiang Hsu,Taiwan,1979,M,60,58.6,200,215,220,220,-130,130,-135,130,200,222.5,-227.5,222.5,572.5,4,SBD,Single-ply
Open,Masaki Ikemura,Japan,1974,M,60,59.85,170,180,190,190,-140,140,-145,140,180,-192.5,-192.5,180,510,5,SBD,Single-ply
Open,Kondra Manish,India,1973,M,60,57.95,160,175,-190,175,100,-107.5,-107.5,100,170,185,-195,185,460,6,SBD,Single-ply
Masters 1,Nahar Devendra,India,1966,M,60,59.9,135,145,155,155,-85,90,95,95,140,155,170,170,420,1,SBD,Single-ply
Masters 4,Sung Ming Liu,Taiwan,1934,M,60,56.25,-70,70,80,80,45,-50,50,50,100,120,125,125,255,1,SBD,Single-ply
Sub-Juniors,Ming Feng Chan,Taiwan,1989,M,67.5,66.4,160,175,185,185,80,95,-105,95,190,210,-220,210,490,1,SBD,Single-ply
Juniors,Patil Rajendra,India,1985,M,67.5,66.95,245,255,262.5,262.5,145,152.5,-155,152.5,265,277.5,-285,277.5,692.5,1,SBD,Single-ply
Juniors,Chih-Lun Su,Taiwan,1984,M,67.5,65.35,245,-255,-255,245,150,160,-167.5,160,245,260,-287.5,260,665,2,SBD,Single-ply
Juniors,Alexandr Vaskov,Kazakhstan,1986,M,67.5,66.05,200,220,230,230,-162.5,-162.5,162.5,162.5,180,200,-217.5,200,592.5,3,SBD,Single-ply
Juniors,Chin-Kuo Tsai,Taiwan,1987,M,67.5,65.55,220,-227.5,-227.5,220,120,-125,125,125,215,-227.5,-247.5,215,560,4,SBD,Single-ply
Juniors,Sahastrabudhe Sagar,India,1985,M,67.5,67.45,175,185,-195,185,85,92.5,97.5,97.5,210,220,230,230,512.5,5,SBD,Single-ply
Juniors,Said Al Hasni Yousuf,Oman,1984,M,67.5,66.85,180,190,195,195,110,-120,-120,110,-190,-190,,,,DQ,SBD,Single-ply
Open,Ming-Hui Lin,Taiwan,1983,M,67.5,67.05,260,270,-280,270,-175,180,-205,180,220,240,250,250,700,1,SBD,Single-ply
Open,Andrey Prokopenko,Kazakhstan,1988,M,67.5,67.15,255,270,-275,270,-135,135,145,145,247.5,257.5,-265,257.5,672.5,4,SBD,Single-ply
Open,Krishna Masilamani,India,1978,M,67.5,67.45,255,-265,-265,255,140,145,150,150,240,252.5,270,270,675,3,SBD,Single-ply
Open,Yi-Hsin Kuan,Taiwan,1982,M,67.5,67.1,240,-250,-250,240,135,145,150,150,255,275,285,285,675,2,SBD,Single-ply
Open,Yoshihiro Anan,Japan,1975,M,67.5,67.1,-195,-230,-230,,150,-157.5,-157.5,150,225,-230,,225,,DQ,SBD,Single-ply
Open,Carlos Monroy Jose,Philippines,1974,M,67.5,60.8,180,-200,-200,180,-140,-140,-140,,195,-200,,195,,DQ,SBD,Single-ply
Masters 1,Hiroyuki Terakado,Japan,1960,M,67.5,67.05,185,-200,-205,185,105,135,-140,135,190,210,-220,210,530,1,SBD,Single-ply
Masters 1,Ahnad Bahrani,Iran,1962,M,67.5,67.2,140,160,-170,160,100,-112.5,112.5,112.5,150,170,-187.5,170,442.5,3,SBD,Single-ply
Masters 1,Vishwakarma Ashok,India,1963,M,67.5,67.3,150,160,-170,160,100,110,117.5,117.5,160,182.5,192.5,192.5,470,2,SBD,Single-ply
Masters 2,Min Shan Cheng,Taiwan,1954,M,67.5,65.25,-170,170,-190,170,90,-95,95,95,150,160,172.5,172.5,437.5,1,SBD,Single-ply
Masters 3,Toru Magome,Japan,1943,M,67.5,67.3,140,150,-155,150,157.5,165,-170,165,145,155,-160,155,470,1,SBD,Single-ply
Masters 3,Mahtre Anil,India,1945,M,67.5,65.85,105,-115,-115,105,75,82.5,-90,82.5,135,145,-155,145,332.5,2,SBD,Single-ply
Sub-Juniors,Nien Peng Chiang,Taiwan,1989,M,75,74.55,200,230,245,245,100,110,125,125,200,230,245,245,615,1,SBD,Single-ply
Juniors,Cheng Wei Ting,Taiwan,1988,M,75,74.55,-240,-240,240,240,140,150,-155,150,230,240,250,250,640,1,SBD,Single-ply
Juniors,Anant More Sagar,India,1987,M,75,75,225,240,-245,240,140,145,147.5,147.5,215,-222.5,-222.5,215,602.5,2,SBD,Single-ply
Juniors,Hideaki Yoshioka,Japan,1986,M,75,74.7,210,220,230,230,145,152.5,157.5,157.5,190,-210,-215,190,577.5,3,SBD,Single-ply
Juniors,Hsin Chi Chen,Taiwan,1988,M,75,68.1,200,210,-230,210,110,120,-127.5,120,200,220,-240,220,550,4,SBD,Single-ply
Juniors,Nasser Al Tamimi Saleh,Oman,1985,M,75,69.9,185,-202.5,202.5,202.5,-100,-100,100,100,-200,-210,-210,,,DQ,SBD,Single-ply
Open,Lung-Hsin Huang,Taiwan,1981,M,75,75,-250,250,-260,250,200,-220,220,220,200,250,-270,250,720,2,SBD,Single-ply
Open,Konstantin Fairushin,Kazakhstan,1985,M,75,74.75,260,267.5,272.5,272.5,165,-172.5,172.5,172.5,280,292.5,-297.5,292.5,737.5,1,SBD,Single-ply
Open,Khosinoud Kelishomi Amin,Iran,1980,M,75,74.6,255,265,275,275,160,165,172.5,172.5,240,260,-265,260,707.5,4,SBD,Single-ply
Open,Ramesh,India,1973,M,75,75,-240,-240,-240,,162,167.5,-175,167.5,-257.5,-257.5,,,,DQ,SBD,Single-ply
Open,Toshiki Yogo,Japan,1973,M,75,68.75,250,262.5,-267.5,262.5,150,-160,-160,150,265,275,295,295,707.5,3,SBD,Single-ply
Open,Munehiro Shiota,Japan,1977,M,75,74.45,195,-215,-215,195,-125,125,-142.5,125,210,225,-235,225,545,5,SBD,Single-ply
Masters 1,Koichi Taniguchi,Japan,1960,M,75,74.5,200,-217.5,-217.5,200,-142.5,-142.5,-142.5,,235,-240,,235,,DQ,SBD,Single-ply
Masters 1,Po Wang Gaple Ka,Hong Kong,1959,M,75,73.1,90,105,112.5,112.5,85,100,110,110,105,120,132.5,132.5,355,2,SBD,Single-ply
Masters 1,Vahiddin Najmidinov,Uzbekistan,1963,M,75,74.7,140,160,175,175,92.5,-102.5,102.5,102.5,145,155,165,165,442.5,1,SBD,Single-ply
Masters 2,Singh Mahavir,India,1953,M,75,69.1,-130,130,-142.5,130,70,-80,80,80,130,142.5,150,150,360,2,SBD,Single-ply
Masters 2,Tien Chen Li,Taiwan,1949,M,75,70,-140,140,-150,140,-97.5,97.5,-105,97.5,135,-142.5,147.5,147.5,385,1,SBD,Single-ply
Masters 2,His-Ching Chou,Taiwan,1950,M,75,72,90,-115,-115,90,55,-60,60,60,100,120,140,140,290,3,SBD,Single-ply
Sub-Juniors,Denis Kozba,Kazakhstan,1990,M,82.5,75.95,200,220,230,230,130,137.5,142.5,142.5,220,230,240,240,612.5,1,SBD,Single-ply
Sub-Juniors,Yu Hua Chang,Taiwan,1989,M,82.5,76.35,200,240,-255,240,100,110,-120,110,200,220,-230,220,570,2,SBD,Single-ply
Sub-Juniors,Matias Andrei,Philippines,1989,M,82.5,80.8,150,185,195,195,-90,-95,95,95,145,170,180,180,470,3,SBD,Single-ply
Juniors,Alexandr Romanenko,Uzbekistan,1984,M,82.5,82.2,250,265,277.5,277.5,160,170,172.5,172.5,260,270,-275,270,720,1,SBD,Single-ply
Juniors,Tien Chun Chuang,Taiwan,1988,M,82.5,82.05,260,-275,-277.5,260,160,170,177.5,177.5,240,250,270,270,707.5,2,SBD,Single-ply
Juniors,Salehigondou Ghdoei Amir,Iran,1985,M,82.5,81.7,-190,190,205,205,160,170,172.5,172.5,190,-200,-210,190,567.5,5,SBD,Single-ply
Juniors,Chorge Kirah,India,1986,M,82.5,80.8,-260,-260,-260,,-140,140,-150,140,230,237.5,,237.5,,DQ,SBD,Single-ply
Juniors,Kazuhiro Ishikawa,Japan,1985,M,82.5,78.45,220,-230,230,230,125,-135,-135,125,210,225,232.5,232.5,587.5,4,SBD,Single-ply
Juniors,Jawalkar Swapnil,India,1988,M,82.5,80.7,-200,-200,200,200,-110,110,-130,110,220,235,-250,235,545,7,SBD,Single-ply
Juniors,Salim Awlad Thani Ibrahim,Oman,1988,M,82.5,80.3,200,220,230,230,110,125,-135,125,175,200,-210,200,555,6,SBD,Single-ply
Juniors,Chen-Hsien Lee,Taiwan,1984,M,82.5,77.25,230,-240,240,240,120,130,-135,130,265,275,280,280,650,3,SBD,Single-ply
Open,Davranbek Turakhanov,Kazakhstan,1974,M,82.5,81.65,305,320,326,326,-190,190,-200,190,295,310,-327.5,310,826,1,SBD,Single-ply
Open,Soltani Farshid,Iran,1969,M,82.5,82.3,270,280,290,290,180,190,197.5,197.5,250,270,290,290,777.5,2,SBD,Single-ply
Open,Rosales Richie,Philippines,1976,M,82.5,79.05,240,-250,252.5,252.5,-210,210,-229,210,240,250,-262.5,250,712.5,3,SBD,Single-ply
Open,H. Dadapeer,India,1969,M,82.5,79.55,230,250,260,260,115,-125,125,125,250,262.5,-272.5,262.5,647.5,4,SBD,Single-ply
Open,Paje Aran,Philippines,1970,M,82.5,79,180,,,180,-180,-180,180,180,-180,,,,,DQ,SBD,Single-ply
Masters 1,Khosravi Mani,Iran,1960,M,82.5,77.85,245,260,275,275,170,180,185,185,245,255,262.5,262.5,722.5,1,SBD,Single-ply
Masters 1,Vladimir Shkirman,Kazakhstan,1964,M,82.5,81.25,220,240,250,250,135,142.5,150,150,260,286,290,290,690,2,SBD,Single-ply
Masters 1,Yong-Soo Lee,South Korea,1961,M,82.5,80.95,240,257.5,265,265,-150,155,165,165,210,220,,220,650,3,SBD,Single-ply
Masters 2,Dio Renato,Philippines,1956,M,82.5,81.1,220,-250,250,250,120,-155,-160,120,220,230,240,240,610,1,SBD,Single-ply
Masters 2,Jose P.A,India,1956,M,82.5,79.45,160,170,-180,170,70,90,100,100,160,180,190,190,460,2,SBD,Single-ply
Masters 3,Toshio Kitano,Japan,1946,M,82.5,81.85,215,230,-242.5,230,-170,-170,-170,,230,235,,235,,DQ,SBD,Single-ply
Sub-Juniors,Singh Malkit,India,1990,M,90,84.5,230,245,-260,245,130,140,147.5,147.5,240,255,-287.5,255,647.5,2,SBD,Single-ply
Sub-Juniors,Yi Hao Wu,Taiwan,1989,M,90,84.75,-260,260,-270,260,130,140,-145,140,220,235,-250,235,635,3,SBD,Single-ply
Sub-Juniors,Nehran Nouri,Iran,1989,M,90,88.6,220,240,255,255,150,155,160,160,-260,260,265,265,680,1,SBD,Single-ply
Juniors,Erdene Samdankhuu Munkh,Mongolia,1984,M,90,83.95,195,210,,210,-145,-145,-145,,-175,-175,,,,DQ,SBD,Single-ply
Juniors,Sergey Gass,Uzbekistan,1987,M,90,87.85,240,260,275,275,140,150,155,155,260,270,-300,270,700,1,SBD,Single-ply
Juniors,Irandousttari Amin,Iran,1985,M,90,88.5,-260,-260,260,260,-150,155,160,160,230,245,260,260,680,2,SBD,Single-ply
Juniors,Sharma Nitin,India,1986,M,90,83.5,210,220,-232.5,220,130,140,-145,140,225,-240,240,240,600,3,SBD,Single-ply
Juniors,Mubarak Al Hasni Issa,Oman,1988,M,90,84.2,-200,215,-232.5,215,130,142.5,147.5,147.5,-190,205,220,220,582.5,4,SBD,Single-ply
Open,Bagher Mohammad,Iran,1979,M,90,88.8,-290,-300,300,300,180,190,-195,190,280,295,302.5,302.5,792.5,2,SBD,Single-ply
Open,Dimtriy Zinovyev,Kazakhstan,1984,M,90,88,285,297.5,302.5,302.5,212.5,222.5,227.5,227.5,290,300,302.5,302.5,832.5,1,SBD,Single-ply
Open,Konstantin Khardin,Uzbekistan,1968,M,90,88.9,270,290,300,300,170,-180,-180,170,295,312.5,-325,312.5,782.5,4,SBD,Single-ply
Open,Cheng-Ming Yang,Taiwan,1967,M,90,88.5,-280,280,300,300,210,230,-241,230,230,250,260,260,790,3,SBD,Single-ply
Open,Javad Saghaei,Iran,1976,M,90,89.65,240,-250,250,250,-192.5,195,-200,195,200,220,230,230,675,6,SBD,Single-ply
Open,Toru Moriya,Japan,1970,M,90,89.8,-245,245,270,270,190,-205,-205,190,235,-260,-260,235,695,5,SBD,Single-ply
Open,Tocol Enrico,Philippines,1970,M,90,88.75,200,-220,-220,200,-150,150,-160,150,170,210,225,225,575,7,SBD,Single-ply
Masters 1,Rega Saghaee,Iran,1966,M,90,88.4,-170,-170,170,170,-170,170,185,185,190,-215,-227.5,190,545,3,SBD,Single-ply
Masters 1,Anthony Cabalza Dominic,Philippines,1967,M,90,89.95,200,207.5,227.5,227.5,135,147.5,152.5,152.5,200,217.5,227.5,227.5,607.5,1,SBD,Single-ply
Masters 1,Prasad Mahobia Gulab,India,1964,M,90,89.4,180,205,225,225,130,145,150,150,160,180,-197.5,180,555,2,SBD,Single-ply
Masters 2,Yasuhisa Toma,Japan,1956,M,90,84.15,220,232.5,-237.5,232.5,132.5,-140,-140,132.5,215,-230,-230,215,580,2,SBD,Single-ply
Masters 2,Ryo Omori,Japan,1952,M,90,89.6,210,220,-231,220,152.5,-160,160,160,-210,215,225,225,605,1,SBD,Single-ply
Masters 2,G.S.V. Prasad Rao,India,1948,M,90,83.9,75,-85,85,85,50,60,70,70,100,110,120,120,275,3,SBD,Single-ply
Sub-Juniors,Wei-Wen Hsiao,Taiwan,1989,M,100,93.55,250,280,300,300,-135,140,-166,140,230,-250,250,250,690,1,SBD,Single-ply
Juniors,Po-Wen Hu,Taiwan,1985,M,100,94.1,230,-250,-250,230,120,-140,-140,120,200,220,-230,220,570,3,SBD,Single-ply
Juniors,Salim Sulaiman Ahmed,Oman,1984,M,100,91.6,200,215,230,230,110,122.5,-127.5,122.5,220,232.5,-240,232.5,585,2,SBD,Single-ply
Juniors,Setayeshpoor Omid,Iran,1988,M,100,96.15,-260,260,,260,150,155,-160,155,270,290,,290,705,1,SBD,Single-ply
Open,Virkar Ketan,India,1970,M,100,93.95,-200,-200,200,200,110,120,-125,120,200,210,220,220,540,6,SBD,Single-ply
Open,Edward Torres Peter,Philippines,1965,M,100,99.1,305,-315,315,315,170,175,182.5,182.5,305,315,-336,315,812.5,1,SBD,Single-ply
Open,Javadfar Javad,Iran,1976,M,100,98.85,280,290,-300,290,180,-190,-195,180,270,275,-280,275,745,3,SBD,Single-ply
Open,S Nageswaran,India,1980,M,100,91.4,280,295,-300,295,160,-167.5,170,170,270,-280,280,280,745,2,SBD,Single-ply
Open,Michio Shibata,Japan,1978,M,100,98.85,275,-290,295,295,-210,-210,-210,,260,-265,,260,,DQ,SBD,Single-ply
Open,Bautista James,Philippines,1977,M,100,95.1,180,-200,-200,180,200,-210,-210,200,-180,180,-250,180,560,5,SBD,Single-ply
Open,Kuan Ming Chen,Taiwan,1974,M,100,98,-250,250,-280,250,-180,-180,-180,,,,,,,DQ,SBD,Single-ply
Open,Mirzahed Seyedhamdreza,Iran,1983,M,100,98,180,-182.5,,180,180,-192.5,195,195,-210,-210,210,210,585,4,SBD,Single-ply
Masters 1,Amir Salari Yaghoub,Iran,1962,M,100,99.9,265,-280,-280,265,140,180,-190,180,240,265,,265,710,1,SBD,Single-ply
Masters 1,Luis V,India,1963,M,100,92.05,170,190,200,200,100,120,140,140,170,190,-200,190,530,2,SBD,Single-ply
Masters 2,Alexander Luzanov,Uzbekistan,1954,M,100,94.05,200,220,240,240,150,170,-190,170,200,240,280,280,690,1,SBD,Single-ply
Masters 3,Sattarzadeh Maghsood,Iran,1942,M,100,97.05,-140,140,170,170,100,130,135,135,160,-180,-190,160,465,1,SBD,Single-ply
Sub-Juniors,Hao-Wei Wu,Taiwan,1991,M,110,100.45,175,190,210,210,-95,95,-110,95,200,215,230,230,535,1,SBD,Single-ply
Juniors,Ghasem Ari,Iran,1984,M,110,106.35,-230,235,255,255,160,175,185,185,220,240,-260,240,680,1,SBD,Single-ply
Juniors,Tz-Yi Huang,Taiwan,1988,M,110,109.25,200,-225,-230,200,150,-162.5,-162.5,150,200,,,200,550,2,SBD,Single-ply
Open,Samed Seyed,Iran,1982,M,110,109.65,260,-275,277.5,277.5,220,227.5,235,235,250,270,272.5,272.5,785,3,SBD,Single-ply
Open,Alexandr Makarov,Uzbekistan,1977,M,110,110,280,300,312.5,312.5,180,200,210,210,280,300,310,310,832.5,1,SBD,Single-ply
Open,Shinji Ueda,Japan,1972,M,110,108.7,280,305,330,330,-230,-235,240,240,260,-275,-275,260,830,2,SBD,Single-ply
Open,Ching-Chung Chen,Taiwan,1978,M,110,107.75,290,310,320,320,180,200,-210,200,240,262.5,-290,262.5,782.5,4,SBD,Single-ply
Open,Sardesai Sanjay,India,1964,M,110,109.05,277.5,-300,300,300,155,-162.5,-162.5,155,240,262.5,272.5,272.5,727.5,5,SBD,Single-ply
Masters 1,Singh Ishar,India,1960,M,110,109.4,200,240,-250,240,140,150,165,165,200,220,240,240,645,1,SBD,Single-ply
Masters 1,Fu Lai Yang,Taiwan,1960,M,110,103.5,190,210,-220,210,100,110,120,120,190,210,220,220,550,2,SBD,Single-ply
Masters 1,Chen Ming Lin,Taiwan,1960,M,110,104.45,120,130,140,140,80,100,-120,100,120,,,120,360,3,SBD,Single-ply
Juniors,Rajendra Kumar Dhokale Gaurau,India,1987,M,125,116.5,-220,-220,-220,,130,140,,140,230,235,,235,,DQ,SBD,Single-ply
Juniors,Masaharu Indo,Japan,1984,M,125,124.2,270,295,305,305,195,-210,210,210,220,245,265,265,780,1,SBD,Single-ply
Juniors,Said Saloom Al Saadi Asad,Oman,1986,M,125,119.1,230,-250,250,250,90,102.5,112.5,112.5,200,210,-212.5,210,572.5,2,SBD,Single-ply
Juniors,Hsing Tsun Tsai,Taiwan,1988,M,125,115.9,-180,200,-220,200,90,100,110,110,180,200,-210,200,510,3,SBD,Single-ply
Open,Ghosiyani Babak,Iran,1975,M,125,117.05,280,-300,-310,280,230,240,-245,240,290,310,-322.5,310,830,2,SBD,Single-ply
Open,Estakhr Mohsen,Iran,1969,M,125,124.15,320,335,-345,335,220,230,-240,230,255,270,277.5,277.5,842.5,1,SBD,Single-ply
Open,Kumar Harjit,India,1975,M,125,118.8,320,340,-360,340,-190,190,200,200,260,272.5,-292.5,272.5,812.5,3,SBD,Single-ply
Masters 2,Raj Agnihotri Harsh,India,1955,M,125,121.1,170,,,170,120,135,-145,135,170,200,-231,200,505,1,SBD,Single-ply
Sub-Juniors,Chih Chun Lin,Taiwan,1990,M,125+,141.9,-255,-280,-280,,-130,-130,-130,,165,180,,180,,DQ,SBD,Single-ply
Juniors,Aidh Ali Mahfoodh Al Mandhari,Oman,1985,M,125+,126.1,240,270,-280,270,120,135,,135,200,220,-240,220,625,1,SBD,Single-ply
Open,Mojtaba Maleki,Iran,1983,M,125+,146.1,345,360,,360,220,260,-270,260,290,310,330,330,950,1,SBD,Single-ply
Open,Sergey Trubitsin,Uzbekistan,1975,M,125+,151.8,300,320,-340,320,210,220,230,230,250,-270,-270,250,800,3,SBD,Single-ply
Open,Chien-Hsiung Chao,Taiwan,1969,M,125+,134.6,320,340,350,350,-200,210,230,230,250,270,290,290,870,2,SBD,Single-ply
