Place,Name,WeightClassKg,BodyweightKg,Team,Squat1Kg,Squat2Kg,Squat3Kg,Best3SquatKg,Bench1Kg,Bench2Kg,Bench3Kg,Best3BenchKg,Deadlift1Kg,Deadlift2Kg,Deadlift3Kg,Best3DeadliftKg,TotalKg,Event,Sex,Equipment
1,Ervin Gainer Sr,52,51.6,Team Titan/Safe,172.5,177.5,-182.5,177.5,122.5,127.5,-130,127.5,202.5,210,-220,210,515,SBD,M,Single-ply
1,Wil Taylor,56,55.28,Team Titan/Safe,-190,-190,190,190,110,130,-135,130,205,-220,-220,205,525,SBD,M,Single-ply
2,Allen Whigham,56,55.78,,182.5,-200,200,200,90,97.5,-102.5,97.5,192.5,202.5,215,215,512.5,SBD,M,Single-ply
3,Trey Cunningham,56,55.74,,175,190,195,195,92.5,102.5,-107.5,102.5,187.5,200,-215,200,497.5,SBD,M,Single-ply
DQ,Roger Thompson,56,55.1,,-135,-150,-150,,,,,,,,,,,SBD,M,Single-ply
1,Tim Taylor,60,59.86,Team Titan/Safe,197.5,207.5,217.5,217.5,142.5,150,-155,150,235,255,,255,622.5,SBD,M,Single-ply
2,Chris Mirabella,60,59.74,,-192.5,-192.5,200,200,130,-132.5,-135,130,215,-225,-225,215,545,SBD,M,Single-ply
3,Brandon Green,60,59.6,,-190,-190,190,190,100,-105,-105,100,250,-265,-265,250,540,SBD,M,Single-ply
4,Adin Kong,60,59.46,Team Hawaii,152.5,165,175,175,110,-115,115,115,190,200,-210,200,490,SBD,M,Single-ply
DQ,Hennis Washington,60,59.7,Team Titan/Safe,210,222.5,-232.5,222.5,130,-140,-145,130,-220,220,230,230,,SBD,M,Single-ply
1,Wade Hooper,67.5,67.16,Team Titan/Safe,-290,290,300,300,182.5,-192.5,192.5,192.5,250,-257.5,-257.5,250,742.5,SBD,M,Single-ply
2,Mark Sigala,67.5,67.16,Team Colorado,-220,-220,220,220,-147.5,147.5,-155,147.5,-275,275,-287.5,275,642.5,SBD,M,Single-ply
3,Greg Simmons #2,67.5,67.36,Team Indiana,215,225,230,230,-140,140,145,145,,245,255,255,630,SBD,M,Single-ply
4,Jeff Holzbauer,67.5,66.82,Team Indiana,222.5,237.5,-242.5,237.5,140,147.5,-155,147.5,237.5,-250,-250,237.5,622.5,SBD,M,Single-ply
5,Fernando Corpuz,67.5,67.25,Team Hawaii,225,-242.5,-242.5,225,-162.5,162.5,170,170,-225,225,-230,225,620,SBD,M,Single-ply
6,Keith Scisney,67.5,67.44,,225,240,245,245,140,145,147.5,147.5,217.5,227.5,-235,227.5,620,SBD,M,Single-ply
7,Chris Hughes #1,67.5,66.86,Team Colorado,215,-227.5,-227.5,215,132.5,142.5,147.5,147.5,230,240,255,255,617.5,SBD,M,Single-ply
8,Rick Grayes,67.5,66.16,,212.5,-222.5,-222.5,212.5,140,150,-152.5,150,227.5,232.5,-240,232.5,595,SBD,M,Single-ply
9,Kenny Davis,67.5,67.3,,192.5,207.5,212.5,212.5,135,-147.5,-147.5,135,225,-242.5,-242.5,225,572.5,SBD,M,Single-ply
DQ,Brad Olson,67.5,67.24,,-227.5,-227.5,-227.5,,,,,,,,,,,SBD,M,Single-ply
1,Daniel Austin,75,74.96,Team Titan/Safe,285,-295,-295,285,147.5,157.5,-162.5,157.5,285,-312.5,312.5,312.5,755,SBD,M,Single-ply
2,Anthony Thomas,75,74.66,,-255,255,265,265,165,172.5,177.5,177.5,235,242.5,250,250,692.5,SBD,M,Single-ply
3,Matt Berry,75,74.52,,220,242.5,250,250,152.5,167.5,172.5,172.5,227.5,242.5,250,250,672.5,SBD,M,Single-ply
DQ,Gary Blevins,75,74.18,,-240,-240,-240,,,,,,,,,,,SBD,M,Single-ply
DQ,Quincy Guzman,75,74.94,Team Hawaii,-277.5,-277.5,-277.5,,,,,,,,,,,SBD,M,Single-ply
1,David Ricks,82.5,81.9,Team Titan/Safe,300,310,322.5,322.5,200,207.5,212.5,212.5,300,315,-332.5,315,850,SBD,M,Single-ply
2,Chris Turner,82.5,81.58,,275,287.5,-305,287.5,185,197.5,-205,197.5,320,327.5,-340,327.5,812.5,SBD,M,Single-ply
3,Mike Willet,82.5,82.38,Team Indiana,272.5,280,-285,280,152.5,-157.5,160,160,282.5,295,300,300,740,SBD,M,Single-ply
4,James Benemerito,82.5,80.08,,260,-272.5,-272.5,260,185,-190,-190,185,277.5,-287.5,-290,277.5,722.5,SBD,M,Single-ply
5,Eric Funakoshi,82.5,82.34,Team Hawaii,-257.5,257.5,-272.5,257.5,-182.5,-182.5,182.5,182.5,250,265,-277.5,265,705,SBD,M,Single-ply
6,Nathan Waag,82.5,81.3,Team Colorado,250,-262.5,-262.5,250,177.5,-185,185,185,-250,257.5,-270,257.5,692.5,SBD,M,Single-ply
DQ,Laddie Gibson,82.5,79.96,,272.5,-282.5,-282.5,272.5,-192.5,-205,-205,,,,,,,SBD,M,Single-ply
1,Ray Benemerito,90,89.2,Team Titan/Safe,320,-330,-330,320,207.5,-215,-227.5,207.5,320,327.5,332.5,332.5,860,SBD,M,Single-ply
2,Rob Wagner,90,89.48,,327.5,-340,340,340,187.5,192.5,197.5,197.5,290,-300,300,300,837.5,SBD,M,Single-ply
3,Joe McCauliffe,90,89,Team Titan/Safe,295,-320,-320,295,-220,220,-232.5,220,287.5,297.5,-312.5,297.5,812.5,SBD,M,Single-ply
4,CW Terry,90,89.4,Team Indiana,275,-295,295,295,-150,150,-167.5,150,315,,340,340,785,SBD,M,Single-ply
5,Charr Gahagan,90,89.24,,250,267.5,280,280,160,175,-182.5,175,310,-327.5,,310,765,SBD,M,Single-ply
6,Troy Gibson,90,89.56,,272.5,-287.5,-287.5,272.5,-182.5,182.5,200,200,250,272.5,-282.5,272.5,745,SBD,M,Single-ply
7,Joe Goodhew,90,89.8,Team Indiana,270,-280,-280,270,-180,180,190,190,275,285,-287.5,285,745,SBD,M,Single-ply
8,Rocky Horrighs,90,89.2,,255,277.5,292.5,292.5,-170,170,-180,170,255,-275,-275,255,717.5,SBD,M,Single-ply
9,Doug Currence,90,89.86,,235,-250,-250,235,160,167.5,-172.2,167.5,272.5,,,272.5,675,SBD,M,Single-ply
DQ,Don DeCaprio,90,88.56,,-272.5,-272.5,-272.5,,,,,,,,,,,SBD,M,Single-ply
1,Anthony Harris,100,99.82,Team Hawaii,330,347.5,355,355,190,210,217.5,217.5,330,342.5,-362.5,342.5,915,SBD,M,Single-ply
2,Scott Zwaanstra,100,99.68,Team Colorado,290,305,-315,305,197.5,205,210,210,292.5,300,310,310,825,SBD,M,Single-ply
3,Jason Burnell,100,94.62,,292.5,-312.5,312.5,312.5,175,187.5,-192.5,187.5,292.5,305,-310,305,805,SBD,M,Single-ply
4,Matt Freirmuth,100,98.58,Team Minnesota,-267.5,267.5,-275,267.5,200,207.5,-217.5,207.5,315,-322.5,,315,790,SBD,M,Single-ply
5,Pat Hall,100,98.94,Team Minnesota,290,-305,-305,290,200,-205,-205,200,265,295,-305,295,785,SBD,M,Single-ply
6,Joe Bell,100,98.48,Team Indiana,260,272.5,-285,272.5,187.5,200,210,210,300,-312.5,-315,300,782.5,SBD,M,Single-ply
7,Julian Ulvang,100,97.88,,272.5,285,-287.5,285,-175,177.5,190,190,280,-287.5,-287.5,280,755,SBD,M,Single-ply
8,Dan Hengst,100,99.6,,-272.5,272.5,-295,272.5,167.5,-172.5,-172.5,167.5,272.5,-290,,272.5,712.5,SBD,M,Single-ply
DQ,Tony Stevens,100,94.2,,-265,265,-295,265,-225,-225,-227.5,,,,,,,SBD,M,Single-ply
DQ,Rodney Lawary,100,95.96,Team Indiana,265,-287.5,287.5,287.5,165,182.5,-187.5,182.5,-305,-305,-305,,,SBD,M,Single-ply
1,Kevin Stewart,110,107.32,,327.5,-352.5,-352.5,327.5,232.5,247.5,-255.5,247.5,297.5,317.5,327.5,327.5,902.5,SBD,M,Single-ply
2,Jeff Douglas,110,109.58,Team Titan/Safe,350,365,370,370,212.5,-222.5,-222.5,212.5,305,-320,320,320,902.5,SBD,M,Single-ply
3,Willie Croner,110,109.98,,332.5,-360,-360,332.5,210,-225,225,225,295,320,-332.5,320,877.5,SBD,M,Single-ply
4,Dave Gonzales,110,109.28,Team Colorado,312.5,317.5,327.5,327.5,212.5,220,222.5,222.5,292.5,300,305,305,855,SBD,M,Single-ply
5,James Cahill,110,106.74,Team Minnesota,270,285,297.5,297.5,182.5,190,195,195,295,330,345,345,837.5,SBD,M,Single-ply
6,Shawn Cain,110,107.3,,285,300,305,305,187.5,195,202.5,202.5,310,330,-340.5,330,837.5,SBD,M,Single-ply
7,Dave Villeneuve,110,109.96,,282.5,297.5,307.5,307.5,-187.5,197.5,202.5,202.5,277.5,292.5,302.5,302.5,812.5,SBD,M,Single-ply
8,Patrick Johnson,110,106.52,,295,307.5,-320,307.5,210,222.5,-227.5,222.5,265,277.5,-282.5,277.5,807.5,SBD,M,Single-ply
9,John Defoor,110,109.4,,292.5,-302.5,-302.5,292.5,202.5,212.5,217.5,217.5,282.5,295,-302.5,295,805,SBD,M,Single-ply
10,Mitch Edelstein,110,107.62,Team Minnesota,270,282.5,287.5,287.5,-195,197.5,205,205,-292.5,-295,297.5,297.5,790,SBD,M,Single-ply
11,Ken Howard,110,109.12,,295,-317.5,-317.5,295,-150,155,,155,310,327.5,340,340,790,SBD,M,Single-ply
12,Todd Earnest,110,102.4,,265,277.5,282.5,282.5,182.5,192.5,197.5,197.5,265,282.5,-297.5,282.5,762.5,SBD,M,Single-ply
DQ,Raoul Donati,110,109.26,Team Indiana,-292.5,-295,-295,,,,,,,,,,,SBD,M,Single-ply
1,Tony Leiato,125,123.26,Team Hawaii,352.5,-372.5,-372.5,352.5,250,-260,-260,250,305,320,327.5,327.5,930,SBD,M,Single-ply
2,Pat McGettigan,125,123.96,,317.5,337.5,-345,337.5,-205,-205,205,205,345,365,-377.5,365,907.5,SBD,M,Single-ply
3,Mark Schellen,125,121.14,,342.5,-357.5,360,360,217.5,-225,225,225,320,,-345,320,905,SBD,M,Single-ply
4,Kelvin Hayes,125,119.12,Team Indiana,342.5,367.5,-372.5,367.5,-212.5,212.5,-220,212.5,297.5,312.5,317.5,317.5,897.5,SBD,M,Single-ply
5,Jeremy Haller,125,122.7,,320,335,-340,335,197.5,210,215,215,325,345,-357.5,345,895,SBD,M,Single-ply
6,Mike Anderson,125,124.2,,332.5,-352.5,360,360,187.5,-197.5,197.5,197.5,287.5,312.5,320,320,877.5,SBD,M,Single-ply
7,Paul Fletcher,125,123.46,,320,327.5,335,335,210,217.5,-222.5,217.5,307.5,322.5,-340,322.5,875,SBD,M,Single-ply
8,Collin Rhodes,125,123.38,,302.5,312.5,-317.5,312.5,237.5,-242.5,-242.5,237.5,310,-315,315,315,865,SBD,M,Single-ply
9,Mike Kautz,125,123.8,,315,327.5,337.5,337.5,195,-200,200,200,-312.5,312.5,-325,312.5,850,SBD,M,Single-ply
10,Ray Ebner,125,120.44,,332.5,345,-355,345,210,-220,-220,210,287.5,-295,-295,287.5,842.5,SBD,M,Single-ply
11,Kevin Westerhold,125,117.94,Team Colorado,290,295,-320,295,182.5,200,-205,200,320,327.5,-337.5,327.5,822.5,SBD,M,Single-ply
12,Michael Ringer,125,125,,-310,310,-320,310,175,-182.5,-187.5,175,310,-320,-320,310,795,SBD,M,Single-ply
13,Michael Hartle,125,123.46,,282.5,295,305,305,197.5,207.5,215,215,257.5,270,-280,270,790,SBD,M,Single-ply
DQ,Horace Lane,125,124.72,Team Indiana,185,-195,-195,185,-279,279,285.5,285.5,185,-190,-200,185,,SBD,M,Single-ply
DQ,Michael Ritter,125,122.7,,310,-322.5,322.5,322.5,-200,-200,-205,,,,,,,SBD,M,Single-ply
DQ,Grant Higa,125,123.86,Team Hawaii,-365,-365,-365,,,,,,,,,,,SBD,M,Single-ply
DQ,Ron Mazza,125,124.42,,302.5,-320,-320,302.5,-202.5,-202.5,-202.5,,,,,,,SBD,M,Single-ply
1,Brad Gillingham,125+,146.58,Team Titan/Safe,357.5,367.5,-375,367.5,-260,260,265,265,357.5,365,370,370,1002.5,SBD,M,Single-ply
2,Sean Culnan,125+,150.86,,350,-365,365,365,237.5,247.5,255,255,335,360,-382.5,360,980,SBD,M,Single-ply
3,Van Hatfield,125+,132.24,,322.5,330,-337.5,330,230,-235,-235,230,-312.5,-312.5,312.5,312.5,872.5,SBD,M,Single-ply
4,Ken Ufford,125+,130.04,,282.5,297.5,-305,297.5,220,227.5,-232.5,227.5,320,337.5,-350,337.5,862.5,SBD,M,Single-ply
5,Dennis Hulslander,125+,157.25,,292.5,317.5,327.5,327.5,-212.5,227.5,-242.5,227.5,287.5,305,-320,305,860,SBD,M,Single-ply
6,Deron Rogers,125+,131.8,,-330,-330,330,330,167.5,182.5,-190,182.5,295,320,330,330,842.5,SBD,M,Single-ply
7,Daniel Gaudreau,125+,155.78,Team Colorado,-320,-320,320,320,217.5,227.5,-232.5,227.5,277.5,295,-310,295,842.5,SBD,M,Single-ply
8,Brad Madvig,125+,137.7,,295,317.5,-332.5,317.5,205,212.5,-220,212.5,282.5,295,-312.5,295,825,SBD,M,Single-ply
