Division,WeightClassKg,Place,Name,Team,BodyweightKg,Best3SquatKg,Best3BenchKg,Best3DeadliftKg,TotalKg,Equipment,Event,Sex
Boys,51.71,1,Austin Cuthbertson,Van Alstyne,48.99,124.74,65.77,113.4,303.91,Single-ply,SBD,M
Boys,51.71,2,Carson Johnson,Paris,51.48,99.79,61.23,108.86,269.89,Single-ply,SBD,M
Boys,51.71,3,Trevor Nate,Frisco Wakeland,51.03,97.52,49.9,86.18,233.6,Single-ply,SBD,M
Boys,51.71,4,Noah Clasen,Frisco Wakeland,47.4,63.5,34.02,74.84,172.37,Single-ply,SBD,M
Boys,51.71,DQ,Collins Murithi,Sherman,48.99,,,,,Single-ply,SBD,M
Boys,51.71,DQ,Donovan Carter,Carrollton Ranchview,47.4,56.7,,,,Single-ply,SBD,M
Boys,55.79,1,Carter McFadden,Anna,54.43,149.69,65.77,154.22,369.68,Single-ply,SBD,M
Boys,55.79,2,Rolando Guajardo,Frisco Centennial,55.79,138.35,72.57,142.88,353.8,Single-ply,SBD,M
Boys,55.79,3,Blayze Ferguson,Frisco Heritage,54.88,117.93,92.99,138.35,349.27,Single-ply,SBD,M
Boys,55.79,4,Kasen Haynes,Lone Oak,55.57,142.88,72.57,122.47,337.93,Single-ply,SBD,M
Boys,55.79,5,Lance Jones,Van Alstyne,54.88,117.93,72.57,127.01,317.51,Single-ply,SBD,M
Boys,55.79,6,Connor Gressett,Frisco Wakeland,54.88,111.13,56.7,115.67,283.5,Single-ply,SBD,M
Boys,55.79,7,Jimmy Rollins,Van Alstyne,55.79,102.06,61.23,120.2,283.5,Single-ply,SBD,M
Boys,59.87,1,Perry Simpson,Melissa,59.87,154.22,83.91,158.76,396.89,Single-ply,SBD,M
Boys,59.87,2,Kevin Weiss,Plano,58.29,124.74,102.06,167.83,394.63,Single-ply,SBD,M
Boys,59.87,3,Ethan Barboza,Castleberry,59.19,158.76,83.91,151.95,394.63,Single-ply,SBD,M
Boys,59.87,4,Ethan Adair,Lone Oak,59.19,149.69,88.45,151.95,390.09,Single-ply,SBD,M
Boys,59.87,5,Deuntre Adamson,Paris,56.93,136.08,79.38,167.83,383.29,Single-ply,SBD,M
Boys,59.87,6,Thezak Wright,Lone Oak,59.87,138.35,79.38,158.76,376.48,Single-ply,SBD,M
Boys,59.87,7,John Tran,Carrollton Creekview,57.61,124.74,79.38,147.42,351.53,Single-ply,SBD,M
Boys,59.87,8,Chris Counts,Lone Oak,56.7,138.35,68.04,136.08,342.46,Single-ply,SBD,M
Boys,59.87,9,Andrew Mast,Carrollton Creekview,59.87,113.4,79.38,136.08,328.85,Single-ply,SBD,M
Boys,59.87,10,Garrett Carter,Frisco Wakeland,59.87,113.4,61.23,138.35,312.98,Single-ply,SBD,M
Boys,59.87,11,Aaron Bohannon,Frisco Lone Star,58.74,113.4,61.23,124.74,299.37,Single-ply,SBD,M
Boys,59.87,12,James Washington,Carrollton Ranchview,56.47,102.06,52.16,115.67,269.89,Single-ply,SBD,M
Boys,59.87,13,Gharron Sheffield,Lucas Lovejoy,57.38,92.99,45.36,90.72,229.06,Single-ply,SBD,M
Boys,59.87,DQ,Mikey Mixson,Anna,56.25,127.01,,,,Single-ply,SBD,M
Boys,67.13,1,Mike Acevedo,Anna,66.9,204.12,124.74,192.78,521.63,Single-ply,SBD,M
Boys,67.13,2,Nicholas Reid,Anna,66.45,213.19,106.59,190.51,510.29,Single-ply,SBD,M
Boys,67.13,3,Omar Villegas,Melissa,66.68,181.44,102.06,181.44,464.93,Single-ply,SBD,M
Boys,67.13,4,Camron Gray,Carrollton Creekview,66.68,183.7,99.79,176.9,460.4,Single-ply,SBD,M
Boys,67.13,5,Cole Hahn,Lone Oak,65.77,176.9,106.59,172.37,455.86,Single-ply,SBD,M
Boys,67.13,6,Ryan Collins,Lucas Lovejoy,66.68,158.76,102.06,158.76,419.57,Single-ply,SBD,M
Boys,67.13,7,Cameron Washington,Sherman,66.45,167.83,79.38,165.56,412.77,Single-ply,SBD,M
Boys,67.13,8,Ethan Fort,Lone Oak,66.68,170.1,61.23,161.03,392.36,Single-ply,SBD,M
Boys,67.13,9,Coby Overbeck,Frisco Wakeland,66.68,129.27,83.91,149.69,362.87,Single-ply,SBD,M
Boys,67.13,10,Ethan Cowan,Lucas Lovejoy,67.13,136.08,65.77,151.95,353.8,Single-ply,SBD,M
Boys,67.13,11,Kieran Wright,Garland Naaman Forest,63.05,127.01,70.31,151.95,349.27,Single-ply,SBD,M
Boys,67.13,12,Brett Long,Van Alstyne,66.45,127.01,68.04,131.54,326.59,Single-ply,SBD,M
Boys,67.13,13,Matua Mauga,Garland Naaman Forest,67.13,124.74,56.7,136.08,317.51,Single-ply,SBD,M
Boys,67.13,14,Juan Gallegos,Princeton,63.5,104.33,83.91,127.01,315.25,Single-ply,SBD,M
Boys,67.13,15,Tanner Glover,Frisco Lone Star,64.64,111.13,65.77,120.2,297.1,Single-ply,SBD,M
Boys,67.13,DQ,Arnold Pesina,Castleberry,61.92,111.13,,,,Single-ply,SBD,M
Boys,67.13,DQ,Noah Woodward,McKinney,66.68,138.35,83.91,,,Single-ply,SBD,M
Boys,67.13,DQ,Colten Manning,Van Alstyne,65.09,131.54,,,,Single-ply,SBD,M
Boys,74.84,1,Nolan Haden,Ennis,69.85,233.6,154.22,226.8,614.62,Single-ply,SBD,M
Boys,74.84,2,Josue Hernandez,Anna,73.94,197.31,124.74,197.31,519.36,Single-ply,SBD,M
Boys,74.84,3,Isai Pena,Carrollton Creekview,74.84,183.7,117.93,208.65,510.29,Single-ply,SBD,M
Boys,74.84,4,Charlie Burkhart,Frisco Wakeland,73.48,183.7,115.67,183.7,483.08,Single-ply,SBD,M
Boys,74.84,5,Victor Martinez,Anna,74.62,174.63,108.86,185.97,469.47,Single-ply,SBD,M
Boys,74.84,6,Caleb McKenzie,Castleberry,73.94,174.63,102.06,185.97,462.66,Single-ply,SBD,M
Boys,74.84,7,Dillon Moncier,Princeton,74.39,167.83,108.86,183.7,460.4,Single-ply,SBD,M
Boys,74.84,8,Brendene Ramos,Castleberry,73.26,170.1,127.01,156.49,453.59,Single-ply,SBD,M
Boys,74.84,9,Dylan Enriquez,Garland Naaman Forest,70.08,174.63,95.25,181.44,451.32,Single-ply,SBD,M
Boys,74.84,10,Zion Lance,Carrollton Creekview,70.76,176.9,92.99,176.9,446.79,Single-ply,SBD,M
Boys,74.84,11,Cody Hunter,Sherman,70.08,158.76,111.13,170.1,439.98,Single-ply,SBD,M
Boys,74.84,12,Aaron Cyrus,Carrollton Creekview,67.36,174.63,92.99,156.49,424.11,Single-ply,SBD,M
Boys,74.84,13,Tyler Novak,McKinney Boyd,73.48,172.37,83.91,156.49,412.77,Single-ply,SBD,M
Boys,74.84,14,Aaron Spataro,Lone Oak,69.85,158.76,81.65,167.83,408.23,Single-ply,SBD,M
Boys,74.84,15,Tyler Walls,Carrollton Ranchview,72.57,158.76,79.38,167.83,405.97,Single-ply,SBD,M
Boys,74.84,16,Cole Morris,Lone Oak,71.21,158.76,97.52,142.88,399.16,Single-ply,SBD,M
Boys,74.84,17,Mariano Rincon,Lone Oak,74.16,161.03,88.45,142.88,392.36,Single-ply,SBD,M
Boys,74.84,18,Rickie Brown,Carrollton Creekview,68.04,147.42,92.99,145.15,385.55,Single-ply,SBD,M
Boys,74.84,19,Kasey Nguyen,Carrollton Creekview,67.59,165.56,74.84,142.88,383.29,Single-ply,SBD,M
Boys,74.84,20,Sam Oh,Frisco Lone Star,72.8,138.35,104.33,138.35,381.02,Single-ply,SBD,M
Boys,74.84,21,Chief Collins,Lucas Lovejoy,73.94,147.42,81.65,138.35,367.41,Single-ply,SBD,M
Boys,74.84,22,Isaiah Husband,Sherman,73.26,138.35,79.38,147.42,365.14,Single-ply,SBD,M
Boys,74.84,23,Stephen Garcia,Carrollton Creekview,68.04,117.93,81.65,158.76,358.34,Single-ply,SBD,M
Boys,74.84,24,Ali Noorani,Frisco Wakeland,73.48,115.67,90.72,149.69,356.07,Single-ply,SBD,M
Boys,74.84,25,Gabe Clark,Anna,68.72,147.42,65.77,140.61,353.8,Single-ply,SBD,M
Boys,74.84,26,Mason Melindez,Lucas Lovejoy,70.76,136.08,74.84,131.54,342.46,Single-ply,SBD,M
Boys,74.84,27,Colin Manning,Van Alstyne,68.27,129.27,72.57,136.08,337.93,Single-ply,SBD,M
Boys,74.84,28,Fogo Sokoya,Frisco Lone Star,67.81,124.74,72.57,131.54,328.85,Single-ply,SBD,M
Boys,74.84,DQ,Auldynn Chambers,McKinney,74.84,151.95,,,,Single-ply,SBD,M
Boys,74.84,DQ,Byrce Flaherity,Frisco Memorial,69.17,,88.45,120.2,,Single-ply,SBD,M
Boys,74.84,DQ,Hayden Lark,Frisco Heritage,72.12,,,,,Single-ply,SBD,M
Boys,82.1,1,Amyri Cox,Anna,80.29,215.46,127.01,231.33,573.79,Single-ply,SBD,M
Boys,82.1,2,Joe McCallum,Lone Oak,76.66,231.33,113.4,204.12,548.85,Single-ply,SBD,M
Boys,82.1,3,Chris Gidney,Blue Ridge,82.1,181.44,136.08,195.04,512.56,Single-ply,SBD,M
Boys,82.1,4,Hung Tran,Carrollton Creekview,81.65,190.51,111.13,195.04,496.68,Single-ply,SBD,M
Boys,82.1,5,Jake Taylor,Van Alstyne,80.06,197.31,99.79,195.04,492.15,Single-ply,SBD,M
Boys,82.1,6,Jawan Washington,Frisco Centennial,80.74,179.17,124.74,188.24,492.15,Single-ply,SBD,M
Boys,82.1,7,Gage Mauch,Lone Oak,82.1,188.24,106.59,179.17,474,Single-ply,SBD,M
Boys,82.1,8,Micah Justice,Sherman,76.2,170.1,102.06,185.97,458.13,Single-ply,SBD,M
Boys,82.1,9,Blake Slaughter,Lucas Lovejoy,75.3,170.1,111.13,174.63,455.86,Single-ply,SBD,M
Boys,82.1,10,Drew Bush,Paris,75.75,154.22,102.06,176.9,433.18,Single-ply,SBD,M
Boys,82.1,11,Stephen Bollier,Princeton,78.47,156.49,113.4,158.76,428.64,Single-ply,SBD,M
Boys,82.1,12,Braylon Brown,Melissa,76.2,181.44,88.45,156.49,426.38,Single-ply,SBD,M
Boys,82.1,13,Mason Dowling,Lucas Lovejoy,82.1,156.49,90.72,179.17,426.38,Single-ply,SBD,M
Boys,82.1,14,Ty Watkins,Lone Oak,78.47,170.1,83.91,170.1,424.11,Single-ply,SBD,M
Boys,82.1,15,Antonio Martinez,Castleberry,78.02,165.56,92.99,161.03,419.57,Single-ply,SBD,M
Boys,82.1,16,Seth Granberry,McKinney Boyd,80.74,151.95,90.72,170.1,412.77,Single-ply,SBD,M
Boys,82.1,17,Jaden Paige,Frisco Wakeland,80.74,156.49,79.38,167.83,403.7,Single-ply,SBD,M
Boys,82.1,18,Reece Riherd,Frisco Heritage,76.43,147.42,83.91,158.76,390.09,Single-ply,SBD,M
Boys,82.1,19,Josh Toyphommarath,Carrollton Creekview,78.93,117.93,86.18,138.35,342.46,Single-ply,SBD,M
Boys,82.1,20,Johnathon Hargis,Sherman,81.65,111.13,79.38,133.81,324.32,Single-ply,SBD,M
Boys,82.1,21,Lavon Martinez,Frisco Heritage,75.3,102.06,97.52,113.4,312.98,Single-ply,SBD,M
Boys,82.1,DQ,Antwon Ross,Frisco Heritage,80.29,217.72,,,,Single-ply,SBD,M
Boys,82.1,DQ,Kade Littlefield,Frisco Lone Star,81.42,158.76,,,,Single-ply,SBD,M
Boys,82.1,DQ,Colton Doggett,Frisco Wakeland,78.24,156.49,,,,Single-ply,SBD,M
Boys,82.1,DQ,Josue Arellanes,Castleberry,80.06,,,,,Single-ply,SBD,M
Boys,82.1,DQ,Shawn Gates,Castleberry,81.65,170.1,,,,Single-ply,SBD,M
Boys,82.1,DQ,Nicholas Abengowe,Garland Naaman Forest,79.38,142.88,,,,Single-ply,SBD,M
Boys,89.81,1,Isaiah Nies,Ennis,83.69,260.82,165.56,256.28,682.66,Single-ply,SBD,M
Boys,89.81,2,Andrew Murphy,Paris,88,204.12,124.74,208.65,537.51,Single-ply,SBD,M
Boys,89.81,3,Xander Womack,Princeton,88,183.7,165.56,167.83,517.1,Single-ply,SBD,M
Boys,89.81,4,Adrian Brown,Garland Naaman Forest,87.09,174.63,90.72,217.72,483.08,Single-ply,SBD,M
Boys,89.81,5,Deigo Diaz,Frisco Memorial,83.46,170.1,115.67,188.24,474,Single-ply,SBD,M
Boys,89.81,6,Jayvin Rodriguez,Melissa,87.54,183.7,108.86,165.56,458.13,Single-ply,SBD,M
Boys,89.81,7,Johnny Holland,Frisco Centennial,84.37,174.63,106.59,174.63,455.86,Single-ply,SBD,M
Boys,89.81,8,Woodon Andrews,McKinney Boyd,87.09,170.1,102.06,183.7,455.86,Single-ply,SBD,M
Boys,89.81,9,Tyler Williams,Lone Oak,83.23,185.97,99.79,158.76,444.52,Single-ply,SBD,M
Boys,89.81,10,Robbie Wilkins,Frisco Wakeland,84.82,163.29,111.13,170.1,444.52,Single-ply,SBD,M
Boys,89.81,11,Austin King,Lucas Lovejoy,87.54,172.37,88.45,163.29,424.11,Single-ply,SBD,M
Boys,89.81,12,Caden Hoefar,Lone Oak,84.37,179.17,88.45,154.22,421.84,Single-ply,SBD,M
Boys,89.81,13,Trevyan Smith,Lancaster,85.05,165.56,97.52,147.42,410.5,Single-ply,SBD,M
Boys,89.81,14,Freddie Jimenez,Frisco Memorial,86.18,142.88,102.06,161.03,405.97,Single-ply,SBD,M
Boys,89.81,15,Martin Grijalva,Sherman,89.13,142.88,108.86,154.22,405.97,Single-ply,SBD,M
Boys,89.81,16,Rey Reed,Frisco Lone Star,89.81,147.42,99.79,147.42,394.63,Single-ply,SBD,M
Boys,89.81,17,Ryan Drekmann,McKinney,83.46,138.35,79.38,158.76,376.48,Single-ply,SBD,M
Boys,89.81,18,Josiah Robinson,Carrollton Creekview,88.22,136.08,92.99,147.42,376.48,Single-ply,SBD,M
Boys,89.81,19,Trent Tennon,Paris,89.13,127.01,83.91,142.88,353.8,Single-ply,SBD,M
Boys,89.81,20,Sean Kernohan,Frisco Memorial,89.81,142.88,65.77,129.27,337.93,Single-ply,SBD,M
Boys,89.81,DQ,Paul O'Loughlin,Van Alstyne,84.14,188.24,,,,Single-ply,SBD,M
Boys,89.81,DQ,Lucas Rock,Frisco Heritage,86.41,165.56,,,,Single-ply,SBD,M
Boys,99.79,1,Spencer May,Anna,91.17,197.31,133.81,219.99,551.11,Single-ply,SBD,M
Boys,99.79,2,Nathan Slemmons,Lone Oak,92.31,235.87,122.47,163.29,521.63,Single-ply,SBD,M
Boys,99.79,3,Jaylen Estelle,Lancaster,96.16,181.44,140.61,192.78,514.83,Single-ply,SBD,M
Boys,99.79,4,Caleb Kroese,Melissa,99.11,204.12,106.59,183.7,494.42,Single-ply,SBD,M
Boys,99.79,5,Matthew Hutto,Frisco Centennial,97.98,199.58,106.59,176.9,483.08,Single-ply,SBD,M
Boys,99.79,6,Abdulhadi Darkazalli,Garland Naaman Forest,99.79,183.7,83.91,210.92,478.54,Single-ply,SBD,M
Boys,99.79,7,Garrett Spangler,Frisco Centennial,93.89,185.97,108.86,149.69,444.52,Single-ply,SBD,M
Boys,99.79,8,Numair Baig,Frisco Memorial,99.79,154.22,90.72,161.03,405.97,Single-ply,SBD,M
Boys,99.79,9,Jackson Adkins,Howe,97.07,142.88,90.72,136.08,369.68,Single-ply,SBD,M
Boys,99.79,10,Miguel Renteria,Carrollton Creekview,95.25,127.01,79.38,124.74,331.12,Single-ply,SBD,M
Boys,99.79,11,Gage Harrison,Lucas Lovejoy,97.07,136.08,77.11,113.4,326.59,Single-ply,SBD,M
Boys,99.79,12,Billy Millican,Van Alstyne,94.35,111.13,68.04,120.2,299.37,Single-ply,SBD,M
Boys,109.77,1,Tristen Myers,Carrollton Creekview,100.24,272.16,215.46,226.8,714.41,Single-ply,SBD,M
Boys,109.77,2,Brock Prengler,Lucas Lovejoy,106.14,265.35,154.22,238.14,657.71,Single-ply,SBD,M
Boys,109.77,3,Brody Wiggins,Blue Ridge,107.5,217.72,154.22,204.12,576.06,Single-ply,SBD,M
Boys,109.77,4,Quin Dangerfield,Paris,109.09,215.46,147.42,206.38,569.26,Single-ply,SBD,M
Boys,109.77,5,Matthew Kizlyk,McKinney,101.15,210.92,111.13,192.78,514.83,Single-ply,SBD,M
Boys,109.77,6,Dozier Damon,Lancaster,103.42,181.44,138.35,192.78,512.56,Single-ply,SBD,M
Boys,109.77,7,Seth Gammage,Lone Oak,107.73,192.78,120.2,183.7,496.68,Single-ply,SBD,M
Boys,109.77,8,Aiden Carter,Princeton,106.59,183.7,124.74,183.7,492.15,Single-ply,SBD,M
Boys,109.77,9,David Ngegwe,Frisco Lone Star,109.09,197.31,102.06,192.78,492.15,Single-ply,SBD,M
Boys,109.77,10,Keldred Johnson,Garland Naaman Forest,104.33,208.65,83.91,192.78,485.34,Single-ply,SBD,M
Boys,109.77,11,Tyler Magnasco,Lone Oak,102.06,199.58,113.4,165.56,478.54,Single-ply,SBD,M
Boys,109.77,12,Josh Hamil,Frisco Wakeland,104.1,183.7,115.67,174.63,474,Single-ply,SBD,M
Boys,109.77,13,Keshaun Campbell,McKinney,109.77,195.04,111.13,158.76,464.93,Single-ply,SBD,M
Boys,109.77,14,Jaden Luhn,Lone Oak,109.32,192.78,102.06,165.56,460.4,Single-ply,SBD,M
Boys,109.77,15,Armando Chavez,Sherman,109.32,151.95,92.99,185.97,430.91,Single-ply,SBD,M
Boys,109.77,16,Logan Butler,Frisco Memorial,109.77,170.1,88.45,158.76,417.3,Single-ply,SBD,M
Boys,109.77,17,Satchel Swain,Paris,101.83,163.29,95.25,147.42,405.97,Single-ply,SBD,M
Boys,109.77,18,Kaleb Washington,Lancaster,102.06,147.42,106.59,147.42,401.43,Single-ply,SBD,M
Boys,109.77,19,Derek Patterson,Lone Oak,102.51,138.35,65.77,138.35,342.46,Single-ply,SBD,M
Boys,109.77,DQ,Luke Jackson,Howe,100.7,142.88,,,,Single-ply,SBD,M
Boys,109.77,DQ,Omar Ilyas,Frisco Memorial,108.64,142.88,83.91,,,Single-ply,SBD,M
Boys,109.77,DQ,William Mack,Princeton,107.5,,,,,Single-ply,SBD,M
Boys,109.77,DQ,Braden Ulhmann,Frisco Memorial,105.46,,,,,Single-ply,SBD,M
Boys,109.77,DQ,Zane Sanchez,Frisco Heritage,106.59,,,,,Single-ply,SBD,M
Boys,124.74,1,Dayven Monroe,Lancaster,121.56,238.14,154.22,229.06,621.42,Single-ply,SBD,M
Boys,124.74,2,Brandon McClarnon,Frisco Centennial,116.57,226.8,124.74,192.78,544.31,Single-ply,SBD,M
Boys,124.74,3,Antonio Reader,Carrollton Ranchview,113.4,215.46,99.79,208.65,523.9,Single-ply,SBD,M
Boys,124.74,4,Brayden Hughes,Frisco Centennial,114.53,208.65,124.74,174.63,508.02,Single-ply,SBD,M
Boys,124.74,5,Tommy Dunn,Garland Naaman Forest,120.66,192.78,120.2,190.51,503.49,Single-ply,SBD,M
Boys,124.74,6,Jaedon Murphy,Paris,117.03,183.7,115.67,195.04,494.42,Single-ply,SBD,M
Boys,124.74,7,Isaih Sillemon,Lancaster,121.11,174.63,129.27,188.24,492.15,Single-ply,SBD,M
Boys,124.74,8,Nathan Deason,Frisco Lone Star,123.83,199.58,102.06,190.51,492.15,Single-ply,SBD,M
Boys,124.74,9,Noah Pitman,Frisco Centennial,111.13,183.7,131.54,170.1,485.34,Single-ply,SBD,M
Boys,124.74,10,Aj Magallanes,Frisco Heritage,110.68,154.22,113.4,170.1,437.72,Single-ply,SBD,M
Boys,124.74,11,Dj Johnson,Princeton,117.48,158.76,113.4,158.76,430.91,Single-ply,SBD,M
Boys,124.74,12,Zander Gonzales,Melissa,114.76,174.63,79.38,161.03,415.04,Single-ply,SBD,M
Boys,124.74,13,Dylan Rock,Frisco Heritage,113.4,151.95,90.72,142.88,385.55,Single-ply,SBD,M
Boys,124.74,14,Tony Baker,Carrollton Creekview,112.26,149.69,79.38,142.88,371.95,Single-ply,SBD,M
Boys,124.74+,1,Tekarius Walton,Sherman,142.65,233.6,151.95,238.14,623.69,Single-ply,SBD,M
Boys,124.74+,2,Jake Loganbill,Van Alstyne,129.5,254.01,131.54,188.24,573.79,Single-ply,SBD,M
Boys,124.74+,3,Cj Hubbard,Lone Oak,127.46,208.65,161.03,192.78,562.45,Single-ply,SBD,M
Boys,124.74+,4,Tyler Smith,Sherman,143.11,210.92,111.13,231.33,553.38,Single-ply,SBD,M
Boys,124.74+,5,Chris Tobar,Sherman,132.9,206.38,147.42,195.04,548.85,Single-ply,SBD,M
Boys,124.74+,6,Willie Armstrong,Lancaster,125.19,181.44,113.4,183.7,478.54,Single-ply,SBD,M
Boys,124.74+,7,Garrett Bowen,Melissa,126.55,204.12,111.13,158.76,474,Single-ply,SBD,M
Boys,124.74+,8,Devin Moten,Paris,133.36,183.7,88.45,188.24,460.4,Single-ply,SBD,M
Boys,124.74+,9,Donavan Valdez,Lancaster,130.18,147.42,106.59,167.83,421.84,Single-ply,SBD,M
Boys,124.74+,DQ,William Fleming,Howe,130.18,154.22,72.57,,,Single-ply,SBD,M
Boys,124.74+,DQ,Patrick Mitchell,Lancaster,160.12,136.08,102.06,,,Single-ply,SBD,M
