Division,WeightClassKg,Place,Name,Team,BodyweightKg,Best3SquatKg,Best3BenchKg,Best3DeadliftKg,TotalKg,Equipment,Event,Sex
Boys,51.71,1,Joseph Castillo,Altair Rice,51.26,129.27,61.23,145.15,335.66,Single-ply,SBD,M
Boys,51.71,2,Andrew Dirba,East Bernard,50.76,108.86,65.77,124.74,299.37,Single-ply,SBD,M
Boys,51.71,3,Dylan Crye,Hallettsville,51.48,120.2,58.97,113.4,292.57,Single-ply,SBD,M
Boys,51.71,4,Trey Stephens,East Bernard,49.4,106.59,58.97,106.59,272.16,Single-ply,SBD,M
Boys,51.71,5,Lucas DeBord,Cuero,51.62,106.59,58.97,106.59,272.16,Single-ply,SBD,M
Boys,51.71,6,Hayden McBryde,Bastrop,48.53,99.79,43.09,106.59,249.48,Single-ply,SBD,M
Boys,51.71,7,Charles Boettcher,East Bernard,47.72,97.52,43.09,102.06,242.67,Single-ply,SBD,M
Boys,51.71,8,Jacobo Robles,Altair Rice,45.81,77.11,47.63,106.59,231.33,Single-ply,SBD,M
Boys,51.71,NS,Kevion Terrell,Victoria St. Joseph,,,,,,Single-ply,SBD,M
Boys,51.71,NS,Izac Canchola,Victoria St. Joseph,,,,,,Single-ply,SBD,M
Boys,55.79,1,Dalton Opperman,Columbus,55.25,136.08,83.91,142.88,362.87,Single-ply,SBD,M
Boys,55.79,2,Austin Draper,East Bernard,54.79,138.35,65.77,138.35,342.46,Single-ply,SBD,M
Boys,55.79,3,Eric LaCourse,Columbus,55.79,127.01,72.57,142.88,342.46,Single-ply,SBD,M
Boys,55.79,4,Tyrin Brito,Ganado,55.16,138.35,54.43,145.15,337.93,Single-ply,SBD,M
Boys,55.79,5,Raymond Chavez,Columbus,55.79,99.79,49.9,95.25,244.94,Single-ply,SBD,M
Boys,59.87,1,Isaac Garza,Ganado,59.56,147.42,104.33,170.1,421.84,Single-ply,SBD,M
Boys,59.87,2,Dedrick Querner,Altair Rice,58.06,136.08,70.31,158.76,365.14,Single-ply,SBD,M
Boys,59.87,3,Kameron Matthews,East Bernard,58.92,142.88,79.38,142.88,365.14,Single-ply,SBD,M
Boys,59.87,4,Hunter Kohleffel,Columbus,59.06,149.69,65.77,142.88,358.34,Single-ply,SBD,M
Boys,59.87,5,Michael Cardenas,Gonzales,59.56,115.67,79.38,136.08,331.12,Single-ply,SBD,M
Boys,67.13,1,Chance Marler,Victoria St. Joseph,65.95,219.99,115.67,226.8,562.45,Single-ply,SBD,M
Boys,67.13,2,Aden Thedford,Vanderbilt Industrial,65.73,165.56,95.25,181.44,442.25,Single-ply,SBD,M
Boys,67.13,3,Simon Suarez,Altair Rice,66.22,161.03,106.59,172.37,439.98,Single-ply,SBD,M
Boys,67.13,4,Eric Gutierrez,Altair Rice,66.22,158.76,97.52,156.49,412.77,Single-ply,SBD,M
Boys,67.13,5,Alex Bonorden,Victoria St. Joseph,67.13,151.95,79.38,181.44,412.77,Single-ply,SBD,M
Boys,67.13,6,Niklas Schatz,East Bernard,65.41,158.76,79.38,172.37,410.5,Single-ply,SBD,M
Boys,67.13,7,Mason Glueck,Altair Rice,65.77,149.69,79.38,179.17,408.23,Single-ply,SBD,M
Boys,67.13,8,Jacob Reece,Bastrop,62.51,161.03,74.84,165.56,401.43,Single-ply,SBD,M
Boys,67.13,9,Sutton Lindsley,Bastrop,63.46,142.88,111.13,142.88,396.89,Single-ply,SBD,M
Boys,74.84,1,George Sanchez,Luling,74.75,204.12,124.74,204.12,532.97,Single-ply,SBD,M
Boys,74.84,2,Devin Sims,Altair Rice,74.39,192.78,131.54,199.58,523.9,Single-ply,SBD,M
Boys,74.84,3,Keaton McDonald,East Bernard,70.81,170.1,102.06,192.78,464.93,Single-ply,SBD,M
Boys,74.84,4,Justin Ficklen,Cuero,73.35,163.29,111.13,183.7,458.13,Single-ply,SBD,M
Boys,74.84,5,Hebber Cardona,Gonzales,72.39,158.76,111.13,165.56,435.45,Single-ply,SBD,M
Boys,74.84,6,Seth Gibson,Gonzales,73.62,158.76,111.13,165.56,435.45,Single-ply,SBD,M
Boys,74.84,7,Mason Alexander,Victoria St. Joseph,73.48,156.49,88.45,131.54,376.48,Single-ply,SBD,M
Boys,74.84,8,Juan Barboza,Altair Rice,73.94,147.42,68.04,147.42,362.87,Single-ply,SBD,M
Boys,74.84,9,Chris Gobellan,Ganado,71.4,124.74,74.84,136.08,335.66,Single-ply,SBD,M
Boys,74.84,DQ,Giovanni Vasquez,Altair Rice,73.48,,,,,Single-ply,SBD,M
Boys,82.1,1,Dayton Ball,Cuero,82.1,226.8,136.08,235.87,598.74,Single-ply,SBD,M
Boys,82.1,2,John Jackson,Hempstead,81.06,174.63,113.4,192.78,480.81,Single-ply,SBD,M
Boys,82.1,3,Micheal Allgood,Giddings,75.3,185.97,102.06,190.51,478.54,Single-ply,SBD,M
Boys,82.1,4,Alex Toriz,Altair Rice,80.74,167.83,113.4,181.44,462.66,Single-ply,SBD,M
Boys,82.1,5,Landon Rodriguez,Altair Rice,80.74,167.83,81.65,161.03,410.5,Single-ply,SBD,M
Boys,82.1,6,James Sudik,Ganado,75.61,142.88,70.31,122.47,335.66,Single-ply,SBD,M
Boys,82.1,DQ,Sergio Torres,Gonzales,78.29,188.24,102.06,,,Single-ply,SBD,M
Boys,82.1,DQ,James Martinez,Gonzales,80.6,190.51,,,,Single-ply,SBD,M
Boys,82.1,DQ,Thomas Watkins,Hempstead,79.24,,90.72,,,Single-ply,SBD,M
Boys,82.1,DQ,Jose Cruz,Luling,80.69,154.22,86.18,,,Single-ply,SBD,M
Boys,89.81,1,Sammy Segura,Giddings,87.77,215.46,142.88,195.04,553.38,Single-ply,SBD,M
Boys,89.81,2,Jackson Roensch,Columbus,86.64,192.78,136.08,190.51,519.36,Single-ply,SBD,M
Boys,89.81,3,Jesus Alfaro,Bastrop,82.78,181.44,129.27,206.38,517.1,Single-ply,SBD,M
Boys,89.81,4,Brian Garza,Gonzales,87.32,233.6,104.33,170.1,508.02,Single-ply,SBD,M
Boys,89.81,5,Ben Sandoval,East Bernard,83.69,195.04,102.06,183.7,480.81,Single-ply,SBD,M
Boys,89.81,6,Aaron Mata,Ganado,88.68,190.51,97.52,190.51,478.54,Single-ply,SBD,M
Boys,89.81,7,Isaiah Estrada,Victoria St. Joseph,88.09,190.51,102.06,181.44,474,Single-ply,SBD,M
Boys,89.81,8,Logan Gaskey,Bastrop,83.6,170.1,108.86,183.7,462.66,Single-ply,SBD,M
Boys,89.81,9,Jude Dennis,Bastrop,83.64,165.56,102.06,188.24,455.86,Single-ply,SBD,M
Boys,89.81,10,Caleb Limon,Victoria St. Joseph,88.72,181.44,92.99,165.56,439.98,Single-ply,SBD,M
Boys,89.81,11,Logan Warva,Columbus,87.09,140.61,90.72,149.69,381.02,Single-ply,SBD,M
Boys,89.81,12,Andrew Rodriguez,Giddings,87.86,149.69,95.25,122.47,367.41,Single-ply,SBD,M
Boys,89.81,13,Justin Rangel,Bastrop,87.72,72.57,58.97,124.74,256.28,Single-ply,SBD,M
Boys,89.81,DQ,Everado Esquivel,Altair Rice,89.36,,,,,Single-ply,SBD,M
Boys,99.79,1,Trace McAfee,Hallettsville,93.89,272.16,156.49,238.14,666.78,Single-ply,SBD,M
Boys,99.79,2,Jt Esparza,Gonzales,98.16,231.33,147.42,229.06,607.81,Single-ply,SBD,M
Boys,99.79,3,Greg Rivas,Bastrop,97.16,229.06,142.88,233.6,605.55,Single-ply,SBD,M
Boys,99.79,4,Adrian Flores,Altair Rice,92.53,233.6,127.01,217.72,578.33,Single-ply,SBD,M
Boys,99.79,5,Ryan Hlavinka,East Bernard,98.7,226.8,117.93,208.65,553.38,Single-ply,SBD,M
Boys,99.79,6,Andrew Morrow,Hallettsville,98.52,199.58,102.06,172.37,474,Single-ply,SBD,M
Boys,99.79,7,Shannon Tesch,Vanderbilt Industrial,93.08,170.1,97.52,165.56,433.18,Single-ply,SBD,M
Boys,99.79,8,Christian Almaguer,Gonzales,94.89,151.95,92.99,151.95,396.89,Single-ply,SBD,M
Boys,99.79,9,Silvano Reyes,Gonzales,99.2,170.1,86.18,122.47,378.75,Single-ply,SBD,M
Boys,99.79,10,Miguel Briones,Ganado,96.25,154.22,88.45,129.27,371.95,Single-ply,SBD,M
Boys,99.79,DQ,Seth Fields,Luling,95.57,,,,,Single-ply,SBD,M
Boys,109.77,1,Joshua Koppenol,Hallettsville,107.95,260.82,185.97,217.72,664.51,Single-ply,SBD,M
Boys,109.77,2,Richard Rogers,Giddings,102.56,242.67,140.61,233.6,616.89,Single-ply,SBD,M
Boys,109.77,3,Vicente Reyna,Gonzales,102.87,215.46,133.81,215.46,564.72,Single-ply,SBD,M
Boys,109.77,4,Isaiah Evans,Columbus,105.6,226.8,127.01,195.04,548.85,Single-ply,SBD,M
Boys,109.77,5,Azreal Valle,Luling,109.36,213.19,131.54,199.58,544.31,Single-ply,SBD,M
Boys,109.77,6,Nick Searcy,Cuero,107.95,215.46,113.4,199.58,528.44,Single-ply,SBD,M
Boys,109.77,7,Cameron Antwine,Cuero,101.06,204.12,97.52,210.92,512.56,Single-ply,SBD,M
Boys,109.77,8,Destin Schuler,East Bernard,104.14,190.51,111.13,204.12,505.76,Single-ply,SBD,M
Boys,109.77,9,Miguel Hernandez,Ganado,101.47,215.46,106.59,165.56,487.61,Single-ply,SBD,M
Boys,109.77,10,Juan Hernandez,Brookshire Royal,106.78,197.31,88.45,199.58,485.34,Single-ply,SBD,M
Boys,109.77,11,Tristan Bermea,Vanderbilt Industrial,100.38,183.7,117.93,181.44,483.08,Single-ply,SBD,M
Boys,109.77,12,Evan Woodruff,Victoria St. Joseph,107.46,174.63,97.52,138.35,410.5,Single-ply,SBD,M
Boys,109.77,DQ,Elijah Vernado,Cuero,100.79,,,,,Single-ply,SBD,M
Boys,109.77,DQ,Zach Banda,Cuero,102.65,201.85,95.25,,,Single-ply,SBD,M
Boys,124.74,1,Nick Ramirez,Gonzales,123.38,299.37,147.42,219.99,666.78,Single-ply,SBD,M
Boys,124.74,2,Ronnie Ellis,Altair Rice,113.4,260.82,129.27,263.08,653.17,Single-ply,SBD,M
Boys,124.74,3,Juan Licea,Gonzales,120.47,272.16,142.88,233.6,648.64,Single-ply,SBD,M
Boys,124.74,4,Tyrone Wilson,Bastrop,113.53,233.6,151.95,238.14,623.69,Single-ply,SBD,M
Boys,124.74,5,Jorge Melgoza,Cuero,121.74,240.4,167.83,199.58,607.81,Single-ply,SBD,M
Boys,124.74,6,Sergio Calvo,Victoria St. Joseph,112.08,226.8,115.67,204.12,546.58,Single-ply,SBD,M
Boys,124.74,7,Eduardo Arteaga,Brookshire Royal,118.3,201.85,90.72,197.31,489.88,Single-ply,SBD,M
Boys,124.74,8,Ryan Gomez,Gonzales,115.26,181.44,102.06,181.44,464.93,Single-ply,SBD,M
Boys,124.74,9,Alex Campuzano,Ganado,112.63,185.97,79.38,176.9,442.25,Single-ply,SBD,M
Boys,124.74,10,Dean Ramsey,Ganado,118.57,172.37,90.72,176.9,439.98,Single-ply,SBD,M
Boys,124.74,11,Lance Genzer,Ganado,114.03,142.88,97.52,167.83,408.23,Single-ply,SBD,M
Boys,124.74,DQ,Klayton Manning,Luling,122.65,163.29,,,,Single-ply,SBD,M
Boys,124.74+,1,De'vonze Franklin,Snook,153.77,317.51,188.24,238.14,743.89,Single-ply,SBD,M
Boys,124.74+,2,Jonathan Murry,Luling,144.42,283.5,149.69,226.8,659.98,Single-ply,SBD,M
Boys,124.74+,3,Taj Fields,Altair Rice,136.53,254.01,124.74,199.58,578.33,Single-ply,SBD,M
Boys,124.74+,4,D'Anthony Jackson,Giddings,125.69,217.72,142.88,179.17,539.77,Single-ply,SBD,M
Boys,124.74+,5,Reese Neisner,Columbus,136.21,213.19,113.4,208.65,535.24,Single-ply,SBD,M
Boys,124.74+,6,JR Shauer,East Bernard,133.67,213.19,117.93,174.63,505.76,Single-ply,SBD,M
Boys,124.74+,7,Mauricio Brito,Ganado,127.46,233.6,97.52,170.1,501.22,Single-ply,SBD,M
Boys,124.74+,8,Dylan Ramirez,Altair Rice,134.72,204.12,104.33,165.56,474,Single-ply,SBD,M
Boys,124.74+,9,Kolton Brod,Columbus,138.03,181.44,122.47,167.83,471.74,Single-ply,SBD,M
Boys,124.74+,10,Jonas Deleon,Cuero,144.11,183.7,102.06,129.27,415.04,Single-ply,SBD,M
Boys,124.74+,DQ,Chris Sifuentes,Giddings,133.4,238.14,149.69,,,Single-ply,SBD,M
Boys,124.74+,DQ,Cody Robert,Hallettsville,130.59,172.37,,,,Single-ply,SBD,M
Boys,,NS,Korbin Robinson,Brookshire Royal,,,,,,Single-ply,SBD,M
Boys,,NS,Jordain Martin,Brookshire Royal,,,,,,Single-ply,SBD,M
Boys,,NS,Jeremy Beasely,Brookshire Royal,,,,,,Single-ply,SBD,M
Boys,,NS,Darius Parker,Brookshire Royal,,,,,,Single-ply,SBD,M
Boys,,NS,Jacob Worley,Columbus,,,,,,Single-ply,SBD,M
Boys,,NS,Weston Warschak,Columbus,,,,,,Single-ply,SBD,M
Boys,,NS,Jacob Simpson,Bastrop,,,,,,Single-ply,SBD,M
Boys,,NS,Justin Hoffman,Bastrop,,,,,,Single-ply,SBD,M
Boys,,NS,Caleb Vernor,Cuero,,,,,,Single-ply,SBD,M
Boys,,NS,Moses Alaniz,Cuero,,,,,,Single-ply,SBD,M
Boys,,NS,Corbin Klausmeyer,Columbus,,,,,,Single-ply,SBD,M
Boys,,NS,Kenneth Blaha,Hallettsville,,,,,,Single-ply,SBD,M
Boys,,NS,Hunter Flanagan,Hallettsville,,,,,,Single-ply,SBD,M
Boys,,NS,Andrew Powell,Hallettsville,,,,,,Single-ply,SBD,M
Boys,,NS,Brenden Rodriguez,Gonzales,,,,,,Single-ply,SBD,M
Boys,,NS,Issac Rimes,Giddings,,,,,,Single-ply,SBD,M
Boys,,NS,Trevor Vasquez,Ganado,,,,,,Single-ply,SBD,M
Boys,,NS,Gabriel Ramos,Giddings,,,,,,Single-ply,SBD,M
Boys,,NS,Matthew Forberg,Luling,,,,,,Single-ply,SBD,M
Boys,,NS,Chris Bethany,Vanderbilt Industrial,,,,,,Single-ply,SBD,M
Boys,,NS,William Hart,Vanderbilt Industrial,,,,,,Single-ply,SBD,M
Boys,,NS,Nate Beck,Victoria St. Joseph,,,,,,Single-ply,SBD,M
