Name,Sex,AgeClass,BodyweightKg,WeightClassKg,Division,Equipment,Event,Bench1Kg,Bench2Kg,Bench3Kg,Best3BenchKg,TotalKg,Place
Marcelle Brown,F,23.5-38.5,61.9,63,F-C-Open,Raw,B,-62.5,65,-70,65,65,1
Smudge Thomson,F,23.5-38.5,69.8,72,F-C-Open,Raw,B,70,75,80,80,80,1
Douglas Scott,M,23.5-38.5,72.8,74,M-E-Open,Single-ply,B,122.5,-130,130,130,130,1
Michael Ferguson,M,18.5-22.5,74.3,83,M-C-U23,Raw,B,110,115,-117.5,115,115,1
Greg Stewart,M,39.5-48.5,82.4,83,M-C-M1,Raw,B,95,105,110,110,110,2
Liam Murray,M,49.5-58.5,89.7,93,M-C-M2,Raw,B,140,147.5,-150,147.5,147.5,1
Martin Flett,M,49.5-58.5,103.9,105,M-E-M2,Single-ply,B,-190,190,-203,190,190,1
William Rodgers,M,23.5-38.5,115,120,M-C-Open,Raw,B,-145,155,-175,155,155,1
Lee Christie,M,39.5-48.5,110.1,120,M-C-M1,Raw,B,135,140,-145,140,140,2
